# BEGIN PLOT
Legend=1
LogY=1
Title=Inclusive jet multiplicity
XLabel=$N_{\mathrm{jet}}$
YLabel=$\sigma(\geq N_{\mathrm{jet}})$ [pb]
XMajorTickMarks=10
XMinorTickMarks=0
ErrorBands=1
RemoveOptions=1
DrawOnly=//afs/cern.ch/user/y/yilinz/work/genVal_eos/genValidation/MGv2_NLO_May26.yoda/MC_JETS:ENERGY=13600/jet_multi_inclusive //afs/cern.ch/user/y/yilinz/work/genVal_eos/genValidation/MGv356_wellnu01j_5f_NLO_FXFX.yoda/MC_JETS:ENERGY=13600/jet_multi_inclusive //afs/cern.ch/user/y/yilinz/work/genVal_eos/genValidation/MGv3_NLO_May26.yoda/MC_JETS:ENERGY=13600/jet_multi_inclusive
LegendOnly=//afs/cern.ch/user/y/yilinz/work/genVal_eos/genValidation/MGv2_NLO_May26.yoda/MC_JETS:ENERGY=13600/jet_multi_inclusive //afs/cern.ch/user/y/yilinz/work/genVal_eos/genValidation/MGv356_wellnu01j_5f_NLO_FXFX.yoda/MC_JETS:ENERGY=13600/jet_multi_inclusive //afs/cern.ch/user/y/yilinz/work/genVal_eos/genValidation/MGv3_NLO_May26.yoda/MC_JETS:ENERGY=13600/jet_multi_inclusive
RatioPlot=1
RatioPlotReference=//afs/cern.ch/user/y/yilinz/work/genVal_eos/genValidation/MGv2_NLO_May26.yoda/MC_JETS:ENERGY=13600/jet_multi_inclusive
RatioPlotYLabel=Ratio
# END PLOT

# BEGIN HISTO1D //afs/cern.ch/user/y/yilinz/work/genVal_eos/genValidation/MGv2_NLO_May26.yoda/MC_JETS:ENERGY=13600/jet_multi_inclusive
ErrorBars=1
LineColor=red
LineStyle=solid
Path=//afs/cern.ch/user/y/yilinz/work/genVal_eos/genValidation/MGv2_NLO_May26.yoda/MC_JETS:ENERGY=13600/jet_multi_inclusive
ScaledBy=9.98518672733194496e-07
Title=W+01j@NLO(v2918)
# xlow	 xhigh	 val	 errminus	 errplus
-5.000000e-01	5.000000e-01	6.549564e+04	1.277465e+02	1.277465e+02
5.000000e-01	1.500000e+00	5.009953e+04	1.121675e+02	1.121675e+02
1.500000e+00	2.500000e+00	1.459814e+04	6.591052e+01	6.591052e+01
2.500000e+00	3.500000e+00	4.341238e+03	3.491786e+01	3.491786e+01
3.500000e+00	4.500000e+00	1.019412e+03	1.680805e+01	1.680805e+01
4.500000e+00	5.500000e+00	2.432094e+02	8.113637e+00	8.113637e+00
5.500000e+00	6.500000e+00	0.000000e+00	0.000000e+00	0.000000e+00
# END HISTO1D


# BEGIN HISTO1D //afs/cern.ch/user/y/yilinz/work/genVal_eos/genValidation/MGv356_wellnu01j_5f_NLO_FXFX.yoda/MC_JETS:ENERGY=13600/jet_multi_inclusive
ErrorBars=1
LineColor=blue
LineStyle=solid
Path=//afs/cern.ch/user/y/yilinz/work/genVal_eos/genValidation/MGv356_wellnu01j_5f_NLO_FXFX.yoda/MC_JETS:ENERGY=13600/jet_multi_inclusive
ScaledBy=9.95705314576860415e-07
Title=W+01j@NLO(v356)
# xlow	 xhigh	 val	 errminus	 errplus
-5.000000e-01	5.000000e-01	6.519564e+04	1.204890e+02	1.204890e+02
5.000000e-01	1.500000e+00	4.972878e+04	1.056461e+02	1.056461e+02
1.500000e+00	2.500000e+00	1.439799e+04	6.158009e+01	6.158009e+01
2.500000e+00	3.500000e+00	4.332895e+03	3.310287e+01	3.310287e+01
3.500000e+00	4.500000e+00	1.073193e+03	1.626496e+01	1.626496e+01
4.500000e+00	5.500000e+00	2.912884e+02	8.083636e+00	8.083636e+00
5.500000e+00	6.500000e+00	0.000000e+00	0.000000e+00	0.000000e+00
# END HISTO1D


# BEGIN HISTO1D //afs/cern.ch/user/y/yilinz/work/genVal_eos/genValidation/MGv3_NLO_May26.yoda/MC_JETS:ENERGY=13600/jet_multi_inclusive
ErrorBars=1
LineColor=green
LineStyle=solid
Path=//afs/cern.ch/user/y/yilinz/work/genVal_eos/genValidation/MGv3_NLO_May26.yoda/MC_JETS:ENERGY=13600/jet_multi_inclusive
ScaledBy=9.96670784066914361e-07
Title=W+01j@NLO(v352)
# xlow	 xhigh	 val	 errminus	 errplus
-5.000000e-01	5.000000e-01	6.513291e+04	1.204902e+02	1.204902e+02
5.000000e-01	1.500000e+00	4.969556e+04	1.055958e+02	1.055958e+02
1.500000e+00	2.500000e+00	1.443862e+04	6.158743e+01	6.158743e+01
2.500000e+00	3.500000e+00	4.285368e+03	3.300856e+01	3.300856e+01
3.500000e+00	4.500000e+00	1.095439e+03	1.634401e+01	1.634401e+01
4.500000e+00	5.500000e+00	2.999244e+02	8.199196e+00	8.199196e+00
5.500000e+00	6.500000e+00	0.000000e+00	0.000000e+00	0.000000e+00
# END HISTO1D

