# BEGIN PLOT
Legend=1
LogY=0
Title=$A_3$ for $W^-$
XLabel=$p_\perp(W)$ [GeV]
YLabel=$A_3$
LogX=1
YMin=-0.2
YMax=0.3
RemoveOptions=1
DrawOnly=//eos/home-y/yilinz/genVal_eos/genValidation/MGv2_LO_May26.yoda/MC_WPOL:ENERGY=13600/A3_wminus //eos/home-y/yilinz/genVal_eos/genValidation/MGv356_wellnu01j_5f_LO_MLM.yoda/MC_WPOL:ENERGY=13600/A3_wminus
LegendOnly=//eos/home-y/yilinz/genVal_eos/genValidation/MGv2_LO_May26.yoda/MC_WPOL:ENERGY=13600/A3_wminus //eos/home-y/yilinz/genVal_eos/genValidation/MGv356_wellnu01j_5f_LO_MLM.yoda/MC_WPOL:ENERGY=13600/A3_wminus
RatioPlot=1
RatioPlotReference=//eos/home-y/yilinz/genVal_eos/genValidation/MGv2_LO_May26.yoda/MC_WPOL:ENERGY=13600/A3_wminus
RatioPlotYLabel=Ratio
# END PLOT

# BEGIN HISTO1D //eos/home-y/yilinz/genVal_eos/genValidation/MGv2_LO_May26.yoda/MC_WPOL:ENERGY=13600/A3_wminus
ErrorBars=1
LineColor=red
LineStyle=solid
Path=//eos/home-y/yilinz/genVal_eos/genValidation/MGv2_LO_May26.yoda/MC_WPOL:ENERGY=13600/A3_wminus
Title=W+01j@LO(v2918)
# xlow	 xhigh	 val	 errminus	 errplus
1.000000e+00	1.092258e+00	1.342973e-01	1.269108e-01	1.269108e-01
1.092258e+00	1.193027e+00	1.764476e-02	1.237118e-01	1.237118e-01
1.193027e+00	1.303093e+00	1.279724e-01	1.139048e-01	1.139048e-01
1.303093e+00	1.423313e+00	-3.681766e-02	1.017374e-01	1.017374e-01
1.423313e+00	1.554624e+00	1.575693e-01	9.439974e-02	9.439974e-02
1.554624e+00	1.698050e+00	7.190354e-02	9.204413e-02	9.204413e-02
1.698050e+00	1.854708e+00	1.604526e-02	8.228115e-02	8.228115e-02
1.854708e+00	2.025819e+00	1.583201e-01	7.819414e-02	7.819414e-02
2.025819e+00	2.212717e+00	9.686122e-02	7.211248e-02	7.211248e-02
2.212717e+00	2.416857e+00	7.642038e-02	6.676069e-02	6.676069e-02
2.416857e+00	2.639830e+00	6.597045e-02	6.285033e-02	6.285033e-02
2.639830e+00	2.883375e+00	8.741371e-02	5.984062e-02	5.984062e-02
2.883375e+00	3.149388e+00	2.049643e-01	5.662858e-02	5.662858e-02
3.149388e+00	3.439943e+00	1.024141e-01	5.363253e-02	5.363253e-02
3.439943e+00	3.757304e+00	2.059931e-01	5.200303e-02	5.200303e-02
3.757304e+00	4.103944e+00	1.138775e-01	5.137922e-02	5.137922e-02
4.103944e+00	4.482564e+00	9.886869e-02	4.942667e-02	4.942667e-02
4.482564e+00	4.896115e+00	1.044758e-01	4.880417e-02	4.880417e-02
4.896115e+00	5.347819e+00	2.164228e-01	4.854341e-02	4.854341e-02
5.347819e+00	5.841196e+00	1.376371e-01	4.780322e-02	4.780322e-02
5.841196e+00	6.380091e+00	1.476585e-01	4.693872e-02	4.693872e-02
6.380091e+00	6.968703e+00	2.446717e-01	4.614292e-02	4.614292e-02
6.968703e+00	7.611619e+00	1.978447e-01	4.650347e-02	4.650347e-02
7.611619e+00	8.313849e+00	2.010638e-01	4.597665e-02	4.597665e-02
8.313849e+00	9.080865e+00	1.627549e-01	4.642908e-02	4.642908e-02
9.080865e+00	9.918644e+00	1.620113e-01	4.532160e-02	4.532160e-02
9.918644e+00	1.083371e+01	2.264581e-01	4.644919e-02	4.644919e-02
1.083371e+01	1.183321e+01	1.868407e-01	4.638439e-02	4.638439e-02
1.183321e+01	1.292491e+01	2.614272e-01	4.630288e-02	4.630288e-02
1.292491e+01	1.411733e+01	1.837299e-01	4.646889e-02	4.646889e-02
1.411733e+01	1.541977e+01	1.637253e-01	4.711202e-02	4.711202e-02
1.541977e+01	1.684236e+01	2.500501e-01	4.706585e-02	4.706585e-02
1.684236e+01	1.839619e+01	9.332228e-02	4.819750e-02	4.819750e-02
1.839619e+01	2.009338e+01	4.299484e-02	4.858680e-02	4.858680e-02
2.009338e+01	2.194715e+01	1.977501e-01	5.031489e-02	5.031489e-02
2.194715e+01	2.397194e+01	1.613266e-01	5.148253e-02	5.148253e-02
2.397194e+01	2.618354e+01	1.802105e-01	5.180033e-02	5.180033e-02
2.618354e+01	2.859917e+01	1.040664e-01	5.585977e-02	5.585977e-02
2.859917e+01	3.123766e+01	1.581706e-01	5.799646e-02	5.799646e-02
3.123766e+01	3.411957e+01	1.031588e-01	5.898948e-02	5.898948e-02
3.411957e+01	3.726736e+01	1.498605e-01	6.178817e-02	6.178817e-02
3.726736e+01	4.070556e+01	1.241701e-01	6.393208e-02	6.393208e-02
4.070556e+01	4.446096e+01	5.789445e-02	6.832615e-02	6.832615e-02
4.446096e+01	4.856282e+01	2.750725e-01	7.293371e-02	7.293371e-02
4.856282e+01	5.304311e+01	3.191625e-02	7.420132e-02	7.420132e-02
5.304311e+01	5.793675e+01	4.795160e-02	7.997076e-02	7.997076e-02
5.793675e+01	6.328185e+01	-4.950173e-02	9.069103e-02	9.069103e-02
6.328185e+01	6.912009e+01	1.729857e-01	9.894516e-02	9.894516e-02
6.912009e+01	7.549694e+01	7.787359e-02	1.054618e-01	1.054618e-01
7.549694e+01	8.246211e+01	-3.445316e-02	1.096672e-01	1.096672e-01
8.246211e+01	9.006987e+01	5.112295e-02	1.282960e-01	1.282960e-01
9.006987e+01	9.837951e+01	1.157443e-01	1.412012e-01	1.412012e-01
9.837951e+01	1.074558e+02	2.696206e-01	1.595902e-01	1.595902e-01
1.074558e+02	1.173694e+02	7.366310e-02	1.712084e-01	1.712084e-01
1.173694e+02	1.281976e+02	-7.096985e-02	1.993179e-01	1.993179e-01
1.281976e+02	1.400248e+02	-2.024345e-01	2.451657e-01	2.451657e-01
1.400248e+02	1.529432e+02	6.441675e-02	3.063489e-01	3.063489e-01
1.529432e+02	1.670533e+02	2.693499e-01	3.227824e-01	3.227824e-01
1.670533e+02	1.824653e+02	3.225574e-01	3.822578e-01	3.822578e-01
1.824653e+02	1.992991e+02	-1.338103e-01	4.985756e-01	4.985756e-01
1.992991e+02	2.176860e+02	8.303913e-01	6.669902e-01	6.669902e-01
2.176860e+02	2.377692e+02	-5.181019e-01	5.825673e-01	5.825673e-01
2.377692e+02	2.597052e+02	-8.741138e-01	9.362169e-01	9.362169e-01
2.597052e+02	2.836650e+02	-5.511065e-01	1.262537e+00	1.262537e+00
2.836650e+02	3.098352e+02	6.053931e-01	6.919816e-01	6.919816e-01
3.098352e+02	3.384199e+02	-4.805591e-01	6.707550e-01	6.707550e-01
3.384199e+02	3.696417e+02	nan	nan	nan
3.696417e+02	4.037440e+02	-1.175235e+00	5.146273e+00	5.146273e+00
4.037440e+02	4.409924e+02	nan	nan	nan
4.409924e+02	4.816774e+02	nan	nan	nan
4.816774e+02	5.261158e+02	6.531271e-01	nan	nan
5.261158e+02	5.746540e+02	nan	nan	nan
5.746540e+02	6.276702e+02	nan	nan	nan
6.276702e+02	6.855776e+02	nan	nan	nan
6.855776e+02	7.488273e+02	nan	nan	nan
7.488273e+02	8.179124e+02	nan	nan	nan
8.179124e+02	8.933710e+02	nan	nan	nan
8.933710e+02	9.757913e+02	nan	nan	nan
9.757913e+02	1.065816e+03	nan	nan	nan
1.065816e+03	1.164145e+03	nan	nan	nan
1.164145e+03	1.271546e+03	nan	nan	nan
1.271546e+03	1.388856e+03	nan	nan	nan
1.388856e+03	1.516989e+03	nan	nan	nan
1.516989e+03	1.656943e+03	nan	nan	nan
1.656943e+03	1.809808e+03	nan	nan	nan
1.809808e+03	1.976777e+03	nan	nan	nan
1.976777e+03	2.159150e+03	nan	nan	nan
2.159150e+03	2.358348e+03	nan	nan	nan
2.358348e+03	2.575923e+03	nan	nan	nan
2.575923e+03	2.813572e+03	nan	nan	nan
2.813572e+03	3.073145e+03	nan	nan	nan
3.073145e+03	3.356667e+03	nan	nan	nan
3.356667e+03	3.666345e+03	nan	nan	nan
3.666345e+03	4.004593e+03	nan	nan	nan
4.004593e+03	4.374047e+03	nan	nan	nan
4.374047e+03	4.777586e+03	nan	nan	nan
4.777586e+03	5.218355e+03	nan	nan	nan
5.218355e+03	5.699788e+03	nan	nan	nan
5.699788e+03	6.225637e+03	nan	nan	nan
6.225637e+03	6.800000e+03	nan	nan	nan
# END HISTO1D


# BEGIN HISTO1D //eos/home-y/yilinz/genVal_eos/genValidation/MGv356_wellnu01j_5f_LO_MLM.yoda/MC_WPOL:ENERGY=13600/A3_wminus
ErrorBars=1
LineColor=blue
LineStyle=solid
Path=//eos/home-y/yilinz/genVal_eos/genValidation/MGv356_wellnu01j_5f_LO_MLM.yoda/MC_WPOL:ENERGY=13600/A3_wminus
Title=W+01j@LO(v356)
# xlow	 xhigh	 val	 errminus	 errplus
1.000000e+00	1.092258e+00	6.523021e-02	1.258891e-01	1.258891e-01
1.092258e+00	1.193027e+00	-1.100379e-01	1.215452e-01	1.215452e-01
1.193027e+00	1.303093e+00	-4.676033e-02	1.135476e-01	1.135476e-01
1.303093e+00	1.423313e+00	-1.688245e-01	1.071854e-01	1.071854e-01
1.423313e+00	1.554624e+00	-1.123668e-01	9.973300e-02	9.973300e-02
1.554624e+00	1.698050e+00	9.198764e-02	8.699605e-02	8.699605e-02
1.698050e+00	1.854708e+00	1.237397e-01	8.178890e-02	8.178890e-02
1.854708e+00	2.025819e+00	-1.087214e-02	7.424688e-02	7.424688e-02
2.025819e+00	2.212717e+00	8.529766e-02	7.392764e-02	7.392764e-02
2.212717e+00	2.416857e+00	7.072540e-02	6.547352e-02	6.547352e-02
2.416857e+00	2.639830e+00	9.853684e-02	6.070913e-02	6.070913e-02
2.639830e+00	2.883375e+00	4.525933e-02	5.930509e-02	5.930509e-02
2.883375e+00	3.149388e+00	8.406255e-02	5.611076e-02	5.611076e-02
3.149388e+00	3.439943e+00	8.686408e-02	5.310010e-02	5.310010e-02
3.439943e+00	3.757304e+00	1.442341e-01	5.278967e-02	5.278967e-02
3.757304e+00	4.103944e+00	1.581094e-01	5.011513e-02	5.011513e-02
4.103944e+00	4.482564e+00	4.055125e-02	4.901550e-02	4.901550e-02
4.482564e+00	4.896115e+00	1.327837e-01	4.780781e-02	4.780781e-02
4.896115e+00	5.347819e+00	1.357013e-01	4.669187e-02	4.669187e-02
5.347819e+00	5.841196e+00	1.207508e-01	4.632012e-02	4.632012e-02
5.841196e+00	6.380091e+00	2.147813e-01	4.602907e-02	4.602907e-02
6.380091e+00	6.968703e+00	2.221311e-01	4.490732e-02	4.490732e-02
6.968703e+00	7.611619e+00	2.476562e-01	4.541313e-02	4.541313e-02
7.611619e+00	8.313849e+00	2.327084e-01	4.482443e-02	4.482443e-02
8.313849e+00	9.080865e+00	2.219411e-01	4.624151e-02	4.624151e-02
9.080865e+00	9.918644e+00	2.313666e-01	4.440354e-02	4.440354e-02
9.918644e+00	1.083371e+01	1.128839e-01	4.416849e-02	4.416849e-02
1.083371e+01	1.183321e+01	1.350597e-01	4.635646e-02	4.635646e-02
1.183321e+01	1.292491e+01	8.674500e-02	4.552631e-02	4.552631e-02
1.292491e+01	1.411733e+01	2.196941e-01	4.647177e-02	4.647177e-02
1.411733e+01	1.541977e+01	3.053066e-01	4.577635e-02	4.577635e-02
1.541977e+01	1.684236e+01	1.951376e-01	4.703680e-02	4.703680e-02
1.684236e+01	1.839619e+01	2.279680e-01	4.831968e-02	4.831968e-02
1.839619e+01	2.009338e+01	1.149392e-01	4.832960e-02	4.832960e-02
2.009338e+01	2.194715e+01	2.347919e-01	4.903030e-02	4.903030e-02
2.194715e+01	2.397194e+01	8.759970e-02	5.044109e-02	5.044109e-02
2.397194e+01	2.618354e+01	1.526595e-01	5.229651e-02	5.229651e-02
2.618354e+01	2.859917e+01	3.162490e-02	5.368225e-02	5.368225e-02
2.859917e+01	3.123766e+01	2.146978e-01	5.410854e-02	5.410854e-02
3.123766e+01	3.411957e+01	9.837323e-02	5.620953e-02	5.620953e-02
3.411957e+01	3.726736e+01	2.466335e-02	6.089350e-02	6.089350e-02
3.726736e+01	4.070556e+01	2.270918e-02	6.353277e-02	6.353277e-02
4.070556e+01	4.446096e+01	1.069956e-01	6.609986e-02	6.609986e-02
4.446096e+01	4.856282e+01	2.095645e-01	6.882167e-02	6.882167e-02
4.856282e+01	5.304311e+01	2.002504e-01	7.962453e-02	7.962453e-02
5.304311e+01	5.793675e+01	1.290450e-01	7.786750e-02	7.786750e-02
5.793675e+01	6.328185e+01	3.216119e-02	8.911541e-02	8.911541e-02
6.328185e+01	6.912009e+01	4.906251e-02	9.543877e-02	9.543877e-02
6.912009e+01	7.549694e+01	1.326169e-01	1.013906e-01	1.013906e-01
7.549694e+01	8.246211e+01	9.969079e-02	1.196263e-01	1.196263e-01
8.246211e+01	9.006987e+01	4.501301e-02	1.306344e-01	1.306344e-01
9.006987e+01	9.837951e+01	1.743132e-02	1.451216e-01	1.451216e-01
9.837951e+01	1.074558e+02	9.217475e-02	1.509075e-01	1.509075e-01
1.074558e+02	1.173694e+02	-6.206552e-03	1.728560e-01	1.728560e-01
1.173694e+02	1.281976e+02	7.331228e-03	2.182071e-01	2.182071e-01
1.281976e+02	1.400248e+02	1.773856e-02	2.271765e-01	2.271765e-01
1.400248e+02	1.529432e+02	-7.489243e-03	2.634533e-01	2.634533e-01
1.529432e+02	1.670533e+02	-2.417558e-01	2.849847e-01	2.849847e-01
1.670533e+02	1.824653e+02	-3.233047e-01	4.115083e-01	4.115083e-01
1.824653e+02	1.992991e+02	3.368803e-01	3.964782e-01	3.964782e-01
1.992991e+02	2.176860e+02	-3.400504e-03	4.631778e-01	4.631778e-01
2.176860e+02	2.377692e+02	9.896473e-02	6.237622e-01	6.237622e-01
2.377692e+02	2.597052e+02	-7.143146e-01	1.359046e+00	1.359046e+00
2.597052e+02	2.836650e+02	-3.638763e-01	7.500550e-01	7.500550e-01
2.836650e+02	3.098352e+02	1.123848e+00	4.941655e-01	4.941655e-01
3.098352e+02	3.384199e+02	8.632770e-01	nan	nan
3.384199e+02	3.696417e+02	3.275991e+00	nan	nan
3.696417e+02	4.037440e+02	nan	nan	nan
4.037440e+02	4.409924e+02	nan	nan	nan
4.409924e+02	4.816774e+02	nan	nan	nan
4.816774e+02	5.261158e+02	nan	nan	nan
5.261158e+02	5.746540e+02	nan	nan	nan
5.746540e+02	6.276702e+02	nan	nan	nan
6.276702e+02	6.855776e+02	nan	nan	nan
6.855776e+02	7.488273e+02	nan	nan	nan
7.488273e+02	8.179124e+02	nan	nan	nan
8.179124e+02	8.933710e+02	nan	nan	nan
8.933710e+02	9.757913e+02	nan	nan	nan
9.757913e+02	1.065816e+03	nan	nan	nan
1.065816e+03	1.164145e+03	nan	nan	nan
1.164145e+03	1.271546e+03	nan	nan	nan
1.271546e+03	1.388856e+03	nan	nan	nan
1.388856e+03	1.516989e+03	nan	nan	nan
1.516989e+03	1.656943e+03	nan	nan	nan
1.656943e+03	1.809808e+03	nan	nan	nan
1.809808e+03	1.976777e+03	nan	nan	nan
1.976777e+03	2.159150e+03	nan	nan	nan
2.159150e+03	2.358348e+03	nan	nan	nan
2.358348e+03	2.575923e+03	nan	nan	nan
2.575923e+03	2.813572e+03	nan	nan	nan
2.813572e+03	3.073145e+03	nan	nan	nan
3.073145e+03	3.356667e+03	nan	nan	nan
3.356667e+03	3.666345e+03	nan	nan	nan
3.666345e+03	4.004593e+03	nan	nan	nan
4.004593e+03	4.374047e+03	nan	nan	nan
4.374047e+03	4.777586e+03	nan	nan	nan
4.777586e+03	5.218355e+03	nan	nan	nan
5.218355e+03	5.699788e+03	nan	nan	nan
5.699788e+03	6.225637e+03	nan	nan	nan
6.225637e+03	6.800000e+03	nan	nan	nan
# END HISTO1D

