# BEGIN PLOT
Legend=1
LogY=0
Title=$A_6$ for $W^-$
XLabel=$p_\perp(W)$ [GeV]
YLabel=$A_6$
LogX=1
YMin=-0.1
YMax=0.1
RemoveOptions=1
DrawOnly=//eos/home-y/yilinz/genVal_eos/genValidation/MGv2_wellnu0123j_5f_LO_MLM.yoda/MC_WPOL:ENERGY=13600/A6_wminus //eos/home-y/yilinz/genVal_eos/genValidation/MGv356_wellnu0123j_5f_LO_MLM.yoda/MC_WPOL:ENERGY=13600/A6_wminus
LegendOnly=//eos/home-y/yilinz/genVal_eos/genValidation/MGv2_wellnu0123j_5f_LO_MLM.yoda/MC_WPOL:ENERGY=13600/A6_wminus //eos/home-y/yilinz/genVal_eos/genValidation/MGv356_wellnu0123j_5f_LO_MLM.yoda/MC_WPOL:ENERGY=13600/A6_wminus
RatioPlot=1
RatioPlotReference=//eos/home-y/yilinz/genVal_eos/genValidation/MGv2_wellnu0123j_5f_LO_MLM.yoda/MC_WPOL:ENERGY=13600/A6_wminus
RatioPlotYLabel=Ratio
# END PLOT

# BEGIN HISTO1D //eos/home-y/yilinz/genVal_eos/genValidation/MGv2_wellnu0123j_5f_LO_MLM.yoda/MC_WPOL:ENERGY=13600/A6_wminus
ErrorBars=1
LineColor=red
LineStyle=solid
Path=//eos/home-y/yilinz/genVal_eos/genValidation/MGv2_wellnu0123j_5f_LO_MLM.yoda/MC_WPOL:ENERGY=13600/A6_wminus
Title=W+0123j@LO(v2918)
# xlow	 xhigh	 val	 errminus	 errplus
1.000000e+00	1.092258e+00	8.422805e-03	1.124651e-01	1.124651e-01
1.092258e+00	1.193027e+00	5.671062e-02	1.017352e-01	1.017352e-01
1.193027e+00	1.303093e+00	-2.250205e-02	9.530521e-02	9.530521e-02
1.303093e+00	1.423313e+00	-1.389331e-01	8.934686e-02	8.934686e-02
1.423313e+00	1.554624e+00	-4.253223e-02	7.884672e-02	7.884672e-02
1.554624e+00	1.698050e+00	4.523436e-02	7.841929e-02	7.841929e-02
1.698050e+00	1.854708e+00	2.708454e-03	7.162421e-02	7.162421e-02
1.854708e+00	2.025819e+00	8.495257e-02	6.507055e-02	6.507055e-02
2.025819e+00	2.212717e+00	-7.713346e-02	6.314032e-02	6.314032e-02
2.212717e+00	2.416857e+00	5.669456e-03	5.769056e-02	5.769056e-02
2.416857e+00	2.639830e+00	-1.909773e-02	5.340671e-02	5.340671e-02
2.639830e+00	2.883375e+00	-1.603011e-02	5.092618e-02	5.092618e-02
2.883375e+00	3.149388e+00	-8.183804e-02	4.816469e-02	4.816469e-02
3.149388e+00	3.439943e+00	2.358484e-02	4.634942e-02	4.634942e-02
3.439943e+00	3.757304e+00	4.719664e-02	4.389416e-02	4.389416e-02
3.757304e+00	4.103944e+00	-4.260977e-02	4.287750e-02	4.287750e-02
4.103944e+00	4.482564e+00	-4.245331e-03	4.150785e-02	4.150785e-02
4.482564e+00	4.896115e+00	-1.155727e-02	4.064473e-02	4.064473e-02
4.896115e+00	5.347819e+00	-3.046093e-02	3.953714e-02	3.953714e-02
5.347819e+00	5.841196e+00	4.781025e-02	3.903818e-02	3.903818e-02
5.841196e+00	6.380091e+00	-2.523691e-02	3.936912e-02	3.936912e-02
6.380091e+00	6.968703e+00	-5.180293e-02	3.807306e-02	3.807306e-02
6.968703e+00	7.611619e+00	-6.475799e-02	3.792693e-02	3.792693e-02
7.611619e+00	8.313849e+00	7.187770e-02	3.790181e-02	3.790181e-02
8.313849e+00	9.080865e+00	4.252263e-02	3.710373e-02	3.710373e-02
9.080865e+00	9.918644e+00	-2.760626e-02	3.762889e-02	3.762889e-02
9.918644e+00	1.083371e+01	1.242944e-02	3.717464e-02	3.717464e-02
1.083371e+01	1.183321e+01	-3.548803e-02	3.781062e-02	3.781062e-02
1.183321e+01	1.292491e+01	3.356201e-02	3.759147e-02	3.759147e-02
1.292491e+01	1.411733e+01	1.839015e-02	3.826807e-02	3.826807e-02
1.411733e+01	1.541977e+01	-2.399292e-03	3.857702e-02	3.857702e-02
1.541977e+01	1.684236e+01	-3.211553e-02	3.792771e-02	3.792771e-02
1.684236e+01	1.839619e+01	-4.940229e-02	3.879863e-02	3.879863e-02
1.839619e+01	2.009338e+01	-9.722296e-02	3.996664e-02	3.996664e-02
2.009338e+01	2.194715e+01	2.577310e-02	4.111244e-02	4.111244e-02
2.194715e+01	2.397194e+01	-1.022193e-02	4.100915e-02	4.100915e-02
2.397194e+01	2.618354e+01	3.930796e-02	4.269164e-02	4.269164e-02
2.618354e+01	2.859917e+01	-1.023371e-02	4.385419e-02	4.385419e-02
2.859917e+01	3.123766e+01	4.949442e-02	4.550321e-02	4.550321e-02
3.123766e+01	3.411957e+01	-9.984939e-02	4.645900e-02	4.645900e-02
3.411957e+01	3.726736e+01	3.184735e-02	4.947686e-02	4.947686e-02
3.726736e+01	4.070556e+01	-3.738871e-02	4.977782e-02	4.977782e-02
4.070556e+01	4.446096e+01	-3.390555e-02	5.266565e-02	5.266565e-02
4.446096e+01	4.856282e+01	-1.768813e-02	5.407180e-02	5.407180e-02
4.856282e+01	5.304311e+01	3.816899e-02	5.993159e-02	5.993159e-02
5.304311e+01	5.793675e+01	-1.804657e-01	6.105415e-02	6.105415e-02
5.793675e+01	6.328185e+01	-4.353896e-02	6.737153e-02	6.737153e-02
6.328185e+01	6.912009e+01	8.874356e-02	7.436622e-02	7.436622e-02
6.912009e+01	7.549694e+01	-4.872038e-02	8.164758e-02	8.164758e-02
7.549694e+01	8.246211e+01	1.130646e-02	9.250944e-02	9.250944e-02
8.246211e+01	9.006987e+01	-5.111941e-02	9.784949e-02	9.784949e-02
9.006987e+01	9.837951e+01	2.168908e-01	1.155685e-01	1.155685e-01
9.837951e+01	1.074558e+02	-1.809950e-01	1.245167e-01	1.245167e-01
1.074558e+02	1.173694e+02	1.506510e-01	1.370745e-01	1.370745e-01
1.173694e+02	1.281976e+02	2.472562e-01	1.583526e-01	1.583526e-01
1.281976e+02	1.400248e+02	-2.517716e-01	1.757057e-01	1.757057e-01
1.400248e+02	1.529432e+02	-1.948067e-01	2.552551e-01	2.552551e-01
1.529432e+02	1.670533e+02	3.744095e-01	2.549986e-01	2.549986e-01
1.670533e+02	1.824653e+02	-2.600569e-01	3.045690e-01	3.045690e-01
1.824653e+02	1.992991e+02	1.491374e-01	3.229617e-01	3.229617e-01
1.992991e+02	2.176860e+02	-2.259217e-01	3.718959e-01	3.718959e-01
2.176860e+02	2.377692e+02	-9.646309e-01	5.042832e-01	5.042832e-01
2.377692e+02	2.597052e+02	-1.261174e+00	6.276188e-01	6.276188e-01
2.597052e+02	2.836650e+02	3.351474e-01	5.498640e-01	5.498640e-01
2.836650e+02	3.098352e+02	6.544582e-01	1.161313e+00	1.161313e+00
3.098352e+02	3.384199e+02	-1.462659e+00	8.361090e-01	8.361090e-01
3.384199e+02	3.696417e+02	9.888391e-02	8.804269e-01	8.804269e-01
3.696417e+02	4.037440e+02	1.678125e+00	8.302887e-01	8.302887e-01
4.037440e+02	4.409924e+02	-1.577890e+00	nan	nan
4.409924e+02	4.816774e+02	3.698841e+00	4.794668e-01	4.794668e-01
4.816774e+02	5.261158e+02	nan	nan	nan
5.261158e+02	5.746540e+02	-8.056810e-01	2.271747e+00	2.271747e+00
5.746540e+02	6.276702e+02	nan	nan	nan
6.276702e+02	6.855776e+02	nan	nan	nan
6.855776e+02	7.488273e+02	nan	nan	nan
7.488273e+02	8.179124e+02	nan	nan	nan
8.179124e+02	8.933710e+02	nan	nan	nan
8.933710e+02	9.757913e+02	nan	nan	nan
9.757913e+02	1.065816e+03	4.700723e+00	nan	nan
1.065816e+03	1.164145e+03	nan	nan	nan
1.164145e+03	1.271546e+03	nan	nan	nan
1.271546e+03	1.388856e+03	nan	nan	nan
1.388856e+03	1.516989e+03	nan	nan	nan
1.516989e+03	1.656943e+03	nan	nan	nan
1.656943e+03	1.809808e+03	nan	nan	nan
1.809808e+03	1.976777e+03	nan	nan	nan
1.976777e+03	2.159150e+03	nan	nan	nan
2.159150e+03	2.358348e+03	nan	nan	nan
2.358348e+03	2.575923e+03	nan	nan	nan
2.575923e+03	2.813572e+03	nan	nan	nan
2.813572e+03	3.073145e+03	nan	nan	nan
3.073145e+03	3.356667e+03	nan	nan	nan
3.356667e+03	3.666345e+03	nan	nan	nan
3.666345e+03	4.004593e+03	nan	nan	nan
4.004593e+03	4.374047e+03	nan	nan	nan
4.374047e+03	4.777586e+03	nan	nan	nan
4.777586e+03	5.218355e+03	nan	nan	nan
5.218355e+03	5.699788e+03	nan	nan	nan
5.699788e+03	6.225637e+03	nan	nan	nan
6.225637e+03	6.800000e+03	nan	nan	nan
# END HISTO1D


# BEGIN HISTO1D //eos/home-y/yilinz/genVal_eos/genValidation/MGv356_wellnu0123j_5f_LO_MLM.yoda/MC_WPOL:ENERGY=13600/A6_wminus
ErrorBars=1
LineColor=blue
LineStyle=solid
Path=//eos/home-y/yilinz/genVal_eos/genValidation/MGv356_wellnu0123j_5f_LO_MLM.yoda/MC_WPOL:ENERGY=13600/A6_wminus
Title=W+0123j@LO(v356)
# xlow	 xhigh	 val	 errminus	 errplus
1.000000e+00	1.092258e+00	2.856652e-02	1.128311e-01	1.128311e-01
1.092258e+00	1.193027e+00	4.866362e-02	1.041561e-01	1.041561e-01
1.193027e+00	1.303093e+00	1.023491e-01	8.978476e-02	8.978476e-02
1.303093e+00	1.423313e+00	-9.788053e-02	8.762436e-02	8.762436e-02
1.423313e+00	1.554624e+00	5.564658e-02	8.107992e-02	8.107992e-02
1.554624e+00	1.698050e+00	-1.665628e-02	7.705302e-02	7.705302e-02
1.698050e+00	1.854708e+00	5.667872e-03	7.133198e-02	7.133198e-02
1.854708e+00	2.025819e+00	8.317746e-03	6.616879e-02	6.616879e-02
2.025819e+00	2.212717e+00	1.558576e-03	6.005311e-02	6.005311e-02
2.212717e+00	2.416857e+00	-8.050704e-02	5.751982e-02	5.751982e-02
2.416857e+00	2.639830e+00	3.296485e-02	5.333507e-02	5.333507e-02
2.639830e+00	2.883375e+00	1.780170e-02	5.056893e-02	5.056893e-02
2.883375e+00	3.149388e+00	-1.788300e-02	4.688479e-02	4.688479e-02
3.149388e+00	3.439943e+00	2.802890e-02	4.522356e-02	4.522356e-02
3.439943e+00	3.757304e+00	-1.898143e-02	4.369337e-02	4.369337e-02
3.757304e+00	4.103944e+00	-2.981134e-02	4.289173e-02	4.289173e-02
4.103944e+00	4.482564e+00	1.403875e-02	4.148975e-02	4.148975e-02
4.482564e+00	4.896115e+00	-1.755612e-02	3.983765e-02	3.983765e-02
4.896115e+00	5.347819e+00	-2.454594e-02	3.959618e-02	3.959618e-02
5.347819e+00	5.841196e+00	-1.739649e-03	3.886508e-02	3.886508e-02
5.841196e+00	6.380091e+00	-2.394203e-02	3.794645e-02	3.794645e-02
6.380091e+00	6.968703e+00	-4.929827e-02	3.795408e-02	3.795408e-02
6.968703e+00	7.611619e+00	-4.447296e-02	3.743831e-02	3.743831e-02
7.611619e+00	8.313849e+00	1.566250e-02	3.695694e-02	3.695694e-02
8.313849e+00	9.080865e+00	-3.700263e-02	3.737678e-02	3.737678e-02
9.080865e+00	9.918644e+00	6.257248e-03	3.696948e-02	3.696948e-02
9.918644e+00	1.083371e+01	-1.573608e-03	3.697541e-02	3.697541e-02
1.083371e+01	1.183321e+01	7.123794e-02	3.670972e-02	3.670972e-02
1.183321e+01	1.292491e+01	1.308745e-02	3.680274e-02	3.680274e-02
1.292491e+01	1.411733e+01	-6.628140e-02	3.718835e-02	3.718835e-02
1.411733e+01	1.541977e+01	4.973251e-02	3.742142e-02	3.742142e-02
1.541977e+01	1.684236e+01	2.615196e-02	3.794398e-02	3.794398e-02
1.684236e+01	1.839619e+01	2.004503e-02	3.936802e-02	3.936802e-02
1.839619e+01	2.009338e+01	6.473667e-02	3.985991e-02	3.985991e-02
2.009338e+01	2.194715e+01	5.021016e-02	4.076221e-02	4.076221e-02
2.194715e+01	2.397194e+01	1.698910e-02	4.062695e-02	4.062695e-02
2.397194e+01	2.618354e+01	3.491977e-02	4.178989e-02	4.178989e-02
2.618354e+01	2.859917e+01	1.692932e-02	4.321770e-02	4.321770e-02
2.859917e+01	3.123766e+01	-3.736993e-02	4.413035e-02	4.413035e-02
3.123766e+01	3.411957e+01	2.821468e-02	4.565945e-02	4.565945e-02
3.411957e+01	3.726736e+01	-1.289302e-01	4.682326e-02	4.682326e-02
3.726736e+01	4.070556e+01	7.481043e-03	4.887067e-02	4.887067e-02
4.070556e+01	4.446096e+01	-1.016807e-01	5.116989e-02	5.116989e-02
4.446096e+01	4.856282e+01	6.659003e-02	5.283012e-02	5.283012e-02
4.856282e+01	5.304311e+01	-1.290416e-02	5.684995e-02	5.684995e-02
5.304311e+01	5.793675e+01	-3.566670e-02	6.029417e-02	6.029417e-02
5.793675e+01	6.328185e+01	9.315429e-02	6.398390e-02	6.398390e-02
6.328185e+01	6.912009e+01	-8.160556e-06	6.871601e-02	6.871601e-02
6.912009e+01	7.549694e+01	1.138177e-01	8.151294e-02	8.151294e-02
7.549694e+01	8.246211e+01	-7.826175e-02	8.682548e-02	8.682548e-02
8.246211e+01	9.006987e+01	1.299089e-01	9.977892e-02	9.977892e-02
9.006987e+01	9.837951e+01	-3.441777e-01	1.078363e-01	1.078363e-01
9.837951e+01	1.074558e+02	9.120151e-02	1.187417e-01	1.187417e-01
1.074558e+02	1.173694e+02	-2.404796e-02	1.304829e-01	1.304829e-01
1.173694e+02	1.281976e+02	-2.296447e-02	1.581863e-01	1.581863e-01
1.281976e+02	1.400248e+02	-2.444998e-01	1.794129e-01	1.794129e-01
1.400248e+02	1.529432e+02	3.700224e-03	2.070118e-01	2.070118e-01
1.529432e+02	1.670533e+02	-3.073443e-01	2.226218e-01	2.226218e-01
1.670533e+02	1.824653e+02	-1.250828e-01	2.571216e-01	2.571216e-01
1.824653e+02	1.992991e+02	-6.235239e-01	3.597102e-01	3.597102e-01
1.992991e+02	2.176860e+02	-2.537931e-01	3.860756e-01	3.860756e-01
2.176860e+02	2.377692e+02	1.101804e-01	3.402939e-01	3.402939e-01
2.377692e+02	2.597052e+02	-6.612361e-01	4.601085e-01	4.601085e-01
2.597052e+02	2.836650e+02	-3.835518e-01	8.381950e-01	8.381950e-01
2.836650e+02	3.098352e+02	-3.352531e-02	1.088938e+00	1.088938e+00
3.098352e+02	3.384199e+02	4.648694e-01	7.672079e-01	7.672079e-01
3.384199e+02	3.696417e+02	-1.034309e+00	1.380014e+00	1.380014e+00
3.696417e+02	4.037440e+02	-2.221737e+00	nan	nan
4.037440e+02	4.409924e+02	1.177864e+00	3.431949e+00	3.431949e+00
4.409924e+02	4.816774e+02	nan	nan	nan
4.816774e+02	5.261158e+02	-3.589640e+00	6.049472e-01	6.049472e-01
5.261158e+02	5.746540e+02	-2.616036e+00	1.418306e+00	1.418306e+00
5.746540e+02	6.276702e+02	nan	nan	nan
6.276702e+02	6.855776e+02	nan	nan	nan
6.855776e+02	7.488273e+02	nan	nan	nan
7.488273e+02	8.179124e+02	nan	nan	nan
8.179124e+02	8.933710e+02	nan	nan	nan
8.933710e+02	9.757913e+02	nan	nan	nan
9.757913e+02	1.065816e+03	nan	nan	nan
1.065816e+03	1.164145e+03	nan	nan	nan
1.164145e+03	1.271546e+03	nan	nan	nan
1.271546e+03	1.388856e+03	nan	nan	nan
1.388856e+03	1.516989e+03	nan	nan	nan
1.516989e+03	1.656943e+03	nan	nan	nan
1.656943e+03	1.809808e+03	nan	nan	nan
1.809808e+03	1.976777e+03	nan	nan	nan
1.976777e+03	2.159150e+03	nan	nan	nan
2.159150e+03	2.358348e+03	nan	nan	nan
2.358348e+03	2.575923e+03	nan	nan	nan
2.575923e+03	2.813572e+03	nan	nan	nan
2.813572e+03	3.073145e+03	nan	nan	nan
3.073145e+03	3.356667e+03	nan	nan	nan
3.356667e+03	3.666345e+03	nan	nan	nan
3.666345e+03	4.004593e+03	nan	nan	nan
4.004593e+03	4.374047e+03	nan	nan	nan
4.374047e+03	4.777586e+03	nan	nan	nan
4.777586e+03	5.218355e+03	nan	nan	nan
5.218355e+03	5.699788e+03	nan	nan	nan
5.699788e+03	6.225637e+03	nan	nan	nan
6.225637e+03	6.800000e+03	nan	nan	nan
# END HISTO1D

