# BEGIN PLOT
Legend=1
LogY=1
Title=Pseudorapidity separation between taus
LegendXPos=0.1
XLabel=$\Delta\phi(\tau\mathrm{1,~}\tau\mathrm{2})$
YLabel=$\mathrm{d}\sigma/\mathrm{d}\Delta\phi(\tau\mathrm{1,~}\tau\mathrm{2})$ [pb]
RemoveOptions=1
DrawOnly=//eos/home-y/yilinz/genVal_eos/genValidation/MGv2_NLO_May26.yoda/MC_TAUS:ENERGY=13600/taus_dphi_12 //eos/home-y/yilinz/genVal_eos/genValidation/MGv356_wellnu01j_5f_NLO_FXFX.yoda/MC_TAUS:ENERGY=13600/taus_dphi_12
LegendOnly=//eos/home-y/yilinz/genVal_eos/genValidation/MGv2_NLO_May26.yoda/MC_TAUS:ENERGY=13600/taus_dphi_12 //eos/home-y/yilinz/genVal_eos/genValidation/MGv356_wellnu01j_5f_NLO_FXFX.yoda/MC_TAUS:ENERGY=13600/taus_dphi_12
RatioPlot=1
RatioPlotReference=//eos/home-y/yilinz/genVal_eos/genValidation/MGv2_NLO_May26.yoda/MC_TAUS:ENERGY=13600/taus_dphi_12
RatioPlotYLabel=Ratio
# END PLOT

# BEGIN HISTO1D //eos/home-y/yilinz/genVal_eos/genValidation/MGv2_NLO_May26.yoda/MC_TAUS:ENERGY=13600/taus_dphi_12
ErrorBars=1
LineColor=red
LineStyle=solid
Path=//eos/home-y/yilinz/genVal_eos/genValidation/MGv2_NLO_May26.yoda/MC_TAUS:ENERGY=13600/taus_dphi_12
ScaledBy=9.98518672733194496e-07
Title=W+01j@NLO(v2918)
# xlow	 xhigh	 val	 errminus	 errplus
0.000000e+00	1.256637e-01	7.437520e+01	1.272407e+01	1.272407e+01
1.256637e-01	2.513274e-01	7.131614e+01	1.127518e+01	1.127518e+01
2.513274e-01	3.769911e-01	5.477531e+01	1.107794e+01	1.107794e+01
3.769911e-01	5.026548e-01	6.815693e+01	1.145652e+01	1.145652e+01
5.026548e-01	6.283185e-01	4.515804e+01	1.002339e+01	1.002339e+01
6.283185e-01	7.539822e-01	4.447100e+01	1.021598e+01	1.021598e+01
7.539822e-01	8.796459e-01	5.875422e+01	1.128831e+01	1.128831e+01
8.796459e-01	1.005310e+00	6.876090e+01	1.209948e+01	1.209948e+01
1.005310e+00	1.130973e+00	8.028982e+01	1.244305e+01	1.244305e+01
1.130973e+00	1.256637e+00	7.371085e+01	1.169542e+01	1.169542e+01
1.256637e+00	1.382301e+00	7.414893e+01	1.226803e+01	1.226803e+01
1.382301e+00	1.507964e+00	6.940630e+01	1.183337e+01	1.183337e+01
1.507964e+00	1.633628e+00	4.316399e+01	1.142707e+01	1.142707e+01
1.633628e+00	1.759292e+00	5.335714e+01	1.061341e+01	1.061341e+01
1.759292e+00	1.884956e+00	5.299340e+01	1.117172e+01	1.117172e+01
1.884956e+00	2.010619e+00	8.417776e+01	1.272500e+01	1.272500e+01
2.010619e+00	2.136283e+00	6.280649e+01	1.102568e+01	1.102568e+01
2.136283e+00	2.261947e+00	6.384537e+01	1.090328e+01	1.090328e+01
2.261947e+00	2.387610e+00	6.202078e+01	1.173709e+01	1.173709e+01
2.387610e+00	2.513274e+00	7.091180e+01	1.197911e+01	1.197911e+01
2.513274e+00	2.638938e+00	7.642133e+01	1.260356e+01	1.260356e+01
2.638938e+00	2.764602e+00	7.917133e+01	1.344183e+01	1.344183e+01
2.764602e+00	2.890265e+00	5.947119e+01	1.256816e+01	1.256816e+01
2.890265e+00	3.015929e+00	7.258588e+01	1.132098e+01	1.132098e+01
3.015929e+00	3.141593e+00	6.811455e+01	1.087639e+01	1.087639e+01
# END HISTO1D


# BEGIN HISTO1D //eos/home-y/yilinz/genVal_eos/genValidation/MGv356_wellnu01j_5f_NLO_FXFX.yoda/MC_TAUS:ENERGY=13600/taus_dphi_12
ErrorBars=1
LineColor=blue
LineStyle=solid
Path=//eos/home-y/yilinz/genVal_eos/genValidation/MGv356_wellnu01j_5f_NLO_FXFX.yoda/MC_TAUS:ENERGY=13600/taus_dphi_12
ScaledBy=9.95705314576860415e-07
Title=W+01j@NLO(v356)
# xlow	 xhigh	 val	 errminus	 errplus
0.000000e+00	1.256637e-01	8.173665e+01	1.127935e+01	1.127935e+01
1.256637e-01	2.513274e-01	7.790522e+01	1.135142e+01	1.135142e+01
2.513274e-01	3.769911e-01	5.747106e+01	1.013694e+01	1.013694e+01
3.769911e-01	5.026548e-01	6.257960e+01	1.013694e+01	1.013694e+01
5.026548e-01	6.283185e-01	7.151955e+01	1.083685e+01	1.083685e+01
6.283185e-01	7.539822e-01	5.747106e+01	1.029659e+01	1.029659e+01
7.539822e-01	8.796459e-01	5.747106e+01	1.045380e+01	1.045380e+01
8.796459e-01	1.005310e+00	4.725384e+01	9.471455e+00	9.471455e+00
1.005310e+00	1.130973e+00	7.024280e+01	1.091191e+01	1.091191e+01
1.130973e+00	1.256637e+00	7.151938e+01	1.083682e+01	1.083682e+01
1.256637e+00	1.382301e+00	6.896511e+01	1.098630e+01	1.098630e+01
1.382301e+00	1.507964e+00	5.236281e+01	9.120615e+00	9.120615e+00
1.507964e+00	1.633628e+00	5.236239e+01	1.106028e+01	1.106028e+01
1.633628e+00	1.759292e+00	6.002519e+01	1.013692e+01	1.013692e+01
1.759292e+00	1.884956e+00	6.896511e+01	1.068525e+01	1.068525e+01
1.884956e+00	2.010619e+00	7.024280e+01	1.091191e+01	1.091191e+01
2.010619e+00	2.136283e+00	4.597674e+01	9.892618e+00	9.892618e+00
2.136283e+00	2.261947e+00	8.429073e+01	1.251328e+01	1.251328e+01
2.261947e+00	2.387610e+00	6.513423e+01	1.060874e+01	1.060874e+01
2.387610e+00	2.513274e+00	6.768798e+01	1.120678e+01	1.120678e+01
2.513274e+00	2.638938e+00	6.130232e+01	1.037547e+01	1.037547e+01
2.638938e+00	2.764602e+00	6.513371e+01	1.135140e+01	1.135140e+01
2.764602e+00	2.890265e+00	6.768852e+01	1.135149e+01	1.135149e+01
2.890265e+00	3.015929e+00	7.407364e+01	1.156492e+01	1.156492e+01
3.015929e+00	3.141593e+00	6.641085e+01	1.083682e+01	1.083682e+01
# END HISTO1D

