# BEGIN PLOT
Legend=1
LogY=1
Title=Exclusive jet multiplicity
XLabel=$N_{\mathrm{jet}}$
YLabel=$\sigma(N_{\mathrm{jet}})$ [pb]
XMajorTickMarks=10
XMinorTickMarks=0
ErrorBands=1
RemoveOptions=1
DrawOnly=//eos/home-y/yilinz/genVal_eos/genValidation/MGv2_012j_LOmerged.yoda/MC_JETS:ENERGY=13600/jet_multi_exclusive //eos/home-y/yilinz/genVal_eos/genValidation/MGv356_wellnu012j_5f_LO_MLM.yoda/MC_JETS:ENERGY=13600/jet_multi_exclusive
LegendOnly=//eos/home-y/yilinz/genVal_eos/genValidation/MGv2_012j_LOmerged.yoda/MC_JETS:ENERGY=13600/jet_multi_exclusive //eos/home-y/yilinz/genVal_eos/genValidation/MGv356_wellnu012j_5f_LO_MLM.yoda/MC_JETS:ENERGY=13600/jet_multi_exclusive
RatioPlot=1
RatioPlotReference=//eos/home-y/yilinz/genVal_eos/genValidation/MGv2_012j_LOmerged.yoda/MC_JETS:ENERGY=13600/jet_multi_exclusive
RatioPlotYLabel=Ratio
# END PLOT

# BEGIN HISTO1D //eos/home-y/yilinz/genVal_eos/genValidation/MGv2_012j_LOmerged.yoda/MC_JETS:ENERGY=13600/jet_multi_exclusive
ErrorBars=1
LineColor=red
LineStyle=solid
Path=//eos/home-y/yilinz/genVal_eos/genValidation/MGv2_012j_LOmerged.yoda/MC_JETS:ENERGY=13600/jet_multi_exclusive
ScaledBy=1.17320367966859754e-01
Title=W+012j@LO(v2918)
# xlow	 xhigh	 val	 errminus	 errplus
-5.000000e-01	5.000000e-01	1.379743e+04	4.083212e+01	4.083212e+01
5.000000e-01	1.500000e+00	3.128102e+04	6.159413e+01	6.159413e+01
1.500000e+00	2.500000e+00	7.937155e+03	3.115501e+01	3.115501e+01
2.500000e+00	3.500000e+00	2.745531e+03	1.837740e+01	1.837740e+01
3.500000e+00	4.500000e+00	8.775960e+02	1.048637e+01	1.048637e+01
4.500000e+00	5.500000e+00	2.580040e+02	5.747345e+00	5.747345e+00
5.500000e+00	6.500000e+00	7.302798e+01	3.042153e+00	3.042153e+00
# END HISTO1D


# BEGIN HISTO1D //eos/home-y/yilinz/genVal_eos/genValidation/MGv356_wellnu012j_5f_LO_MLM.yoda/MC_JETS:ENERGY=13600/jet_multi_exclusive
ErrorBars=1
LineColor=blue
LineStyle=solid
Path=//eos/home-y/yilinz/genVal_eos/genValidation/MGv356_wellnu012j_5f_LO_MLM.yoda/MC_JETS:ENERGY=13600/jet_multi_exclusive
ScaledBy=1.16353693951584680e-01
Title=W+012j@LO(v356)
# xlow	 xhigh	 val	 errminus	 errplus
-5.000000e-01	5.000000e-01	1.366760e+04	3.987826e+01	3.987826e+01
5.000000e-01	1.500000e+00	3.098999e+04	6.004831e+01	6.004831e+01
1.500000e+00	2.500000e+00	7.963363e+03	3.043956e+01	3.043956e+01
2.500000e+00	3.500000e+00	2.729076e+03	1.781960e+01	1.781960e+01
3.500000e+00	4.500000e+00	8.660205e+02	1.003816e+01	1.003816e+01
4.500000e+00	5.500000e+00	2.628430e+02	5.530167e+00	5.530167e+00
5.500000e+00	6.500000e+00	7.260471e+01	2.906514e+00	2.906514e+00
# END HISTO1D

