# BEGIN PLOT
Legend=1
LogY=1
Title=Transverse momentum of second jet
XLabel=$p_\perp(\mathrm{jet~2})$ [GeV]
YLabel=$\mathrm{d}\sigma/\mathrm{d}p_\perp(\mathrm{jet~2})$ [pb/GeV]
LogX=1
XMin=20.0
RemoveOptions=1
DrawOnly=//eos/home-y/yilinz/genVal_eos/genValidation/MGv2_012j_LOmerged.yoda/MC_JETS:ENERGY=13600/jet_pT_2 //eos/home-y/yilinz/genVal_eos/genValidation/MGv356_wellnu012j_5f_LO_MLM.yoda/MC_JETS:ENERGY=13600/jet_pT_2
LegendOnly=//eos/home-y/yilinz/genVal_eos/genValidation/MGv2_012j_LOmerged.yoda/MC_JETS:ENERGY=13600/jet_pT_2 //eos/home-y/yilinz/genVal_eos/genValidation/MGv356_wellnu012j_5f_LO_MLM.yoda/MC_JETS:ENERGY=13600/jet_pT_2
RatioPlot=1
RatioPlotReference=//eos/home-y/yilinz/genVal_eos/genValidation/MGv2_012j_LOmerged.yoda/MC_JETS:ENERGY=13600/jet_pT_2
RatioPlotYLabel=Ratio
# END PLOT

# BEGIN HISTO1D //eos/home-y/yilinz/genVal_eos/genValidation/MGv2_012j_LOmerged.yoda/MC_JETS:ENERGY=13600/jet_pT_2
ErrorBars=1
LineColor=red
LineStyle=solid
Path=//eos/home-y/yilinz/genVal_eos/genValidation/MGv2_012j_LOmerged.yoda/MC_JETS:ENERGY=13600/jet_pT_2
ScaledBy=1.17320367966859754e-01
Title=W+012j@LO(v2918)
# xlow	 xhigh	 val	 errminus	 errplus
1.000000e+01	1.114571e+01	0.000000e+00	0.000000e+00	0.000000e+00
1.114571e+01	1.242269e+01	0.000000e+00	0.000000e+00	0.000000e+00
1.242269e+01	1.384597e+01	0.000000e+00	0.000000e+00	0.000000e+00
1.384597e+01	1.543231e+01	0.000000e+00	0.000000e+00	0.000000e+00
1.543231e+01	1.720041e+01	0.000000e+00	0.000000e+00	0.000000e+00
1.720041e+01	1.917108e+01	0.000000e+00	0.000000e+00	0.000000e+00
1.917108e+01	2.136753e+01	5.374773e+02	5.464147e+00	5.464147e+00
2.136753e+01	2.381563e+01	7.350231e+02	6.068433e+00	6.068433e+00
2.381563e+01	2.654421e+01	5.911690e+02	5.156790e+00	5.156790e+00
2.654421e+01	2.958541e+01	4.586328e+02	4.302147e+00	4.302147e+00
2.958541e+01	3.297504e+01	3.556353e+02	3.584041e+00	3.584041e+00
3.297504e+01	3.675302e+01	2.671893e+02	2.943891e+00	2.943891e+00
3.675302e+01	4.096385e+01	1.894844e+02	2.351770e+00	2.351770e+00
4.096385e+01	4.565712e+01	1.397236e+02	1.909698e+00	1.909698e+00
4.565712e+01	5.088811e+01	9.978987e+01	1.535812e+00	1.535812e+00
5.088811e+01	5.671841e+01	7.182804e+01	1.233813e+00	1.233813e+00
5.671841e+01	6.321670e+01	5.119170e+01	9.871096e-01	9.871096e-01
6.321670e+01	7.045950e+01	3.516376e+01	7.763814e-01	7.763814e-01
7.045950e+01	7.853212e+01	2.419340e+01	6.093073e-01	6.093073e-01
7.853212e+01	8.752962e+01	1.642172e+01	4.735046e-01	4.735046e-01
8.752962e+01	9.755798e+01	1.065577e+01	3.677078e-01	3.677078e-01
9.755798e+01	1.087353e+02	7.111257e+00	2.828961e-01	2.828961e-01
1.087353e+02	1.211932e+02	4.679419e+00	2.154673e-01	2.154673e-01
1.211932e+02	1.350785e+02	2.874820e+00	1.612091e-01	1.612091e-01
1.350785e+02	1.505545e+02	1.993230e+00	1.248594e-01	1.248594e-01
1.505545e+02	1.678037e+02	1.181157e+00	9.439946e-02	9.439946e-02
1.678037e+02	1.870292e+02	7.280201e-01	7.121988e-02	7.121988e-02
1.870292e+02	2.084573e+02	5.232998e-01	5.405978e-02	5.405978e-02
2.084573e+02	2.323405e+02	3.938963e-01	4.590312e-02	4.590312e-02
2.323405e+02	2.589599e+02	2.151289e-01	3.205771e-02	3.205771e-02
2.589599e+02	2.886293e+02	1.260893e-01	2.322099e-02	2.322099e-02
2.886293e+02	3.216978e+02	7.444232e-02	1.748665e-02	1.748665e-02
3.216978e+02	3.585551e+02	5.253179e-02	1.355377e-02	1.355377e-02
3.585551e+02	3.996351e+02	1.321133e-02	6.002330e-03	6.002330e-03
3.996351e+02	4.454217e+02	2.319386e-02	7.564522e-03	7.564522e-03
4.454217e+02	4.964541e+02	1.524852e-03	1.524852e-03	1.524852e-03
4.964541e+02	5.533334e+02	6.055479e-03	3.529115e-03	3.529115e-03
5.533334e+02	6.167294e+02	6.481273e-03	3.273038e-03	3.273038e-03
6.167294e+02	6.873887e+02	1.554967e-03	1.554967e-03	1.554967e-03
6.873887e+02	7.661435e+02	3.233437e-03	2.339884e-03	2.339884e-03
7.661435e+02	8.539214e+02	1.016353e-03	1.016353e-03	1.016353e-03
8.539214e+02	9.517560e+02	0.000000e+00	0.000000e+00	0.000000e+00
9.517560e+02	1.060800e+03	0.000000e+00	0.000000e+00	0.000000e+00
1.060800e+03	1.182337e+03	0.000000e+00	0.000000e+00	0.000000e+00
1.182337e+03	1.317798e+03	0.000000e+00	0.000000e+00	0.000000e+00
1.317798e+03	1.468780e+03	0.000000e+00	0.000000e+00	0.000000e+00
1.468780e+03	1.637059e+03	0.000000e+00	0.000000e+00	0.000000e+00
1.637059e+03	1.824619e+03	0.000000e+00	0.000000e+00	0.000000e+00
1.824619e+03	2.033667e+03	0.000000e+00	0.000000e+00	0.000000e+00
2.033667e+03	2.266667e+03	0.000000e+00	0.000000e+00	0.000000e+00
# END HISTO1D


# BEGIN HISTO1D //eos/home-y/yilinz/genVal_eos/genValidation/MGv356_wellnu012j_5f_LO_MLM.yoda/MC_JETS:ENERGY=13600/jet_pT_2
ErrorBars=1
LineColor=blue
LineStyle=solid
Path=//eos/home-y/yilinz/genVal_eos/genValidation/MGv356_wellnu012j_5f_LO_MLM.yoda/MC_JETS:ENERGY=13600/jet_pT_2
ScaledBy=1.16353693951584680e-01
Title=W+012j@LO(v356)
# xlow	 xhigh	 val	 errminus	 errplus
1.000000e+01	1.114571e+01	0.000000e+00	0.000000e+00	0.000000e+00
1.114571e+01	1.242269e+01	0.000000e+00	0.000000e+00	0.000000e+00
1.242269e+01	1.384597e+01	0.000000e+00	0.000000e+00	0.000000e+00
1.384597e+01	1.543231e+01	0.000000e+00	0.000000e+00	0.000000e+00
1.543231e+01	1.720041e+01	0.000000e+00	0.000000e+00	0.000000e+00
1.720041e+01	1.917108e+01	0.000000e+00	0.000000e+00	0.000000e+00
1.917108e+01	2.136753e+01	5.573876e+02	5.433855e+00	5.433855e+00
2.136753e+01	2.381563e+01	7.244242e+02	5.867756e+00	5.867756e+00
2.381563e+01	2.654421e+01	5.952052e+02	5.037964e+00	5.037964e+00
2.654421e+01	2.958541e+01	4.600661e+02	4.195442e+00	4.195442e+00
2.958541e+01	3.297504e+01	3.535274e+02	3.483576e+00	3.483576e+00
3.297504e+01	3.675302e+01	2.563306e+02	2.809703e+00	2.809703e+00
3.675302e+01	4.096385e+01	1.961596e+02	2.328150e+00	2.328150e+00
4.096385e+01	4.565712e+01	1.388082e+02	1.855068e+00	1.855068e+00
4.565712e+01	5.088811e+01	1.009839e+02	1.498733e+00	1.498733e+00
5.088811e+01	5.671841e+01	7.098607e+01	1.190231e+00	1.190231e+00
5.671841e+01	6.321670e+01	5.138815e+01	9.592284e-01	9.592284e-01
6.321670e+01	7.045950e+01	3.441067e+01	7.435042e-01	7.435042e-01
7.045950e+01	7.853212e+01	2.415682e+01	5.900688e-01	5.900688e-01
7.853212e+01	8.752962e+01	1.611300e+01	4.564753e-01	4.564753e-01
8.752962e+01	9.755798e+01	1.058145e+01	3.503867e-01	3.503867e-01
9.755798e+01	1.087353e+02	6.932928e+00	2.686455e-01	2.686455e-01
1.087353e+02	1.211932e+02	4.697895e+00	2.094688e-01	2.094688e-01
1.211932e+02	1.350785e+02	2.907732e+00	1.560952e-01	1.560952e-01
1.350785e+02	1.505545e+02	2.082578e+00	1.251300e-01	1.251300e-01
1.505545e+02	1.678037e+02	1.227673e+00	9.100115e-02	9.100115e-02
1.678037e+02	1.870292e+02	7.565062e-01	6.766398e-02	6.766398e-02
1.870292e+02	2.084573e+02	5.972956e-01	5.694988e-02	5.694988e-02
2.084573e+02	2.323405e+02	2.923068e-01	3.773664e-02	3.773664e-02
2.323405e+02	2.589599e+02	1.704694e-01	2.729696e-02	2.729696e-02
2.589599e+02	2.886293e+02	1.254935e-01	2.218433e-02	2.218433e-02
2.886293e+02	3.216978e+02	7.388990e-02	1.612409e-02	1.612409e-02
3.216978e+02	3.585551e+02	5.050991e-02	1.262748e-02	1.262748e-02
3.585551e+02	3.996351e+02	1.982658e-02	7.493742e-03	7.493742e-03
3.996351e+02	4.454217e+02	1.524730e-02	6.224685e-03	6.224685e-03
4.454217e+02	4.964541e+02	4.559993e-03	3.224402e-03	3.224402e-03
4.964541e+02	5.533334e+02	2.045625e-03	2.045624e-03	2.045624e-03
5.533334e+02	6.167294e+02	1.835348e-03	1.835347e-03	1.835347e-03
6.167294e+02	6.873887e+02	1.646686e-03	1.646686e-03	1.646686e-03
6.873887e+02	7.661435e+02	0.000000e+00	0.000000e+00	0.000000e+00
7.661435e+02	8.539214e+02	0.000000e+00	0.000000e+00	0.000000e+00
8.539214e+02	9.517560e+02	0.000000e+00	0.000000e+00	0.000000e+00
9.517560e+02	1.060800e+03	0.000000e+00	0.000000e+00	0.000000e+00
1.060800e+03	1.182337e+03	0.000000e+00	0.000000e+00	0.000000e+00
1.182337e+03	1.317798e+03	0.000000e+00	0.000000e+00	0.000000e+00
1.317798e+03	1.468780e+03	0.000000e+00	0.000000e+00	0.000000e+00
1.468780e+03	1.637059e+03	0.000000e+00	0.000000e+00	0.000000e+00
1.637059e+03	1.824619e+03	0.000000e+00	0.000000e+00	0.000000e+00
1.824619e+03	2.033667e+03	0.000000e+00	0.000000e+00	0.000000e+00
2.033667e+03	2.266667e+03	0.000000e+00	0.000000e+00	0.000000e+00
# END HISTO1D

