# BEGIN PLOT
Legend=1
LogY=1
Title=Pseudorapidity separation between jets
LegendYPos=0.5
LegendXPos=0.30
XLabel=$\Delta\eta(\mathrm{jet~1,~jet~3})$
YLabel=$\mathrm{d}\sigma/\mathrm{d}\Delta\eta(\mathrm{jet~1,~jet~3})$ [pb]
RemoveOptions=1
DrawOnly=//eos/home-y/yilinz/genVal_eos/genValidation/MGv2_012j_LOmerged.yoda/MC_JETS:ENERGY=13600/jets_deta_13 //eos/home-y/yilinz/genVal_eos/genValidation/MGv356_wellnu012j_5f_LO_MLM.yoda/MC_JETS:ENERGY=13600/jets_deta_13
LegendOnly=//eos/home-y/yilinz/genVal_eos/genValidation/MGv2_012j_LOmerged.yoda/MC_JETS:ENERGY=13600/jets_deta_13 //eos/home-y/yilinz/genVal_eos/genValidation/MGv356_wellnu012j_5f_LO_MLM.yoda/MC_JETS:ENERGY=13600/jets_deta_13
RatioPlot=1
RatioPlotReference=//eos/home-y/yilinz/genVal_eos/genValidation/MGv2_012j_LOmerged.yoda/MC_JETS:ENERGY=13600/jets_deta_13
RatioPlotYLabel=Ratio
# END PLOT

# BEGIN HISTO1D //eos/home-y/yilinz/genVal_eos/genValidation/MGv2_012j_LOmerged.yoda/MC_JETS:ENERGY=13600/jets_deta_13
ErrorBars=1
LineColor=red
LineStyle=solid
Path=//eos/home-y/yilinz/genVal_eos/genValidation/MGv2_012j_LOmerged.yoda/MC_JETS:ENERGY=13600/jets_deta_13
ScaledBy=1.17320367966859754e-01
Title=W+012j@LO(v2918)
# xlow	 xhigh	 val	 errminus	 errplus
-5.000000e+00	-4.600000e+00	8.493545e+01	5.122302e+00	5.122302e+00
-4.600000e+00	-4.200000e+00	1.136994e+02	6.037470e+00	6.037470e+00
-4.200000e+00	-3.800000e+00	1.520156e+02	6.876334e+00	6.876334e+00
-3.800000e+00	-3.400000e+00	1.835259e+02	7.535249e+00	7.535249e+00
-3.400000e+00	-3.000000e+00	2.391721e+02	8.619716e+00	8.619716e+00
-3.000000e+00	-2.600000e+00	2.844098e+02	9.430913e+00	9.430913e+00
-2.600000e+00	-2.200000e+00	3.777528e+02	1.082071e+01	1.082071e+01
-2.200000e+00	-1.800000e+00	4.429010e+02	1.169863e+01	1.169863e+01
-1.800000e+00	-1.400000e+00	5.005335e+02	1.248687e+01	1.248687e+01
-1.400000e+00	-1.000000e+00	5.978680e+02	1.358304e+01	1.358304e+01
-1.000000e+00	-6.000000e-01	6.747447e+02	1.452477e+01	1.452477e+01
-6.000000e-01	-2.000000e-01	7.397843e+02	1.512107e+01	1.512107e+01
-2.000000e-01	2.000000e-01	7.285962e+02	1.501702e+01	1.501702e+01
2.000000e-01	6.000000e-01	7.437420e+02	1.521560e+01	1.521560e+01
6.000000e-01	1.000000e+00	7.037228e+02	1.478778e+01	1.478778e+01
1.000000e+00	1.400000e+00	6.200338e+02	1.388742e+01	1.388742e+01
1.400000e+00	1.800000e+00	5.203427e+02	1.268657e+01	1.268657e+01
1.800000e+00	2.200000e+00	4.378770e+02	1.157475e+01	1.157475e+01
2.200000e+00	2.600000e+00	3.498000e+02	1.034924e+01	1.034924e+01
2.600000e+00	3.000000e+00	3.000653e+02	9.671828e+00	9.671828e+00
3.000000e+00	3.400000e+00	2.347092e+02	8.490057e+00	8.490057e+00
3.400000e+00	3.800000e+00	1.894958e+02	7.568263e+00	7.568263e+00
3.800000e+00	4.200000e+00	1.441441e+02	6.690237e+00	6.690237e+00
4.200000e+00	4.600000e+00	1.149528e+02	5.979650e+00	5.979650e+00
4.600000e+00	5.000000e+00	8.387345e+01	5.098559e+00	5.098559e+00
# END HISTO1D


# BEGIN HISTO1D //eos/home-y/yilinz/genVal_eos/genValidation/MGv356_wellnu012j_5f_LO_MLM.yoda/MC_JETS:ENERGY=13600/jets_deta_13
ErrorBars=1
LineColor=blue
LineStyle=solid
Path=//eos/home-y/yilinz/genVal_eos/genValidation/MGv356_wellnu012j_5f_LO_MLM.yoda/MC_JETS:ENERGY=13600/jets_deta_13
ScaledBy=1.16353693951584680e-01
Title=W+012j@LO(v356)
# xlow	 xhigh	 val	 errminus	 errplus
-5.000000e+00	-4.600000e+00	8.610172e+01	5.004562e+00	5.004562e+00
-4.600000e+00	-4.200000e+00	1.108269e+02	5.677834e+00	5.677834e+00
-4.200000e+00	-3.800000e+00	1.454421e+02	6.504369e+00	6.504369e+00
-3.800000e+00	-3.400000e+00	1.835480e+02	7.306929e+00	7.306929e+00
-3.400000e+00	-3.000000e+00	2.353254e+02	8.273599e+00	8.273599e+00
-3.000000e+00	-2.600000e+00	3.025195e+02	9.380735e+00	9.380735e+00
-2.600000e+00	-2.200000e+00	3.668050e+02	1.032946e+01	1.032946e+01
-2.200000e+00	-1.800000e+00	4.241092e+02	1.110706e+01	1.110706e+01
-1.800000e+00	-1.400000e+00	5.029387e+02	1.209533e+01	1.209533e+01
-1.400000e+00	-1.000000e+00	6.216195e+02	1.344691e+01	1.344691e+01
-1.000000e+00	-6.000000e-01	6.943408e+02	1.421171e+01	1.421171e+01
-6.000000e-01	-2.000000e-01	7.417548e+02	1.468893e+01	1.468893e+01
-2.000000e-01	2.000000e-01	7.141207e+02	1.441272e+01	1.441272e+01
2.000000e-01	6.000000e-01	7.292468e+02	1.456456e+01	1.456456e+01
6.000000e-01	1.000000e+00	6.806690e+02	1.407110e+01	1.407110e+01
1.000000e+00	1.400000e+00	5.902040e+02	1.310271e+01	1.310271e+01
1.400000e+00	1.800000e+00	5.163195e+02	1.225517e+01	1.225517e+01
1.800000e+00	2.200000e+00	4.383625e+02	1.129215e+01	1.129215e+01
2.200000e+00	2.600000e+00	3.729135e+02	1.041512e+01	1.041512e+01
2.600000e+00	3.000000e+00	2.929205e+02	9.230706e+00	9.230706e+00
3.000000e+00	3.400000e+00	2.425975e+02	8.400461e+00	8.400461e+00
3.400000e+00	3.800000e+00	1.777303e+02	7.190197e+00	7.190197e+00
3.800000e+00	4.200000e+00	1.477692e+02	6.556198e+00	6.556198e+00
4.200000e+00	4.600000e+00	1.076272e+02	5.595270e+00	5.595270e+00
4.600000e+00	5.000000e+00	7.446637e+01	4.654148e+00	4.654148e+00
# END HISTO1D

