# BEGIN PLOT
Legend=1
LogY=1
Title=$p_\perp$-weighted $\Delta{R}_{\gamma\ell}$ vs. lepton $p_\perp$
XLabel=Lepton $p_\perp$ [GeV]
YLabel=$\langle\mathrm{Weighted}\quad\Delta{R}_{\gamma\ell}\rangle$
RemoveOptions=1
DrawOnly=//eos/home-y/yilinz/genVal_eos/genValidation/MGv2_NLO_May26.yoda/MC_PHOTONS:ENERGY=13600/DeltaR_ptweighted_vs_pTlep //eos/home-y/yilinz/genVal_eos/genValidation/MGv356_wellnu01j_5f_NLO_FXFX.yoda/MC_PHOTONS:ENERGY=13600/DeltaR_ptweighted_vs_pTlep
LegendOnly=//eos/home-y/yilinz/genVal_eos/genValidation/MGv2_NLO_May26.yoda/MC_PHOTONS:ENERGY=13600/DeltaR_ptweighted_vs_pTlep //eos/home-y/yilinz/genVal_eos/genValidation/MGv356_wellnu01j_5f_NLO_FXFX.yoda/MC_PHOTONS:ENERGY=13600/DeltaR_ptweighted_vs_pTlep
RatioPlot=1
RatioPlotReference=//eos/home-y/yilinz/genVal_eos/genValidation/MGv2_NLO_May26.yoda/MC_PHOTONS:ENERGY=13600/DeltaR_ptweighted_vs_pTlep
RatioPlotYLabel=Ratio
# END PLOT

# BEGIN HISTO1D //eos/home-y/yilinz/genVal_eos/genValidation/MGv2_NLO_May26.yoda/MC_PHOTONS:ENERGY=13600/DeltaR_ptweighted_vs_pTlep
ErrorBars=1
LineColor=red
LineStyle=solid
Path=//eos/home-y/yilinz/genVal_eos/genValidation/MGv2_NLO_May26.yoda/MC_PHOTONS:ENERGY=13600/DeltaR_ptweighted_vs_pTlep
Title=W+01j@NLO(v2918)
# xlow	 xhigh	 val	 errminus	 errplus
1.000000e+01	1.220000e+01	3.391999e+00	4.365584e-03	4.365584e-03
1.220000e+01	1.440000e+01	3.385483e+00	4.423905e-03	4.423905e-03
1.440000e+01	1.660000e+01	3.368842e+00	4.140048e-03	4.140048e-03
1.660000e+01	1.880000e+01	3.375771e+00	3.570710e-03	3.570710e-03
1.880000e+01	2.100000e+01	3.394544e+00	3.520846e-03	3.520846e-03
2.100000e+01	2.320000e+01	3.374968e+00	3.319135e-03	3.319135e-03
2.320000e+01	2.540000e+01	3.391412e+00	3.256004e-03	3.256004e-03
2.540000e+01	2.760000e+01	3.417193e+00	2.920393e-03	2.920393e-03
2.760000e+01	2.980000e+01	3.421719e+00	2.800445e-03	2.800445e-03
2.980000e+01	3.200000e+01	3.427464e+00	2.616124e-03	2.616124e-03
3.200000e+01	3.420000e+01	3.446365e+00	2.505125e-03	2.505125e-03
3.420000e+01	3.640000e+01	3.468105e+00	2.368665e-03	2.368665e-03
3.640000e+01	3.860000e+01	3.501868e+00	2.258252e-03	2.258252e-03
3.860000e+01	4.080000e+01	3.490329e+00	2.429975e-03	2.429975e-03
4.080000e+01	4.300000e+01	3.465685e+00	3.028723e-03	3.028723e-03
4.300000e+01	4.520000e+01	3.392418e+00	4.065002e-03	4.065002e-03
4.520000e+01	4.740000e+01	3.390330e+00	4.945633e-03	4.945633e-03
4.740000e+01	4.960000e+01	3.381227e+00	6.007060e-03	6.007060e-03
4.960000e+01	5.180000e+01	3.339888e+00	6.823893e-03	6.823893e-03
5.180000e+01	5.400000e+01	3.322843e+00	8.780791e-03	8.780791e-03
5.400000e+01	5.620000e+01	3.296294e+00	9.526577e-03	9.526577e-03
5.620000e+01	5.840000e+01	3.289037e+00	1.104527e-02	1.104527e-02
5.840000e+01	6.060000e+01	3.321963e+00	1.190841e-02	1.190841e-02
6.060000e+01	6.280000e+01	3.315782e+00	1.382426e-02	1.382426e-02
6.280000e+01	6.500000e+01	3.290277e+00	1.588564e-02	1.588564e-02
6.500000e+01	6.720000e+01	3.279285e+00	1.583090e-02	1.583090e-02
6.720000e+01	6.940000e+01	3.256462e+00	1.727976e-02	1.727976e-02
6.940000e+01	7.160000e+01	3.260202e+00	1.863874e-02	1.863874e-02
7.160000e+01	7.380000e+01	3.326536e+00	2.375351e-02	2.375351e-02
7.380000e+01	7.600000e+01	3.188052e+00	2.300356e-02	2.300356e-02
7.600000e+01	7.820000e+01	3.150210e+00	2.613763e-02	2.613763e-02
7.820000e+01	8.040000e+01	3.228491e+00	2.755758e-02	2.755758e-02
8.040000e+01	8.260000e+01	3.229551e+00	2.502337e-02	2.502337e-02
8.260000e+01	8.480000e+01	3.151560e+00	2.758102e-02	2.758102e-02
8.480000e+01	8.700000e+01	3.212613e+00	2.847394e-02	2.847394e-02
8.700000e+01	8.920000e+01	3.135182e+00	2.996743e-02	2.996743e-02
8.920000e+01	9.140000e+01	3.154610e+00	3.308721e-02	3.308721e-02
9.140000e+01	9.360000e+01	3.177922e+00	4.062781e-02	4.062781e-02
9.360000e+01	9.580000e+01	3.154507e+00	3.543053e-02	3.543053e-02
9.580000e+01	9.800000e+01	3.186552e+00	3.914064e-02	3.914064e-02
9.800000e+01	1.002000e+02	3.148442e+00	4.095025e-02	4.095025e-02
1.002000e+02	1.024000e+02	3.205421e+00	5.180660e-02	5.180660e-02
1.024000e+02	1.046000e+02	3.222484e+00	4.818143e-02	4.818143e-02
1.046000e+02	1.068000e+02	3.231966e+00	5.116952e-02	5.116952e-02
1.068000e+02	1.090000e+02	3.145206e+00	6.331965e-02	6.331965e-02
1.090000e+02	1.112000e+02	3.159782e+00	6.105446e-02	6.105446e-02
1.112000e+02	1.134000e+02	3.344258e+00	7.788658e-02	7.788658e-02
1.134000e+02	1.156000e+02	3.094084e+00	5.019570e-02	5.019570e-02
1.156000e+02	1.178000e+02	3.145051e+00	7.063170e-02	7.063170e-02
1.178000e+02	1.200000e+02	3.108553e+00	4.970694e-02	4.970694e-02
# END HISTO1D


# BEGIN HISTO1D //eos/home-y/yilinz/genVal_eos/genValidation/MGv356_wellnu01j_5f_NLO_FXFX.yoda/MC_PHOTONS:ENERGY=13600/DeltaR_ptweighted_vs_pTlep
ErrorBars=1
LineColor=blue
LineStyle=solid
Path=//eos/home-y/yilinz/genVal_eos/genValidation/MGv356_wellnu01j_5f_NLO_FXFX.yoda/MC_PHOTONS:ENERGY=13600/DeltaR_ptweighted_vs_pTlep
Title=W+01j@NLO(v356)
# xlow	 xhigh	 val	 errminus	 errplus
1.000000e+01	1.220000e+01	3.383163e+00	4.262547e-03	4.262547e-03
1.220000e+01	1.440000e+01	3.375456e+00	4.020439e-03	4.020439e-03
1.440000e+01	1.660000e+01	3.391357e+00	3.790439e-03	3.790439e-03
1.660000e+01	1.880000e+01	3.379471e+00	3.549135e-03	3.549135e-03
1.880000e+01	2.100000e+01	3.390817e+00	3.397782e-03	3.397782e-03
2.100000e+01	2.320000e+01	3.385929e+00	3.238214e-03	3.238214e-03
2.320000e+01	2.540000e+01	3.391974e+00	3.048375e-03	3.048375e-03
2.540000e+01	2.760000e+01	3.407505e+00	2.778693e-03	2.778693e-03
2.760000e+01	2.980000e+01	3.411850e+00	2.654234e-03	2.654234e-03
2.980000e+01	3.200000e+01	3.432846e+00	2.510731e-03	2.510731e-03
3.200000e+01	3.420000e+01	3.455282e+00	2.349878e-03	2.349878e-03
3.420000e+01	3.640000e+01	3.469137e+00	2.251634e-03	2.251634e-03
3.640000e+01	3.860000e+01	3.496018e+00	2.147272e-03	2.147272e-03
3.860000e+01	4.080000e+01	3.507313e+00	2.236377e-03	2.236377e-03
4.080000e+01	4.300000e+01	3.474246e+00	2.899129e-03	2.899129e-03
4.300000e+01	4.520000e+01	3.413216e+00	3.999034e-03	3.999034e-03
4.520000e+01	4.740000e+01	3.399125e+00	4.950526e-03	4.950526e-03
4.740000e+01	4.960000e+01	3.369542e+00	5.988395e-03	5.988395e-03
4.960000e+01	5.180000e+01	3.343925e+00	7.085020e-03	7.085020e-03
5.180000e+01	5.400000e+01	3.325900e+00	8.037525e-03	8.037525e-03
5.400000e+01	5.620000e+01	3.313512e+00	9.188609e-03	9.188609e-03
5.620000e+01	5.840000e+01	3.282512e+00	1.019147e-02	1.019147e-02
5.840000e+01	6.060000e+01	3.280238e+00	1.191185e-02	1.191185e-02
6.060000e+01	6.280000e+01	3.310820e+00	1.407348e-02	1.407348e-02
6.280000e+01	6.500000e+01	3.299288e+00	1.634279e-02	1.634279e-02
6.500000e+01	6.720000e+01	3.280057e+00	1.654234e-02	1.654234e-02
6.720000e+01	6.940000e+01	3.244156e+00	1.486769e-02	1.486769e-02
6.940000e+01	7.160000e+01	3.318116e+00	1.952473e-02	1.952473e-02
7.160000e+01	7.380000e+01	3.194267e+00	2.111201e-02	2.111201e-02
7.380000e+01	7.600000e+01	3.206571e+00	1.987896e-02	1.987896e-02
7.600000e+01	7.820000e+01	3.148384e+00	2.203406e-02	2.203406e-02
7.820000e+01	8.040000e+01	3.188256e+00	2.546225e-02	2.546225e-02
8.040000e+01	8.260000e+01	3.254470e+00	2.888271e-02	2.888271e-02
8.260000e+01	8.480000e+01	3.185040e+00	2.951931e-02	2.951931e-02
8.480000e+01	8.700000e+01	3.155951e+00	3.126573e-02	3.126573e-02
8.700000e+01	8.920000e+01	3.179744e+00	2.760644e-02	2.760644e-02
8.920000e+01	9.140000e+01	3.131720e+00	2.808849e-02	2.808849e-02
9.140000e+01	9.360000e+01	3.297127e+00	3.147024e-02	3.147024e-02
9.360000e+01	9.580000e+01	3.185392e+00	3.536151e-02	3.536151e-02
9.580000e+01	9.800000e+01	3.223996e+00	3.432134e-02	3.432134e-02
9.800000e+01	1.002000e+02	3.221254e+00	3.880409e-02	3.880409e-02
1.002000e+02	1.024000e+02	3.135087e+00	4.882353e-02	4.882353e-02
1.024000e+02	1.046000e+02	2.917597e+00	5.968861e-02	5.968861e-02
1.046000e+02	1.068000e+02	3.087148e+00	4.879302e-02	4.879302e-02
1.068000e+02	1.090000e+02	3.173337e+00	4.999677e-02	4.999677e-02
1.090000e+02	1.112000e+02	3.149805e+00	5.079839e-02	5.079839e-02
1.112000e+02	1.134000e+02	3.165082e+00	7.416197e-02	7.416197e-02
1.134000e+02	1.156000e+02	3.089936e+00	5.127460e-02	5.127460e-02
1.156000e+02	1.178000e+02	3.077813e+00	6.546041e-02	6.546041e-02
1.178000e+02	1.200000e+02	3.077953e+00	7.012875e-02	7.012875e-02
# END HISTO1D

