# BEGIN PLOT
Legend=1
LogY=0
Title=Ratio of electron multiplicity
XLabel=$N_{\mathrm{electron}}$
YLabel=$\sigma(\geq N_{\mathrm{electron}})/\sigma(\geq N_{\mathrm{electron}}-1)$
XMajorTickMarks=10
XMinorTickMarks=0
ErrorBands=1
RemoveOptions=1
DrawOnly=//afs/cern.ch/user/y/yilinz/work/genVal_eos/genValidation/MGv2_wellnu0123j_5f_LO_MLM.yoda/MC_ELECTRONS:ENERGY=13600/electron_multi_ratio //afs/cern.ch/user/y/yilinz/work/genVal_eos/genValidation/MGv356_wellnu0123j_5f_LO_MLM.yoda/MC_ELECTRONS:ENERGY=13600/electron_multi_ratio //afs/cern.ch/user/y/yilinz/work/genVal_eos/genValidation/MGv3_wellnu0123j_5f_LO_MLM.yoda/MC_ELECTRONS:ENERGY=13600/electron_multi_ratio
LegendOnly=//afs/cern.ch/user/y/yilinz/work/genVal_eos/genValidation/MGv2_wellnu0123j_5f_LO_MLM.yoda/MC_ELECTRONS:ENERGY=13600/electron_multi_ratio //afs/cern.ch/user/y/yilinz/work/genVal_eos/genValidation/MGv356_wellnu0123j_5f_LO_MLM.yoda/MC_ELECTRONS:ENERGY=13600/electron_multi_ratio //afs/cern.ch/user/y/yilinz/work/genVal_eos/genValidation/MGv3_wellnu0123j_5f_LO_MLM.yoda/MC_ELECTRONS:ENERGY=13600/electron_multi_ratio
RatioPlot=1
RatioPlotReference=//afs/cern.ch/user/y/yilinz/work/genVal_eos/genValidation/MGv2_wellnu0123j_5f_LO_MLM.yoda/MC_ELECTRONS:ENERGY=13600/electron_multi_ratio
RatioPlotYLabel=Ratio
# END PLOT

# BEGIN HISTO1D //afs/cern.ch/user/y/yilinz/work/genVal_eos/genValidation/MGv2_wellnu0123j_5f_LO_MLM.yoda/MC_ELECTRONS:ENERGY=13600/electron_multi_ratio
ErrorBars=1
ErrorBreakdown={0: {"": {up: 0.003146278209256448, dn: 0.003146278209256448}}, 1: {"": {up: 0.0009234198821860989, dn: 0.0009234198821860989}}, 2: {"": {up: 0.002544066451520167, dn: 0.002544066451520167}}, 3: {"": {up: 0, dn: 0}}}
LineColor=red
LineStyle=solid
Path=//afs/cern.ch/user/y/yilinz/work/genVal_eos/genValidation/MGv2_wellnu0123j_5f_LO_MLM.yoda/MC_ELECTRONS:ENERGY=13600/electron_multi_ratio
Title=W+0123j@LO(v2918)
# xlow	 xhigh	 val	 errminus	 errplus
5.000000e-01	1.500000e+00	9.995074e-01	3.146278e-03	3.146278e-03
1.500000e+00	2.500000e+00	1.701414e-01	9.234199e-04	9.234199e-04
2.500000e+00	3.500000e+00	2.051717e-01	2.544066e-03	2.544066e-03
3.500000e+00	4.500000e+00	0.000000e+00	0.000000e+00	0.000000e+00
# END HISTO1D


# BEGIN HISTO1D //afs/cern.ch/user/y/yilinz/work/genVal_eos/genValidation/MGv356_wellnu0123j_5f_LO_MLM.yoda/MC_ELECTRONS:ENERGY=13600/electron_multi_ratio
ErrorBars=1
ErrorBreakdown={0: {"": {up: 0.003087391620969286, dn: 0.003087391620969286}}, 1: {"": {up: 0.000894761096043236, dn: 0.000894761096043236}}, 2: {"": {up: 0.002468548520928024, dn: 0.002468548520928024}}, 3: {"": {up: 0, dn: 0}}}
LineColor=blue
LineStyle=solid
Path=//afs/cern.ch/user/y/yilinz/work/genVal_eos/genValidation/MGv356_wellnu0123j_5f_LO_MLM.yoda/MC_ELECTRONS:ENERGY=13600/electron_multi_ratio
Title=W+0123j@LO(v356)
# xlow	 xhigh	 val	 errminus	 errplus
5.000000e-01	1.500000e+00	9.995111e-01	3.087392e-03	3.087392e-03
1.500000e+00	2.500000e+00	1.686267e-01	8.947611e-04	8.947611e-04
2.500000e+00	3.500000e+00	2.042843e-01	2.468549e-03	2.468549e-03
3.500000e+00	4.500000e+00	0.000000e+00	0.000000e+00	0.000000e+00
# END HISTO1D


# BEGIN HISTO1D //afs/cern.ch/user/y/yilinz/work/genVal_eos/genValidation/MGv3_wellnu0123j_5f_LO_MLM.yoda/MC_ELECTRONS:ENERGY=13600/electron_multi_ratio
ErrorBars=1
ErrorBreakdown={0: {"": {up: 0.003090143263387475, dn: 0.003090143263387475}}, 1: {"": {up: 0.0008982084467954991, dn: 0.0008982084467954991}}, 2: {"": {up: 0.002464105711643998, dn: 0.002464105711643998}}, 3: {"": {up: 0, dn: 0}}}
LineColor=green
LineStyle=solid
Path=//afs/cern.ch/user/y/yilinz/work/genVal_eos/genValidation/MGv3_wellnu0123j_5f_LO_MLM.yoda/MC_ELECTRONS:ENERGY=13600/electron_multi_ratio
Title=W+0123j@LO(v352)
# xlow	 xhigh	 val	 errminus	 errplus
5.000000e-01	1.500000e+00	9.995246e-01	3.090143e-03	3.090143e-03
1.500000e+00	2.500000e+00	1.694045e-01	8.982084e-04	8.982084e-04
2.500000e+00	3.500000e+00	2.041677e-01	2.464106e-03	2.464106e-03
3.500000e+00	4.500000e+00	0.000000e+00	0.000000e+00	0.000000e+00
# END HISTO1D

