# BEGIN PLOT
Legend=1
LogY=1
Title=$\log_{10}$($k_\perp$ jet resolution $0 \to 1$ [GeV])
XLabel=$\log_{10}(d_{01}/\mathrm{GeV})$
YLabel=$\mathrm{d}\sigma/\mathrm{d}\log_{10}(d_{01}/\mathrm{GeV})$ [pb]
LegendXPos=0.15
LegendYPos=0.5
Rebin=2
RemoveOptions=1
DrawOnly=//afs/cern.ch/user/y/yilinz/work/genVal_eos/genValidation/MGv2_NLO_May26.yoda/MC_WKTSPLITTINGS:ENERGY=13600/log10_d_01 //afs/cern.ch/user/y/yilinz/work/genVal_eos/genValidation/MGv356_wellnu01j_5f_NLO_FXFX.yoda/MC_WKTSPLITTINGS:ENERGY=13600/log10_d_01 //afs/cern.ch/user/y/yilinz/work/genVal_eos/genValidation/MGv3_NLO_May26.yoda/MC_WKTSPLITTINGS:ENERGY=13600/log10_d_01
LegendOnly=//afs/cern.ch/user/y/yilinz/work/genVal_eos/genValidation/MGv2_NLO_May26.yoda/MC_WKTSPLITTINGS:ENERGY=13600/log10_d_01 //afs/cern.ch/user/y/yilinz/work/genVal_eos/genValidation/MGv356_wellnu01j_5f_NLO_FXFX.yoda/MC_WKTSPLITTINGS:ENERGY=13600/log10_d_01 //afs/cern.ch/user/y/yilinz/work/genVal_eos/genValidation/MGv3_NLO_May26.yoda/MC_WKTSPLITTINGS:ENERGY=13600/log10_d_01
RatioPlot=1
RatioPlotReference=//afs/cern.ch/user/y/yilinz/work/genVal_eos/genValidation/MGv2_NLO_May26.yoda/MC_WKTSPLITTINGS:ENERGY=13600/log10_d_01
RatioPlotYLabel=Ratio
# END PLOT

# BEGIN HISTO1D //afs/cern.ch/user/y/yilinz/work/genVal_eos/genValidation/MGv2_NLO_May26.yoda/MC_WKTSPLITTINGS:ENERGY=13600/log10_d_01
ErrorBars=1
LineColor=red
LineStyle=solid
Path=//afs/cern.ch/user/y/yilinz/work/genVal_eos/genValidation/MGv2_NLO_May26.yoda/MC_WKTSPLITTINGS:ENERGY=13600/log10_d_01
ScaledBy=9.98518672733194496e-07
Title=W+01j@NLO(v2918)
# xlow	 xhigh	 val	 errminus	 errplus
2.000000e-01	2.363251e-01	4.685529e+02	5.660832e+01	5.660832e+01
2.363251e-01	2.726502e-01	5.233034e+02	5.766163e+01	5.766163e+01
2.726502e-01	3.089753e-01	8.425342e+02	6.775677e+01	6.775677e+01
3.089753e-01	3.453004e-01	8.815527e+02	6.945926e+01	6.945926e+01
3.453004e-01	3.816254e-01	9.500262e+02	7.413477e+01	7.413477e+01
3.816254e-01	4.179505e-01	1.055091e+03	7.725773e+01	7.725773e+01
4.179505e-01	4.542756e-01	1.081592e+03	8.348216e+01	8.348216e+01
4.542756e-01	4.906007e-01	1.375737e+03	8.911794e+01	8.911794e+01
4.906007e-01	5.269258e-01	1.510056e+03	9.390746e+01	9.390746e+01
5.269258e-01	5.632509e-01	1.888607e+03	1.070039e+02	1.070039e+02
5.632509e-01	5.995760e-01	2.077937e+03	1.123116e+02	1.123116e+02
5.995760e-01	6.359011e-01	2.533339e+03	1.237417e+02	1.237417e+02
6.359011e-01	6.722262e-01	2.967642e+03	1.340257e+02	1.340257e+02
6.722262e-01	7.085512e-01	3.297065e+03	1.414330e+02	1.414330e+02
7.085512e-01	7.448763e-01	3.975337e+03	1.550308e+02	1.550308e+02
7.448763e-01	7.812014e-01	4.504775e+03	1.651408e+02	1.651408e+02
7.812014e-01	8.175265e-01	5.587671e+03	1.846917e+02	1.846917e+02
8.175265e-01	8.538516e-01	6.131730e+03	1.950148e+02	1.950148e+02
8.538516e-01	8.901767e-01	7.387393e+03	2.122267e+02	2.122267e+02
8.901767e-01	9.265018e-01	8.407542e+03	2.267735e+02	2.267735e+02
9.265018e-01	9.628269e-01	1.027567e+04	2.477670e+02	2.477670e+02
9.628269e-01	9.991520e-01	1.174887e+04	2.681689e+02	2.681689e+02
9.991520e-01	1.035477e+00	1.262565e+04	2.776798e+02	2.776798e+02
1.035477e+00	1.071802e+00	1.381866e+04	2.903052e+02	2.903052e+02
1.071802e+00	1.108127e+00	1.473098e+04	3.008320e+02	3.008320e+02
1.108127e+00	1.144452e+00	1.530033e+04	3.085599e+02	3.085599e+02
1.144452e+00	1.180777e+00	1.603488e+04	3.113580e+02	3.113580e+02
1.180777e+00	1.217102e+00	1.496216e+04	3.055186e+02	3.055186e+02
1.217102e+00	1.253428e+00	1.375226e+04	2.907415e+02	2.907415e+02
1.253428e+00	1.289753e+00	1.416149e+04	2.909127e+02	2.909127e+02
1.289753e+00	1.326078e+00	1.285886e+04	2.748278e+02	2.748278e+02
1.326078e+00	1.362403e+00	1.072398e+04	2.580547e+02	2.580547e+02
1.362403e+00	1.398728e+00	1.030717e+04	2.489789e+02	2.489789e+02
1.398728e+00	1.435053e+00	9.120520e+03	2.385258e+02	2.385258e+02
1.435053e+00	1.471378e+00	8.084955e+03	2.293561e+02	2.293561e+02
1.471378e+00	1.507703e+00	7.197732e+03	2.354464e+02	2.354464e+02
1.507703e+00	1.544028e+00	6.573027e+03	2.370738e+02	2.370738e+02
1.544028e+00	1.580353e+00	6.161382e+03	2.353174e+02	2.353174e+02
1.580353e+00	1.616678e+00	5.248765e+03	2.223761e+02	2.223761e+02
1.616678e+00	1.653004e+00	4.621021e+03	2.099814e+02	2.099814e+02
1.653004e+00	1.689329e+00	4.000669e+03	1.920737e+02	1.920737e+02
1.689329e+00	1.725654e+00	3.491986e+03	1.778518e+02	1.778518e+02
1.725654e+00	1.761979e+00	3.230535e+03	1.664555e+02	1.664555e+02
1.761979e+00	1.798304e+00	2.617145e+03	1.558710e+02	1.558710e+02
1.798304e+00	1.834629e+00	2.459605e+03	1.441919e+02	1.441919e+02
1.834629e+00	1.870954e+00	2.003288e+03	1.340391e+02	1.340391e+02
1.870954e+00	1.907279e+00	1.796710e+03	1.215851e+02	1.215851e+02
1.907279e+00	1.943604e+00	1.648094e+03	1.151010e+02	1.151010e+02
1.943604e+00	1.979929e+00	1.308781e+03	1.054262e+02	1.054262e+02
1.979929e+00	2.016254e+00	1.035115e+03	9.429465e+01	9.429465e+01
2.016254e+00	2.052580e+00	8.517715e+02	8.913414e+01	8.913414e+01
2.052580e+00	2.088905e+00	7.949710e+02	7.822518e+01	7.822518e+01
2.088905e+00	2.125230e+00	6.504875e+02	7.494789e+01	7.494789e+01
2.125230e+00	2.161555e+00	5.361035e+02	6.348406e+01	6.348406e+01
2.161555e+00	2.197880e+00	4.260072e+02	5.778133e+01	5.778133e+01
2.197880e+00	2.234205e+00	4.214172e+02	5.171662e+01	5.171662e+01
2.234205e+00	2.270530e+00	2.852072e+02	4.567445e+01	4.567445e+01
2.270530e+00	2.306855e+00	2.546149e+02	4.320587e+01	4.320587e+01
2.306855e+00	2.343180e+00	1.476356e+02	3.019226e+01	3.019226e+01
2.343180e+00	2.379505e+00	9.953828e+01	2.870336e+01	2.870336e+01
2.379505e+00	2.415830e+00	6.318131e+01	2.406194e+01	2.406194e+01
2.415830e+00	2.452156e+00	8.050972e+01	2.215112e+01	2.215112e+01
2.452156e+00	2.488481e+00	7.189850e+01	2.009639e+01	2.009639e+01
2.488481e+00	2.524806e+00	3.497104e+01	1.303289e+01	1.303289e+01
2.524806e+00	2.561131e+00	2.841385e+01	1.866453e+01	1.866453e+01
2.561131e+00	2.597456e+00	3.553806e+01	1.282369e+01	1.282369e+01
2.597456e+00	2.633781e+00	3.252630e+01	1.395260e+01	1.395260e+01
2.633781e+00	2.670106e+00	1.371366e+01	7.964129e+00	7.964129e+00
2.670106e+00	2.706431e+00	1.677142e+01	9.933868e+00	9.933868e+00
2.706431e+00	2.742756e+00	1.512089e+01	8.837318e+00	8.837318e+00
2.742756e+00	2.779081e+00	1.573033e+01	9.741220e+00	9.741220e+00
2.779081e+00	2.815406e+00	0.000000e+00	0.000000e+00	0.000000e+00
2.815406e+00	2.851732e+00	0.000000e+00	0.000000e+00	0.000000e+00
2.851732e+00	2.888057e+00	0.000000e+00	0.000000e+00	0.000000e+00
2.888057e+00	2.924382e+00	0.000000e+00	0.000000e+00	0.000000e+00
2.924382e+00	2.960707e+00	0.000000e+00	0.000000e+00	0.000000e+00
2.960707e+00	2.997032e+00	0.000000e+00	0.000000e+00	0.000000e+00
2.997032e+00	3.033357e+00	0.000000e+00	0.000000e+00	0.000000e+00
3.033357e+00	3.069682e+00	0.000000e+00	0.000000e+00	0.000000e+00
3.069682e+00	3.106007e+00	5.787997e+00	5.787998e+00	5.787998e+00
3.106007e+00	3.142332e+00	0.000000e+00	0.000000e+00	0.000000e+00
3.142332e+00	3.178657e+00	0.000000e+00	0.000000e+00	0.000000e+00
3.178657e+00	3.214982e+00	0.000000e+00	0.000000e+00	0.000000e+00
3.214982e+00	3.251307e+00	0.000000e+00	0.000000e+00	0.000000e+00
3.251307e+00	3.287633e+00	0.000000e+00	0.000000e+00	0.000000e+00
3.287633e+00	3.323958e+00	0.000000e+00	0.000000e+00	0.000000e+00
3.323958e+00	3.360283e+00	0.000000e+00	0.000000e+00	0.000000e+00
3.360283e+00	3.396608e+00	0.000000e+00	0.000000e+00	0.000000e+00
3.396608e+00	3.432933e+00	0.000000e+00	0.000000e+00	0.000000e+00
3.432933e+00	3.469258e+00	0.000000e+00	0.000000e+00	0.000000e+00
3.469258e+00	3.505583e+00	0.000000e+00	0.000000e+00	0.000000e+00
3.505583e+00	3.541908e+00	0.000000e+00	0.000000e+00	0.000000e+00
3.541908e+00	3.578233e+00	0.000000e+00	0.000000e+00	0.000000e+00
3.578233e+00	3.614558e+00	0.000000e+00	0.000000e+00	0.000000e+00
3.614558e+00	3.650883e+00	0.000000e+00	0.000000e+00	0.000000e+00
3.650883e+00	3.687209e+00	0.000000e+00	0.000000e+00	0.000000e+00
3.687209e+00	3.723534e+00	0.000000e+00	0.000000e+00	0.000000e+00
3.723534e+00	3.759859e+00	0.000000e+00	0.000000e+00	0.000000e+00
3.759859e+00	3.796184e+00	0.000000e+00	0.000000e+00	0.000000e+00
3.796184e+00	3.832509e+00	0.000000e+00	0.000000e+00	0.000000e+00
# END HISTO1D


# BEGIN HISTO1D //afs/cern.ch/user/y/yilinz/work/genVal_eos/genValidation/MGv356_wellnu01j_5f_NLO_FXFX.yoda/MC_WKTSPLITTINGS:ENERGY=13600/log10_d_01
ErrorBars=1
LineColor=blue
LineStyle=solid
Path=//afs/cern.ch/user/y/yilinz/work/genVal_eos/genValidation/MGv356_wellnu01j_5f_NLO_FXFX.yoda/MC_WKTSPLITTINGS:ENERGY=13600/log10_d_01
ScaledBy=9.95705314576860415e-07
Title=W+01j@NLO(v356)
# xlow	 xhigh	 val	 errminus	 errplus
2.000000e-01	2.363251e-01	5.301772e+02	5.374903e+01	5.374903e+01
2.363251e-01	2.726502e-01	6.980666e+02	6.153761e+01	6.153761e+01
2.726502e-01	3.089753e-01	7.599206e+02	6.248197e+01	6.248197e+01
3.089753e-01	3.453004e-01	8.041018e+02	6.671249e+01	6.671249e+01
3.453004e-01	3.816254e-01	9.410670e+02	7.379773e+01	7.379773e+01
3.816254e-01	4.179505e-01	1.038264e+03	7.326660e+01	7.326660e+01
4.179505e-01	4.542756e-01	1.228244e+03	8.146652e+01	8.146652e+01
4.542756e-01	4.906007e-01	1.533096e+03	9.022100e+01	9.022100e+01
4.906007e-01	5.269258e-01	1.528677e+03	9.204168e+01	9.204168e+01
5.269258e-01	5.632509e-01	1.961655e+03	1.024781e+02	1.024781e+02
5.632509e-01	5.995760e-01	2.089781e+03	1.077701e+02	1.077701e+02
5.995760e-01	6.359011e-01	2.416724e+03	1.142754e+02	1.142754e+02
6.359011e-01	6.722262e-01	2.951320e+03	1.266706e+02	1.266706e+02
6.722262e-01	7.085512e-01	3.428487e+03	1.374607e+02	1.374607e+02
7.085512e-01	7.448763e-01	4.254672e+03	1.487150e+02	1.487150e+02
7.448763e-01	7.812014e-01	4.669978e+03	1.615494e+02	1.615494e+02
7.812014e-01	8.175265e-01	5.712659e+03	1.773321e+02	1.773321e+02
8.175265e-01	8.538516e-01	6.145638e+03	1.854041e+02	1.854041e+02
8.538516e-01	8.901767e-01	7.780350e+03	2.051941e+02	2.051941e+02
8.901767e-01	9.265018e-01	8.482834e+03	2.163537e+02	2.163537e+02
9.265018e-01	9.628269e-01	1.000709e+04	2.359056e+02	2.359056e+02
9.628269e-01	9.991520e-01	1.132370e+04	2.515239e+02	2.515239e+02
9.991520e-01	1.035477e+00	1.280381e+04	2.660448e+02	2.660448e+02
1.035477e+00	1.071802e+00	1.423530e+04	2.811696e+02	2.811696e+02
1.071802e+00	1.108127e+00	1.469920e+04	2.844482e+02	2.844482e+02
1.108127e+00	1.144452e+00	1.520287e+04	2.880623e+02	2.880623e+02
1.144452e+00	1.180777e+00	1.511451e+04	2.875197e+02	2.875197e+02
1.180777e+00	1.217102e+00	1.526914e+04	2.863974e+02	2.863974e+02
1.217102e+00	1.253428e+00	1.412004e+04	2.778799e+02	2.778799e+02
1.253428e+00	1.289753e+00	1.364326e+04	2.673622e+02	2.673622e+02
1.289753e+00	1.326078e+00	1.203947e+04	2.549164e+02	2.549164e+02
1.326078e+00	1.362403e+00	1.124420e+04	2.449985e+02	2.449985e+02
1.362403e+00	1.398728e+00	9.817140e+03	2.332852e+02	2.332852e+02
1.398728e+00	1.435053e+00	9.048380e+03	2.219655e+02	2.219655e+02
1.435053e+00	1.471378e+00	8.239860e+03	2.169399e+02	2.169399e+02
1.471378e+00	1.507703e+00	7.581553e+03	2.205540e+02	2.205540e+02
1.507703e+00	1.544028e+00	6.556542e+03	2.203769e+02	2.203769e+02
1.544028e+00	1.580353e+00	5.584548e+03	2.134476e+02	2.134476e+02
1.580353e+00	1.616678e+00	5.465258e+03	2.076533e+02	2.076533e+02
1.616678e+00	1.653004e+00	4.599171e+03	1.927296e+02	1.927296e+02
1.653004e+00	1.689329e+00	4.276774e+03	1.828070e+02	1.828070e+02
1.689329e+00	1.725654e+00	3.618469e+03	1.697974e+02	1.697974e+02
1.725654e+00	1.761979e+00	3.326871e+03	1.622732e+02	1.622732e+02
1.761979e+00	1.798304e+00	2.421149e+03	1.462669e+02	1.462669e+02
1.798304e+00	1.834629e+00	2.178150e+03	1.305413e+02	1.305413e+02
1.834629e+00	1.870954e+00	1.904225e+03	1.256653e+02	1.256653e+02
1.870954e+00	1.907279e+00	1.714244e+03	1.141903e+02	1.141903e+02
1.907279e+00	1.943604e+00	1.321028e+03	1.072256e+02	1.072256e+02
1.943604e+00	1.979929e+00	1.325446e+03	9.679693e+01	9.679693e+01
1.979929e+00	2.016254e+00	1.033848e+03	9.011304e+01	9.011304e+01
2.016254e+00	2.052580e+00	9.056967e+02	8.158422e+01	8.158422e+01
2.052580e+00	2.088905e+00	7.687590e+02	7.286608e+01	7.286608e+01
2.088905e+00	2.125230e+00	6.052873e+02	6.201175e+01	6.201175e+01
2.125230e+00	2.161555e+00	4.639061e+02	5.911088e+01	5.911088e+01
2.161555e+00	2.197880e+00	4.904151e+02	5.535932e+01	5.535932e+01
2.197880e+00	2.234205e+00	3.534524e+02	4.839846e+01	4.839846e+01
2.234205e+00	2.270530e+00	2.695074e+02	4.120981e+01	4.120981e+01
2.270530e+00	2.306855e+00	1.767262e+02	3.060988e+01	3.060988e+01
2.306855e+00	2.343180e+00	1.413809e+02	2.863292e+01	2.863292e+01
2.343180e+00	2.379505e+00	1.723081e+02	2.963788e+01	2.963788e+01
2.379505e+00	2.415830e+00	8.394494e+01	2.024653e+01	2.024653e+01
2.415830e+00	2.452156e+00	8.394263e+01	2.209017e+01	2.209017e+01
2.452156e+00	2.488481e+00	4.859970e+01	1.821652e+01	1.821652e+01
2.488481e+00	2.524806e+00	3.092708e+01	1.465336e+01	1.465336e+01
2.524806e+00	2.561131e+00	2.650893e+01	1.397143e+01	1.397143e+01
2.561131e+00	2.597456e+00	2.209077e+01	1.168934e+01	1.168934e+01
2.597456e+00	2.633781e+00	0.000000e+00	-nan	-nan
2.633781e+00	2.670106e+00	4.418156e+00	4.418155e+00	4.418155e+00
2.670106e+00	2.706431e+00	1.325446e+01	7.652468e+00	7.652468e+00
2.706431e+00	2.742756e+00	8.836311e+00	6.248214e+00	6.248214e+00
2.742756e+00	2.779081e+00	8.836311e+00	6.248214e+00	6.248214e+00
2.779081e+00	2.815406e+00	8.836311e+00	6.248214e+00	6.248214e+00
2.815406e+00	2.851732e+00	8.836068e+00	6.248042e+00	6.248042e+00
2.851732e+00	2.888057e+00	0.000000e+00	0.000000e+00	0.000000e+00
2.888057e+00	2.924382e+00	0.000000e+00	0.000000e+00	0.000000e+00
2.924382e+00	2.960707e+00	0.000000e+00	0.000000e+00	0.000000e+00
2.960707e+00	2.997032e+00	0.000000e+00	0.000000e+00	0.000000e+00
2.997032e+00	3.033357e+00	0.000000e+00	0.000000e+00	0.000000e+00
3.033357e+00	3.069682e+00	0.000000e+00	0.000000e+00	0.000000e+00
3.069682e+00	3.106007e+00	0.000000e+00	0.000000e+00	0.000000e+00
3.106007e+00	3.142332e+00	0.000000e+00	0.000000e+00	0.000000e+00
3.142332e+00	3.178657e+00	0.000000e+00	0.000000e+00	0.000000e+00
3.178657e+00	3.214982e+00	0.000000e+00	0.000000e+00	0.000000e+00
3.214982e+00	3.251307e+00	0.000000e+00	0.000000e+00	0.000000e+00
3.251307e+00	3.287633e+00	0.000000e+00	0.000000e+00	0.000000e+00
3.287633e+00	3.323958e+00	0.000000e+00	0.000000e+00	0.000000e+00
3.323958e+00	3.360283e+00	0.000000e+00	0.000000e+00	0.000000e+00
3.360283e+00	3.396608e+00	0.000000e+00	0.000000e+00	0.000000e+00
3.396608e+00	3.432933e+00	0.000000e+00	0.000000e+00	0.000000e+00
3.432933e+00	3.469258e+00	0.000000e+00	0.000000e+00	0.000000e+00
3.469258e+00	3.505583e+00	0.000000e+00	0.000000e+00	0.000000e+00
3.505583e+00	3.541908e+00	0.000000e+00	0.000000e+00	0.000000e+00
3.541908e+00	3.578233e+00	0.000000e+00	0.000000e+00	0.000000e+00
3.578233e+00	3.614558e+00	0.000000e+00	0.000000e+00	0.000000e+00
3.614558e+00	3.650883e+00	0.000000e+00	0.000000e+00	0.000000e+00
3.650883e+00	3.687209e+00	0.000000e+00	0.000000e+00	0.000000e+00
3.687209e+00	3.723534e+00	0.000000e+00	0.000000e+00	0.000000e+00
3.723534e+00	3.759859e+00	0.000000e+00	0.000000e+00	0.000000e+00
3.759859e+00	3.796184e+00	0.000000e+00	0.000000e+00	0.000000e+00
3.796184e+00	3.832509e+00	0.000000e+00	0.000000e+00	0.000000e+00
# END HISTO1D


# BEGIN HISTO1D //afs/cern.ch/user/y/yilinz/work/genVal_eos/genValidation/MGv3_NLO_May26.yoda/MC_WKTSPLITTINGS:ENERGY=13600/log10_d_01
ErrorBars=1
LineColor=green
LineStyle=solid
Path=//afs/cern.ch/user/y/yilinz/work/genVal_eos/genValidation/MGv3_NLO_May26.yoda/MC_WKTSPLITTINGS:ENERGY=13600/log10_d_01
ScaledBy=9.96670784066914361e-07
Title=W+01j@NLO(v352)
# xlow	 xhigh	 val	 errminus	 errplus
2.000000e-01	2.363251e-01	4.864669e+02	5.380114e+01	5.380114e+01
2.363251e-01	2.726502e-01	6.943210e+02	6.015150e+01	6.015150e+01
2.726502e-01	3.089753e-01	7.075881e+02	6.222906e+01	6.222906e+01
3.089753e-01	3.453004e-01	7.827695e+02	6.604091e+01	6.604091e+01
3.453004e-01	3.816254e-01	1.096765e+03	7.582903e+01	7.582903e+01
3.816254e-01	4.179505e-01	1.052538e+03	7.582882e+01	7.582882e+01
4.179505e-01	4.542756e-01	1.225012e+03	8.332490e+01	8.332490e+01
4.542756e-01	4.906007e-01	1.481513e+03	9.052482e+01	9.052482e+01
4.906007e-01	5.269258e-01	1.587651e+03	9.287097e+01	9.287097e+01
5.269258e-01	5.632509e-01	1.835307e+03	9.977448e+01	9.977448e+01
5.632509e-01	5.995760e-01	2.454447e+03	1.135281e+02	1.135281e+02
5.995760e-01	6.359011e-01	2.560585e+03	1.182534e+02	1.182534e+02
6.359011e-01	6.722262e-01	2.879001e+03	1.262523e+02	1.262523e+02
6.722262e-01	7.085512e-01	3.316829e+03	1.365954e+02	1.365954e+02
7.085512e-01	7.448763e-01	3.896157e+03	1.475394e+02	1.475394e+02
7.448763e-01	7.812014e-01	4.709884e+03	1.619478e+02	1.619478e+02
7.812014e-01	8.175265e-01	5.152126e+03	1.701916e+02	1.701916e+02
8.175265e-01	8.538516e-01	6.545191e+03	1.887708e+02	1.887708e+02
8.538516e-01	8.901767e-01	7.288159e+03	2.040076e+02	2.040076e+02
8.901767e-01	9.265018e-01	8.446834e+03	2.169244e+02	2.169244e+02
9.265018e-01	9.628269e-01	9.985839e+03	2.356784e+02	2.356784e+02
9.628269e-01	9.991520e-01	1.131257e+04	2.499356e+02	2.499356e+02
9.991520e-01	1.035477e+00	1.247570e+04	2.630886e+02	2.630886e+02
1.035477e+00	1.071802e+00	1.387319e+04	2.764996e+02	2.764996e+02
1.071802e+00	1.108127e+00	1.488151e+04	2.858210e+02	2.858210e+02
1.108127e+00	1.144452e+00	1.526184e+04	2.909749e+02	2.909749e+02
1.144452e+00	1.180777e+00	1.534144e+04	2.897626e+02	2.897626e+02
1.180777e+00	1.217102e+00	1.506725e+04	2.890191e+02	2.890191e+02
1.217102e+00	1.253428e+00	1.459807e+04	2.783250e+02	2.783250e+02
1.253428e+00	1.289753e+00	1.324078e+04	2.675484e+02	2.675484e+02
1.289753e+00	1.326078e+00	1.216613e+04	2.562344e+02	2.562344e+02
1.326078e+00	1.362403e+00	1.107821e+04	2.441971e+02	2.441971e+02
1.362403e+00	1.398728e+00	1.002125e+04	2.326724e+02	2.326724e+02
1.398728e+00	1.435053e+00	9.145602e+03	2.228839e+02	2.228839e+02
1.435053e+00	1.471378e+00	7.672930e+03	2.137003e+02	2.137003e+02
1.471378e+00	1.507703e+00	6.868047e+03	2.145224e+02	2.145224e+02
1.507703e+00	1.544028e+00	6.788443e+03	2.214313e+02	2.214313e+02
1.544028e+00	1.580353e+00	5.559006e+03	2.110296e+02	2.110296e+02
1.580353e+00	1.616678e+00	5.218478e+03	2.053460e+02	2.053460e+02
1.616678e+00	1.653004e+00	4.470963e+03	1.936248e+02	1.936248e+02
1.653004e+00	1.689329e+00	3.865211e+03	1.784387e+02	1.784387e+02
1.689329e+00	1.725654e+00	3.560063e+03	1.688074e+02	1.688074e+02
1.725654e+00	1.761979e+00	3.135510e+03	1.584073e+02	1.584073e+02
1.761979e+00	1.798304e+00	2.697688e+03	1.470752e+02	1.470752e+02
1.798304e+00	1.834629e+00	2.202375e+03	1.344305e+02	1.344305e+02
1.834629e+00	1.870954e+00	1.906071e+03	1.219984e+02	1.219984e+02
1.870954e+00	1.907279e+00	1.574388e+03	1.139583e+02	1.139583e+02
1.907279e+00	1.943604e+00	1.543431e+03	1.084174e+02	1.084174e+02
1.943604e+00	1.979929e+00	1.300197e+03	9.339620e+01	9.339620e+01
1.979929e+00	2.016254e+00	9.862040e+02	8.541148e+01	8.541148e+01
2.016254e+00	2.052580e+00	7.739055e+02	7.748525e+01	7.748525e+01
2.052580e+00	2.088905e+00	7.208575e+02	7.307068e+01	7.307068e+01
2.088905e+00	2.125230e+00	5.572273e+02	6.589285e+01	6.589285e+01
2.125230e+00	2.161555e+00	6.147191e+02	6.143848e+01	6.143848e+01
2.161555e+00	2.197880e+00	4.289765e+02	5.288468e+01	5.288468e+01
2.197880e+00	2.234205e+00	3.095708e+02	4.680270e+01	4.680270e+01
2.234205e+00	2.270530e+00	2.520790e+02	4.172120e+01	4.172120e+01
2.270530e+00	2.306855e+00	2.166995e+02	3.880674e+01	3.880674e+01
2.306855e+00	2.343180e+00	1.149834e+02	3.063956e+01	3.063956e+01
2.343180e+00	2.379505e+00	1.061385e+02	2.726174e+01	2.726174e+01
2.379505e+00	2.415830e+00	1.238283e+02	2.796996e+01	2.796996e+01
2.415830e+00	2.452156e+00	1.017133e+02	2.120869e+01	2.120869e+01
2.452156e+00	2.488481e+00	3.980195e+01	1.823418e+01	1.823418e+01
2.488481e+00	2.524806e+00	3.980195e+01	1.466757e+01	1.466757e+01
2.524806e+00	2.561131e+00	2.211220e+01	1.170067e+01	1.170067e+01
2.561131e+00	2.597456e+00	1.768976e+01	8.844878e+00	8.844878e+00
2.597456e+00	2.633781e+00	2.653463e+01	1.250855e+01	1.250855e+01
2.633781e+00	2.670106e+00	2.653463e+01	1.083272e+01	1.083272e+01
2.670106e+00	2.706431e+00	8.844878e+00	6.254273e+00	6.254273e+00
2.706431e+00	2.742756e+00	0.000000e+00	0.000000e+00	0.000000e+00
2.742756e+00	2.779081e+00	0.000000e+00	0.000000e+00	0.000000e+00
2.779081e+00	2.815406e+00	4.422439e+00	4.422438e+00	4.422438e+00
2.815406e+00	2.851732e+00	0.000000e+00	0.000000e+00	0.000000e+00
2.851732e+00	2.888057e+00	0.000000e+00	0.000000e+00	0.000000e+00
2.888057e+00	2.924382e+00	0.000000e+00	0.000000e+00	0.000000e+00
2.924382e+00	2.960707e+00	0.000000e+00	0.000000e+00	0.000000e+00
2.960707e+00	2.997032e+00	0.000000e+00	0.000000e+00	0.000000e+00
2.997032e+00	3.033357e+00	0.000000e+00	0.000000e+00	0.000000e+00
3.033357e+00	3.069682e+00	0.000000e+00	0.000000e+00	0.000000e+00
3.069682e+00	3.106007e+00	0.000000e+00	0.000000e+00	0.000000e+00
3.106007e+00	3.142332e+00	0.000000e+00	0.000000e+00	0.000000e+00
3.142332e+00	3.178657e+00	0.000000e+00	0.000000e+00	0.000000e+00
3.178657e+00	3.214982e+00	0.000000e+00	0.000000e+00	0.000000e+00
3.214982e+00	3.251307e+00	0.000000e+00	0.000000e+00	0.000000e+00
3.251307e+00	3.287633e+00	0.000000e+00	0.000000e+00	0.000000e+00
3.287633e+00	3.323958e+00	0.000000e+00	0.000000e+00	0.000000e+00
3.323958e+00	3.360283e+00	0.000000e+00	0.000000e+00	0.000000e+00
3.360283e+00	3.396608e+00	0.000000e+00	0.000000e+00	0.000000e+00
3.396608e+00	3.432933e+00	0.000000e+00	0.000000e+00	0.000000e+00
3.432933e+00	3.469258e+00	0.000000e+00	0.000000e+00	0.000000e+00
3.469258e+00	3.505583e+00	0.000000e+00	0.000000e+00	0.000000e+00
3.505583e+00	3.541908e+00	0.000000e+00	0.000000e+00	0.000000e+00
3.541908e+00	3.578233e+00	0.000000e+00	0.000000e+00	0.000000e+00
3.578233e+00	3.614558e+00	0.000000e+00	0.000000e+00	0.000000e+00
3.614558e+00	3.650883e+00	0.000000e+00	0.000000e+00	0.000000e+00
3.650883e+00	3.687209e+00	0.000000e+00	0.000000e+00	0.000000e+00
3.687209e+00	3.723534e+00	0.000000e+00	0.000000e+00	0.000000e+00
3.723534e+00	3.759859e+00	0.000000e+00	0.000000e+00	0.000000e+00
3.759859e+00	3.796184e+00	0.000000e+00	0.000000e+00	0.000000e+00
3.796184e+00	3.832509e+00	0.000000e+00	0.000000e+00	0.000000e+00
# END HISTO1D

