# BEGIN PLOT
Legend=1
LogY=0
Title=$A_2$ for $W^+$
XLabel=$p_\perp(W)$ [GeV]
YLabel=$A_2$
LogX=1
YMin=0.0
YMax=0.6
RemoveOptions=1
DrawOnly=//eos/home-y/yilinz/genVal_eos/genValidation/MGv2918wellnu012j_5f_NLO_FXFX_newtest.yoda/MC_WPOL:ENERGY=13600/A2_wplus //eos/home-y/yilinz/genVal_eos/genValidation/MGv356wellnu012j_5f_NLO_FXFX_newtest.yoda/MC_WPOL:ENERGY=13600/A2_wplus
LegendOnly=//eos/home-y/yilinz/genVal_eos/genValidation/MGv2918wellnu012j_5f_NLO_FXFX_newtest.yoda/MC_WPOL:ENERGY=13600/A2_wplus //eos/home-y/yilinz/genVal_eos/genValidation/MGv356wellnu012j_5f_NLO_FXFX_newtest.yoda/MC_WPOL:ENERGY=13600/A2_wplus
RatioPlot=1
RatioPlotReference=//eos/home-y/yilinz/genVal_eos/genValidation/MGv2918wellnu012j_5f_NLO_FXFX_newtest.yoda/MC_WPOL:ENERGY=13600/A2_wplus
RatioPlotYLabel=Ratio
# END PLOT

# BEGIN HISTO1D //eos/home-y/yilinz/genVal_eos/genValidation/MGv2918wellnu012j_5f_NLO_FXFX_newtest.yoda/MC_WPOL:ENERGY=13600/A2_wplus
ErrorBars=1
LineColor=red
LineStyle=solid
Path=//eos/home-y/yilinz/genVal_eos/genValidation/MGv2918wellnu012j_5f_NLO_FXFX_newtest.yoda/MC_WPOL:ENERGY=13600/A2_wplus
Title=W+012j@NLO(v2918)
# xlow	 xhigh	 val	 errminus	 errplus
1.000000e+00	1.092258e+00	-4.526382e-02	3.625932e-01	3.625932e-01
1.092258e+00	1.193027e+00	2.927331e-01	3.480291e-01	3.480291e-01
1.193027e+00	1.303093e+00	5.799853e-01	3.527781e-01	3.527781e-01
1.303093e+00	1.423313e+00	-2.515020e-01	2.946058e-01	2.946058e-01
1.423313e+00	1.554624e+00	9.268908e-02	2.485066e-01	2.485066e-01
1.554624e+00	1.698050e+00	-5.078848e-02	2.437174e-01	2.437174e-01
1.698050e+00	1.854708e+00	2.866052e-01	2.275192e-01	2.275192e-01
1.854708e+00	2.025819e+00	3.128752e-01	2.130497e-01	2.130497e-01
2.025819e+00	2.212717e+00	3.924213e-01	1.860594e-01	1.860594e-01
2.212717e+00	2.416857e+00	-4.001019e-01	1.733181e-01	1.733181e-01
2.416857e+00	2.639830e+00	6.300978e-03	1.723603e-01	1.723603e-01
2.639830e+00	2.883375e+00	-7.882277e-02	1.665678e-01	1.665678e-01
2.883375e+00	3.149388e+00	2.649477e-01	1.525238e-01	1.525238e-01
3.149388e+00	3.439943e+00	-2.515762e-02	1.538184e-01	1.538184e-01
3.439943e+00	3.757304e+00	4.932580e-01	1.459216e-01	1.459216e-01
3.757304e+00	4.103944e+00	1.559694e-01	1.300113e-01	1.300113e-01
4.103944e+00	4.482564e+00	1.534112e-02	1.379925e-01	1.379925e-01
4.482564e+00	4.896115e+00	-9.717054e-02	1.379375e-01	1.379375e-01
4.896115e+00	5.347819e+00	-7.670130e-02	1.290576e-01	1.290576e-01
5.347819e+00	5.841196e+00	2.942078e-01	1.302491e-01	1.302491e-01
5.841196e+00	6.380091e+00	7.464347e-02	1.245250e-01	1.245250e-01
6.380091e+00	6.968703e+00	1.393679e-01	1.281513e-01	1.281513e-01
6.968703e+00	7.611619e+00	1.657978e-01	1.285114e-01	1.285114e-01
7.611619e+00	8.313849e+00	2.638975e-01	1.269249e-01	1.269249e-01
8.313849e+00	9.080865e+00	1.681703e-01	1.277388e-01	1.277388e-01
9.080865e+00	9.918644e+00	4.142566e-02	1.301583e-01	1.301583e-01
9.918644e+00	1.083371e+01	2.184924e-01	1.344848e-01	1.344848e-01
1.083371e+01	1.183321e+01	3.389274e-01	1.273992e-01	1.273992e-01
1.183321e+01	1.292491e+01	5.113905e-01	1.307004e-01	1.307004e-01
1.292491e+01	1.411733e+01	1.590406e-01	1.311211e-01	1.311211e-01
1.411733e+01	1.541977e+01	1.735406e-01	1.321854e-01	1.321854e-01
1.541977e+01	1.684236e+01	2.955907e-01	1.301429e-01	1.301429e-01
1.684236e+01	1.839619e+01	4.320280e-01	1.284753e-01	1.284753e-01
1.839619e+01	2.009338e+01	2.810765e-01	1.354806e-01	1.354806e-01
2.009338e+01	2.194715e+01	6.555373e-02	1.395849e-01	1.395849e-01
2.194715e+01	2.397194e+01	3.996197e-01	1.418780e-01	1.418780e-01
2.397194e+01	2.618354e+01	1.634990e-01	1.494508e-01	1.494508e-01
2.618354e+01	2.859917e+01	3.068881e-01	1.543443e-01	1.543443e-01
2.859917e+01	3.123766e+01	2.437298e-01	1.550740e-01	1.550740e-01
3.123766e+01	3.411957e+01	4.205918e-01	1.684773e-01	1.684773e-01
3.411957e+01	3.726736e+01	3.732854e-01	1.920167e-01	1.920167e-01
3.726736e+01	4.070556e+01	3.497150e-01	2.165945e-01	2.165945e-01
4.070556e+01	4.446096e+01	3.409696e-01	2.151104e-01	2.151104e-01
4.446096e+01	4.856282e+01	1.215868e-01	2.344297e-01	2.344297e-01
4.856282e+01	5.304311e+01	-1.961558e-01	2.480033e-01	2.480033e-01
5.304311e+01	5.793675e+01	6.325362e-02	2.867661e-01	2.867661e-01
5.793675e+01	6.328185e+01	3.859660e-01	2.830672e-01	2.830672e-01
6.328185e+01	6.912009e+01	7.051392e-01	3.106125e-01	3.106125e-01
6.912009e+01	7.549694e+01	-3.295911e-01	3.455434e-01	3.455434e-01
7.549694e+01	8.246211e+01	2.794418e-02	4.553405e-01	4.553405e-01
8.246211e+01	9.006987e+01	4.843179e-02	4.121690e-01	4.121690e-01
9.006987e+01	9.837951e+01	5.895528e-01	5.107777e-01	5.107777e-01
9.837951e+01	1.074558e+02	2.122165e-01	5.162954e-01	5.162954e-01
1.074558e+02	1.173694e+02	8.031421e-01	4.984688e-01	4.984688e-01
1.173694e+02	1.281976e+02	6.312364e-01	7.151591e-01	7.151591e-01
1.281976e+02	1.400248e+02	3.499855e-01	7.689839e-01	7.689839e-01
1.400248e+02	1.529432e+02	5.596724e-01	6.143075e-01	6.143075e-01
1.529432e+02	1.670533e+02	5.747957e-01	8.316369e-01	8.316369e-01
1.670533e+02	1.824653e+02	1.265011e+00	1.157744e+00	1.157744e+00
1.824653e+02	1.992991e+02	-9.718493e-01	1.883694e+00	1.883694e+00
1.992991e+02	2.176860e+02	-1.182954e-01	2.883959e+00	2.883959e+00
2.176860e+02	2.377692e+02	2.165678e+00	1.020211e+00	1.020211e+00
2.377692e+02	2.597052e+02	-4.368048e+00	3.516279e+00	3.516279e+00
2.597052e+02	2.836650e+02	-1.697327e+00	1.222193e+00	1.222193e+00
2.836650e+02	3.098352e+02	4.053083e-01	2.522143e+00	2.522143e+00
3.098352e+02	3.384199e+02	-2.372559e+00	nan	nan
3.384199e+02	3.696417e+02	-7.938379e-01	2.483734e+00	2.483734e+00
3.696417e+02	4.037440e+02	2.246053e+00	6.014291e+00	6.014291e+00
4.037440e+02	4.409924e+02	8.480332e-01	nan	nan
4.409924e+02	4.816774e+02	8.593492e+01	nan	nan
4.816774e+02	5.261158e+02	6.311746e-01	1.008710e+00	1.008710e+00
5.261158e+02	5.746540e+02	1.333384e+00	1.379128e+00	1.379128e+00
5.746540e+02	6.276702e+02	4.066041e+00	3.817547e+00	3.817547e+00
6.276702e+02	6.855776e+02	-5.307452e-01	nan	nan
6.855776e+02	7.488273e+02	-5.332808e-01	nan	nan
7.488273e+02	8.179124e+02	3.796454e+00	8.649075e+00	8.649075e+00
8.179124e+02	8.933710e+02	nan	nan	nan
8.933710e+02	9.757913e+02	nan	nan	nan
9.757913e+02	1.065816e+03	nan	nan	nan
1.065816e+03	1.164145e+03	nan	nan	nan
1.164145e+03	1.271546e+03	nan	nan	nan
1.271546e+03	1.388856e+03	nan	nan	nan
1.388856e+03	1.516989e+03	nan	nan	nan
1.516989e+03	1.656943e+03	nan	nan	nan
1.656943e+03	1.809808e+03	nan	nan	nan
1.809808e+03	1.976777e+03	nan	nan	nan
1.976777e+03	2.159150e+03	nan	nan	nan
2.159150e+03	2.358348e+03	nan	nan	nan
2.358348e+03	2.575923e+03	nan	nan	nan
2.575923e+03	2.813572e+03	nan	nan	nan
2.813572e+03	3.073145e+03	nan	nan	nan
3.073145e+03	3.356667e+03	nan	nan	nan
3.356667e+03	3.666345e+03	nan	nan	nan
3.666345e+03	4.004593e+03	nan	nan	nan
4.004593e+03	4.374047e+03	nan	nan	nan
4.374047e+03	4.777586e+03	nan	nan	nan
4.777586e+03	5.218355e+03	nan	nan	nan
5.218355e+03	5.699788e+03	nan	nan	nan
5.699788e+03	6.225637e+03	nan	nan	nan
6.225637e+03	6.800000e+03	nan	nan	nan
# END HISTO1D


# BEGIN HISTO1D //eos/home-y/yilinz/genVal_eos/genValidation/MGv356wellnu012j_5f_NLO_FXFX_newtest.yoda/MC_WPOL:ENERGY=13600/A2_wplus
ErrorBars=1
LineColor=blue
LineStyle=solid
Path=//eos/home-y/yilinz/genVal_eos/genValidation/MGv356wellnu012j_5f_NLO_FXFX_newtest.yoda/MC_WPOL:ENERGY=13600/A2_wplus
Title=W+012j@NLO(v356)
# xlow	 xhigh	 val	 errminus	 errplus
1.000000e+00	1.092258e+00	3.433313e-01	3.827897e-01	3.827897e-01
1.092258e+00	1.193027e+00	-2.043860e-01	2.916784e-01	2.916784e-01
1.193027e+00	1.303093e+00	2.732934e-01	2.959961e-01	2.959961e-01
1.303093e+00	1.423313e+00	-1.287729e-01	2.872603e-01	2.872603e-01
1.423313e+00	1.554624e+00	1.035393e-01	2.549317e-01	2.549317e-01
1.554624e+00	1.698050e+00	6.392565e-01	2.327014e-01	2.327014e-01
1.698050e+00	1.854708e+00	1.128213e-02	2.565687e-01	2.565687e-01
1.854708e+00	2.025819e+00	9.029650e-03	2.138719e-01	2.138719e-01
2.025819e+00	2.212717e+00	9.543508e-02	2.062706e-01	2.062706e-01
2.212717e+00	2.416857e+00	-1.028003e-02	1.872510e-01	1.872510e-01
2.416857e+00	2.639830e+00	5.179903e-02	1.762587e-01	1.762587e-01
2.639830e+00	2.883375e+00	8.477147e-02	1.674502e-01	1.674502e-01
2.883375e+00	3.149388e+00	1.279555e-02	1.632154e-01	1.632154e-01
3.149388e+00	3.439943e+00	-1.760125e-01	1.509848e-01	1.509848e-01
3.439943e+00	3.757304e+00	1.847068e-01	1.372302e-01	1.372302e-01
3.757304e+00	4.103944e+00	1.346764e-01	1.375527e-01	1.375527e-01
4.103944e+00	4.482564e+00	1.336163e-01	1.352578e-01	1.352578e-01
4.482564e+00	4.896115e+00	1.393254e-01	1.324785e-01	1.324785e-01
4.896115e+00	5.347819e+00	1.409980e-01	1.337549e-01	1.337549e-01
5.347819e+00	5.841196e+00	8.712166e-02	1.296266e-01	1.296266e-01
5.841196e+00	6.380091e+00	2.301169e-01	1.237257e-01	1.237257e-01
6.380091e+00	6.968703e+00	2.650167e-01	1.266620e-01	1.266620e-01
6.968703e+00	7.611619e+00	2.842602e-01	1.256115e-01	1.256115e-01
7.611619e+00	8.313849e+00	3.359326e-01	1.266244e-01	1.266244e-01
8.313849e+00	9.080865e+00	4.657180e-01	1.225491e-01	1.225491e-01
9.080865e+00	9.918644e+00	5.106162e-01	1.242536e-01	1.242536e-01
9.918644e+00	1.083371e+01	4.610312e-01	1.278674e-01	1.278674e-01
1.083371e+01	1.183321e+01	1.799904e-01	1.292278e-01	1.292278e-01
1.183321e+01	1.292491e+01	3.614826e-01	1.254473e-01	1.254473e-01
1.292491e+01	1.411733e+01	1.612071e-01	1.336216e-01	1.336216e-01
1.411733e+01	1.541977e+01	2.251993e-01	1.251654e-01	1.251654e-01
1.541977e+01	1.684236e+01	2.986171e-01	1.309357e-01	1.309357e-01
1.684236e+01	1.839619e+01	2.329930e-01	1.298317e-01	1.298317e-01
1.839619e+01	2.009338e+01	3.611763e-01	1.311169e-01	1.311169e-01
2.009338e+01	2.194715e+01	2.819039e-01	1.364681e-01	1.364681e-01
2.194715e+01	2.397194e+01	1.951907e-01	1.427043e-01	1.427043e-01
2.397194e+01	2.618354e+01	1.340596e-01	1.523175e-01	1.523175e-01
2.618354e+01	2.859917e+01	3.641411e-01	1.492535e-01	1.492535e-01
2.859917e+01	3.123766e+01	3.207169e-01	1.652145e-01	1.652145e-01
3.123766e+01	3.411957e+01	1.813075e-01	1.802147e-01	1.802147e-01
3.411957e+01	3.726736e+01	6.816152e-02	1.758601e-01	1.758601e-01
3.726736e+01	4.070556e+01	7.148621e-02	2.047718e-01	2.047718e-01
4.070556e+01	4.446096e+01	3.905836e-01	2.194258e-01	2.194258e-01
4.446096e+01	4.856282e+01	-5.273014e-02	2.471627e-01	2.471627e-01
4.856282e+01	5.304311e+01	-6.001404e-02	2.652513e-01	2.652513e-01
5.304311e+01	5.793675e+01	-5.470117e-02	2.806510e-01	2.806510e-01
5.793675e+01	6.328185e+01	8.228197e-02	3.121831e-01	3.121831e-01
6.328185e+01	6.912009e+01	3.761686e-01	3.039824e-01	3.039824e-01
6.912009e+01	7.549694e+01	7.090549e-02	3.424638e-01	3.424638e-01
7.549694e+01	8.246211e+01	1.091539e-01	3.707673e-01	3.707673e-01
8.246211e+01	9.006987e+01	2.368575e-01	4.438230e-01	4.438230e-01
9.006987e+01	9.837951e+01	3.186258e-01	5.176884e-01	5.176884e-01
9.837951e+01	1.074558e+02	9.771303e-02	5.354871e-01	5.354871e-01
1.074558e+02	1.173694e+02	-8.892989e-01	8.631753e-01	8.631753e-01
1.173694e+02	1.281976e+02	-4.929452e-01	7.014038e-01	7.014038e-01
1.281976e+02	1.400248e+02	-1.113194e-01	8.216450e-01	8.216450e-01
1.400248e+02	1.529432e+02	7.958197e-01	7.026991e-01	7.026991e-01
1.529432e+02	1.670533e+02	1.466219e+00	6.123645e-01	6.123645e-01
1.670533e+02	1.824653e+02	-2.227047e+00	6.981863e-01	6.981863e-01
1.824653e+02	1.992991e+02	-1.606697e+00	7.799462e-01	7.799462e-01
1.992991e+02	2.176860e+02	1.351741e+00	9.934025e-01	9.934025e-01
2.176860e+02	2.377692e+02	-1.014381e+00	1.787954e+00	1.787954e+00
2.377692e+02	2.597052e+02	-1.330672e+00	2.495634e+00	2.495634e+00
2.597052e+02	2.836650e+02	-2.607126e+00	1.164394e+00	1.164394e+00
2.836650e+02	3.098352e+02	-2.180060e+00	1.363403e+00	1.363403e+00
3.098352e+02	3.384199e+02	4.394234e-01	1.690328e+00	1.690328e+00
3.384199e+02	3.696417e+02	1.681194e+00	nan	nan
3.696417e+02	4.037440e+02	5.419342e+00	1.303320e+00	1.303320e+00
4.037440e+02	4.409924e+02	-1.632344e+01	nan	nan
4.409924e+02	4.816774e+02	3.535401e-01	3.917948e+00	3.917948e+00
4.816774e+02	5.261158e+02	7.494956e-01	4.017465e+00	4.017465e+00
5.261158e+02	5.746540e+02	nan	nan	nan
5.746540e+02	6.276702e+02	nan	nan	nan
6.276702e+02	6.855776e+02	7.160891e+00	1.609205e+00	1.609205e+00
6.855776e+02	7.488273e+02	-8.808037e-01	6.001095e-01	6.001095e-01
7.488273e+02	8.179124e+02	-1.559864e-01	1.136919e-01	1.136919e-01
8.179124e+02	8.933710e+02	nan	nan	nan
8.933710e+02	9.757913e+02	nan	nan	nan
9.757913e+02	1.065816e+03	nan	nan	nan
1.065816e+03	1.164145e+03	nan	nan	nan
1.164145e+03	1.271546e+03	nan	nan	nan
1.271546e+03	1.388856e+03	nan	nan	nan
1.388856e+03	1.516989e+03	nan	nan	nan
1.516989e+03	1.656943e+03	nan	nan	nan
1.656943e+03	1.809808e+03	nan	nan	nan
1.809808e+03	1.976777e+03	nan	nan	nan
1.976777e+03	2.159150e+03	nan	nan	nan
2.159150e+03	2.358348e+03	nan	nan	nan
2.358348e+03	2.575923e+03	nan	nan	nan
2.575923e+03	2.813572e+03	nan	nan	nan
2.813572e+03	3.073145e+03	nan	nan	nan
3.073145e+03	3.356667e+03	nan	nan	nan
3.356667e+03	3.666345e+03	nan	nan	nan
3.666345e+03	4.004593e+03	nan	nan	nan
4.004593e+03	4.374047e+03	nan	nan	nan
4.374047e+03	4.777586e+03	nan	nan	nan
4.777586e+03	5.218355e+03	nan	nan	nan
5.218355e+03	5.699788e+03	nan	nan	nan
5.699788e+03	6.225637e+03	nan	nan	nan
6.225637e+03	6.800000e+03	nan	nan	nan
# END HISTO1D

