# BEGIN PLOT
Legend=1
LogY=0
Title=$\phi^*$ for $p_\perp(W^-)>20$ GeV
XLabel=$\phi^*$
YLabel=$\mathrm{d}\sigma/\mathrm{d}\phi^*$ [pb]
LogX=0
RemoveOptions=1
DrawOnly=//eos/home-y/yilinz/genVal_eos/genValidation/MGv2918wellnu012j_5f_NLO_FXFX_newtest.yoda/MC_WPOL:ENERGY=13600/phistar_ptw20_wminus //eos/home-y/yilinz/genVal_eos/genValidation/MGv356wellnu012j_5f_NLO_FXFX_newtest.yoda/MC_WPOL:ENERGY=13600/phistar_ptw20_wminus
LegendOnly=//eos/home-y/yilinz/genVal_eos/genValidation/MGv2918wellnu012j_5f_NLO_FXFX_newtest.yoda/MC_WPOL:ENERGY=13600/phistar_ptw20_wminus //eos/home-y/yilinz/genVal_eos/genValidation/MGv356wellnu012j_5f_NLO_FXFX_newtest.yoda/MC_WPOL:ENERGY=13600/phistar_ptw20_wminus
RatioPlot=1
RatioPlotReference=//eos/home-y/yilinz/genVal_eos/genValidation/MGv2918wellnu012j_5f_NLO_FXFX_newtest.yoda/MC_WPOL:ENERGY=13600/phistar_ptw20_wminus
RatioPlotYLabel=Ratio
# END PLOT

# BEGIN HISTO1D //eos/home-y/yilinz/genVal_eos/genValidation/MGv2918wellnu012j_5f_NLO_FXFX_newtest.yoda/MC_WPOL:ENERGY=13600/phistar_ptw20_wminus
ErrorBars=1
LineColor=red
LineStyle=solid
Path=//eos/home-y/yilinz/genVal_eos/genValidation/MGv2918wellnu012j_5f_NLO_FXFX_newtest.yoda/MC_WPOL:ENERGY=13600/phistar_ptw20_wminus
ScaledBy=9.95273825490549440e-07
Title=W+012j@NLO(v2918)
# xlow	 xhigh	 val	 errminus	 errplus
0.000000e+00	4.000000e+00	7.062367e+00	8.625355e-01	8.625355e-01
4.000000e+00	8.000000e+00	1.008988e+01	8.650997e-01	8.650997e-01
8.000000e+00	1.200000e+01	8.479223e+00	8.021919e-01	8.021919e-01
1.200000e+01	1.600000e+01	9.204598e+00	8.374716e-01	8.374716e-01
1.600000e+01	2.000000e+01	8.460202e+00	8.761500e-01	8.761500e-01
2.000000e+01	2.400000e+01	8.739517e+00	8.559633e-01	8.559633e-01
2.400000e+01	2.800000e+01	9.120192e+00	8.283840e-01	8.283840e-01
2.800000e+01	3.200000e+01	6.637162e+00	7.567645e-01	7.567645e-01
3.200000e+01	3.600000e+01	7.403715e+00	7.856420e-01	7.856420e-01
3.600000e+01	4.000000e+01	7.435112e+00	8.224400e-01	8.224400e-01
4.000000e+01	4.400000e+01	7.666475e+00	7.957222e-01	7.957222e-01
4.400000e+01	4.800000e+01	7.851432e+00	7.895879e-01	7.895879e-01
4.800000e+01	5.200000e+01	8.559815e+00	7.880751e-01	7.880751e-01
5.200000e+01	5.600000e+01	6.675475e+00	8.038645e-01	8.038645e-01
5.600000e+01	6.000000e+01	6.683590e+00	7.434322e-01	7.434322e-01
6.000000e+01	6.400000e+01	7.198563e+00	7.504111e-01	7.504111e-01
6.400000e+01	6.800000e+01	6.547235e+00	7.597942e-01	7.597942e-01
6.800000e+01	7.200000e+01	7.302858e+00	7.262587e-01	7.262587e-01
7.200000e+01	7.600000e+01	6.572505e+00	7.436685e-01	7.436685e-01
7.600000e+01	8.000000e+01	6.121410e+00	7.261048e-01	7.261048e-01
8.000000e+01	8.400000e+01	5.847400e+00	7.523917e-01	7.523917e-01
8.400000e+01	8.800000e+01	6.246545e+00	7.431345e-01	7.431345e-01
8.800000e+01	9.200000e+01	6.956053e+00	7.144059e-01	7.144059e-01
9.200000e+01	9.600000e+01	5.514470e+00	6.983012e-01	6.983012e-01
9.600000e+01	1.000000e+02	7.458823e+00	7.770752e-01	7.770752e-01
1.000000e+02	1.040000e+02	6.710165e+00	7.557817e-01	7.557817e-01
1.040000e+02	1.080000e+02	7.691103e+00	7.623933e-01	7.623933e-01
1.080000e+02	1.120000e+02	7.330393e+00	7.301574e-01	7.301574e-01
1.120000e+02	1.160000e+02	6.379903e+00	7.637263e-01	7.637263e-01
1.160000e+02	1.200000e+02	6.377635e+00	7.494362e-01	7.494362e-01
1.200000e+02	1.240000e+02	6.804855e+00	7.234938e-01	7.234938e-01
1.240000e+02	1.280000e+02	6.658775e+00	7.443451e-01	7.443451e-01
1.280000e+02	1.320000e+02	6.522373e+00	7.357314e-01	7.357314e-01
1.320000e+02	1.360000e+02	6.815265e+00	7.774574e-01	7.774574e-01
1.360000e+02	1.400000e+02	5.796435e+00	7.282491e-01	7.282491e-01
1.400000e+02	1.440000e+02	7.502743e+00	7.852363e-01	7.852363e-01
1.440000e+02	1.480000e+02	6.538220e+00	7.235839e-01	7.235839e-01
1.480000e+02	1.520000e+02	6.282715e+00	7.441739e-01	7.441739e-01
1.520000e+02	1.560000e+02	7.503480e+00	7.695472e-01	7.695472e-01
1.560000e+02	1.600000e+02	6.875402e+00	7.704290e-01	7.704290e-01
1.600000e+02	1.640000e+02	6.428015e+00	7.085764e-01	7.085764e-01
1.640000e+02	1.680000e+02	6.342765e+00	7.750846e-01	7.750846e-01
1.680000e+02	1.720000e+02	7.714923e+00	7.486074e-01	7.486074e-01
1.720000e+02	1.760000e+02	6.965155e+00	7.725319e-01	7.725319e-01
1.760000e+02	1.800000e+02	8.034173e+00	7.955827e-01	7.955827e-01
1.800000e+02	1.840000e+02	5.934297e+00	7.325539e-01	7.325539e-01
1.840000e+02	1.880000e+02	7.234282e+00	7.873201e-01	7.873201e-01
1.880000e+02	1.920000e+02	7.556815e+00	7.827101e-01	7.827101e-01
1.920000e+02	1.960000e+02	7.123163e+00	7.821437e-01	7.821437e-01
1.960000e+02	2.000000e+02	5.815733e+00	8.000684e-01	8.000684e-01
2.000000e+02	2.040000e+02	7.621937e+00	8.028418e-01	8.028418e-01
2.040000e+02	2.080000e+02	7.144275e+00	8.001992e-01	8.001992e-01
2.080000e+02	2.120000e+02	6.419560e+00	7.584563e-01	7.584563e-01
2.120000e+02	2.160000e+02	6.152980e+00	7.363844e-01	7.363844e-01
2.160000e+02	2.200000e+02	5.077870e+00	7.192454e-01	7.192454e-01
2.200000e+02	2.240000e+02	6.289310e+00	7.370628e-01	7.370628e-01
2.240000e+02	2.280000e+02	6.415298e+00	7.309934e-01	7.309934e-01
2.280000e+02	2.320000e+02	6.055813e+00	7.829152e-01	7.829152e-01
2.320000e+02	2.360000e+02	6.732583e+00	7.269754e-01	7.269754e-01
2.360000e+02	2.400000e+02	6.577662e+00	7.292435e-01	7.292435e-01
2.400000e+02	2.440000e+02	6.552540e+00	7.575900e-01	7.575900e-01
2.440000e+02	2.480000e+02	6.402850e+00	7.362247e-01	7.362247e-01
2.480000e+02	2.520000e+02	8.191235e+00	7.841049e-01	7.841049e-01
2.520000e+02	2.560000e+02	5.132862e+00	7.266316e-01	7.266316e-01
2.560000e+02	2.600000e+02	5.993830e+00	7.527729e-01	7.527729e-01
2.600000e+02	2.640000e+02	7.197953e+00	7.204553e-01	7.204553e-01
2.640000e+02	2.680000e+02	7.782905e+00	7.520672e-01	7.520672e-01
2.680000e+02	2.720000e+02	6.405825e+00	7.335086e-01	7.335086e-01
2.720000e+02	2.760000e+02	5.279592e+00	7.194088e-01	7.194088e-01
2.760000e+02	2.800000e+02	6.927160e+00	7.223186e-01	7.223186e-01
2.800000e+02	2.840000e+02	7.261125e+00	7.439439e-01	7.439439e-01
2.840000e+02	2.880000e+02	7.399315e+00	7.396014e-01	7.396014e-01
2.880000e+02	2.920000e+02	6.851477e+00	7.500335e-01	7.500335e-01
2.920000e+02	2.960000e+02	7.884725e+00	8.023228e-01	8.023228e-01
2.960000e+02	3.000000e+02	7.652423e+00	7.620999e-01	7.620999e-01
3.000000e+02	3.040000e+02	7.263380e+00	7.444299e-01	7.444299e-01
3.040000e+02	3.080000e+02	6.838687e+00	7.638664e-01	7.638664e-01
3.080000e+02	3.120000e+02	7.169657e+00	7.828322e-01	7.828322e-01
3.120000e+02	3.160000e+02	6.922067e+00	7.744845e-01	7.744845e-01
3.160000e+02	3.200000e+02	6.957628e+00	7.189679e-01	7.189679e-01
3.200000e+02	3.240000e+02	6.437095e+00	7.524325e-01	7.524325e-01
3.240000e+02	3.280000e+02	7.276060e+00	7.812946e-01	7.812946e-01
3.280000e+02	3.320000e+02	7.979435e+00	8.258113e-01	8.258113e-01
3.320000e+02	3.360000e+02	8.310540e+00	8.066404e-01	8.066404e-01
3.360000e+02	3.400000e+02	8.527498e+00	8.301559e-01	8.301559e-01
3.400000e+02	3.440000e+02	9.476093e+00	8.481686e-01	8.481686e-01
3.440000e+02	3.480000e+02	9.912228e+00	8.407504e-01	8.407504e-01
3.480000e+02	3.520000e+02	8.864435e+00	8.017715e-01	8.017715e-01
3.520000e+02	3.560000e+02	8.478300e+00	8.713431e-01	8.713431e-01
3.560000e+02	3.600000e+02	7.481710e+00	8.023286e-01	8.023286e-01
# END HISTO1D


# BEGIN HISTO1D //eos/home-y/yilinz/genVal_eos/genValidation/MGv356wellnu012j_5f_NLO_FXFX_newtest.yoda/MC_WPOL:ENERGY=13600/phistar_ptw20_wminus
ErrorBars=1
LineColor=blue
LineStyle=solid
Path=//eos/home-y/yilinz/genVal_eos/genValidation/MGv356wellnu012j_5f_NLO_FXFX_newtest.yoda/MC_WPOL:ENERGY=13600/phistar_ptw20_wminus
ScaledBy=1.00429623479435656e-06
Title=W+012j@NLO(v356)
# xlow	 xhigh	 val	 errminus	 errplus
0.000000e+00	4.000000e+00	8.907420e+00	8.396592e-01	8.396592e-01
4.000000e+00	8.000000e+00	8.730158e+00	8.558749e-01	8.558749e-01
8.000000e+00	1.200000e+01	8.109740e+00	8.443241e-01	8.443241e-01
1.200000e+01	1.600000e+01	8.818790e+00	8.349682e-01	8.349682e-01
1.600000e+01	2.000000e+01	7.445008e+00	8.001375e-01	8.001375e-01
2.000000e+01	2.400000e+01	9.749415e+00	8.361437e-01	8.361437e-01
2.400000e+01	2.800000e+01	8.065425e+00	7.927401e-01	7.927401e-01
2.800000e+01	3.200000e+01	6.868905e+00	7.964472e-01	7.964472e-01
3.200000e+01	3.600000e+01	7.445008e+00	8.050314e-01	8.050314e-01
3.600000e+01	4.000000e+01	7.622270e+00	8.219303e-01	8.219303e-01
4.000000e+01	4.400000e+01	8.154055e+00	7.976794e-01	7.976794e-01
4.400000e+01	4.800000e+01	6.248488e+00	7.533638e-01	7.533638e-01
4.800000e+01	5.200000e+01	8.818790e+00	8.038108e-01	8.038108e-01
5.200000e+01	5.600000e+01	7.356377e+00	8.025880e-01	8.025880e-01
5.600000e+01	6.000000e+01	7.090483e+00	7.927401e-01	7.927401e-01
6.000000e+01	6.400000e+01	8.065425e+00	7.572639e-01	7.572639e-01
6.400000e+01	6.800000e+01	6.957537e+00	7.348897e-01	7.348897e-01
6.800000e+01	7.200000e+01	7.267745e+00	7.827681e-01	7.827681e-01
7.200000e+01	7.600000e+01	6.159858e+00	7.322125e-01	7.322125e-01
7.600000e+01	8.000000e+01	6.913222e+00	7.468184e-01	7.468184e-01
8.000000e+01	8.400000e+01	6.470067e+00	7.494434e-01	7.494434e-01
8.400000e+01	8.800000e+01	6.647328e+00	7.090483e-01	7.090483e-01
8.800000e+01	9.200000e+01	6.868905e+00	7.322125e-01	7.322125e-01
9.200000e+01	9.600000e+01	7.090483e+00	7.650045e-01	7.650045e-01
9.600000e+01	1.000000e+02	6.558698e+00	7.335523e-01	7.335523e-01
1.000000e+02	1.040000e+02	6.514382e+00	7.428634e-01	7.428634e-01
1.040000e+02	1.080000e+02	7.134800e+00	7.585594e-01	7.585594e-01
1.080000e+02	1.120000e+02	7.843847e+00	7.840215e-01	7.840215e-01
1.120000e+02	1.160000e+02	5.539440e+00	7.348897e-01	7.348897e-01
1.160000e+02	1.200000e+02	6.824590e+00	7.675673e-01	7.675673e-01
1.200000e+02	1.240000e+02	7.577955e+00	7.585594e-01	7.585594e-01
1.240000e+02	1.280000e+02	7.090483e+00	7.701216e-01	7.701216e-01
1.280000e+02	1.320000e+02	8.198372e+00	7.481320e-01	7.481320e-01
1.320000e+02	1.360000e+02	6.248490e+00	7.637198e-01	7.637198e-01
1.360000e+02	1.400000e+02	7.001853e+00	7.877699e-01	7.877699e-01
1.400000e+02	1.440000e+02	7.046168e+00	7.739373e-01	7.739373e-01
1.440000e+02	1.480000e+02	7.090483e+00	7.726675e-01	7.726675e-01
1.480000e+02	1.520000e+02	5.672388e+00	7.335523e-01	7.335523e-01
1.520000e+02	1.560000e+02	8.730158e+00	7.989094e-01	7.989094e-01
1.560000e+02	1.600000e+02	8.685842e+00	7.976794e-01	7.976794e-01
1.600000e+02	1.640000e+02	6.470065e+00	7.877699e-01	7.877699e-01
1.640000e+02	1.680000e+02	6.957537e+00	8.038108e-01	8.038108e-01
1.680000e+02	1.720000e+02	8.154058e+00	7.752049e-01	7.752049e-01
1.720000e+02	1.760000e+02	7.267745e+00	8.147308e-01	8.147308e-01
1.760000e+02	1.800000e+02	6.558698e+00	8.123169e-01	8.123169e-01
1.800000e+02	1.840000e+02	6.337120e+00	7.890154e-01	7.890154e-01
1.840000e+02	1.880000e+02	7.666585e+00	8.207348e-01	8.207348e-01
1.880000e+02	1.920000e+02	7.400692e+00	8.062502e-01	8.062502e-01
1.920000e+02	1.960000e+02	7.134800e+00	7.964472e-01	7.964472e-01
1.960000e+02	2.000000e+02	6.603013e+00	7.840215e-01	7.840215e-01
2.000000e+02	2.040000e+02	6.603013e+00	7.662869e-01	7.662869e-01
2.040000e+02	2.080000e+02	5.628073e+00	7.815127e-01	7.815127e-01
2.080000e+02	2.120000e+02	7.976795e+00	8.171379e-01	8.171379e-01
2.120000e+02	2.160000e+02	6.425750e+00	7.637198e-01	7.637198e-01
2.160000e+02	2.200000e+02	6.868905e+00	7.455024e-01	7.455024e-01
2.200000e+02	2.240000e+02	6.071227e+00	7.662869e-01	7.662869e-01
2.240000e+02	2.280000e+02	7.179115e+00	7.415405e-01	7.415405e-01
2.280000e+02	2.320000e+02	5.628070e+00	7.402151e-01	7.402151e-01
2.320000e+02	2.360000e+02	7.001853e+00	7.877699e-01	7.877699e-01
2.360000e+02	2.400000e+02	6.204173e+00	7.572639e-01	7.572639e-01
2.400000e+02	2.440000e+02	5.982595e+00	6.964730e-01	6.964730e-01
2.440000e+02	2.480000e+02	6.115543e+00	7.520593e-01	7.520593e-01
2.480000e+02	2.520000e+02	5.096285e+00	7.268285e-01	7.268285e-01
2.520000e+02	2.560000e+02	6.337120e+00	7.611440e-01	7.611440e-01
2.560000e+02	2.600000e+02	7.666585e+00	7.865224e-01	7.865224e-01
2.600000e+02	2.640000e+02	7.090483e+00	7.441841e-01	7.441841e-01
2.640000e+02	2.680000e+02	6.337120e+00	7.402151e-01	7.402151e-01
2.680000e+02	2.720000e+02	7.312060e+00	7.533638e-01	7.533638e-01
2.720000e+02	2.760000e+02	7.400692e+00	7.507525e-01	7.507525e-01
2.760000e+02	2.800000e+02	7.134800e+00	7.637198e-01	7.637198e-01
2.800000e+02	2.840000e+02	7.090485e+00	7.388873e-01	7.388873e-01
2.840000e+02	2.880000e+02	7.976795e+00	7.254763e-01	7.254763e-01
2.880000e+02	2.920000e+02	6.780275e+00	7.890154e-01	7.890154e-01
2.920000e+02	2.960000e+02	5.583755e+00	7.415405e-01	7.415405e-01
2.960000e+02	3.000000e+02	7.533640e+00	7.598528e-01	7.598528e-01
3.000000e+02	3.040000e+02	8.863105e+00	8.050314e-01	8.050314e-01
3.040000e+02	3.080000e+02	7.356377e+00	8.074671e-01	8.074671e-01
3.080000e+02	3.120000e+02	7.622270e+00	8.171379e-01	8.171379e-01
3.120000e+02	3.160000e+02	7.888162e+00	7.802552e-01	7.802552e-01
3.160000e+02	3.200000e+02	8.154055e+00	8.219303e-01	8.219303e-01
3.200000e+02	3.240000e+02	7.312060e+00	7.637198e-01	7.637198e-01
3.240000e+02	3.280000e+02	7.445008e+00	7.650045e-01	7.650045e-01
3.280000e+02	3.320000e+02	7.090483e+00	7.752049e-01	7.752049e-01
3.320000e+02	3.360000e+02	8.685842e+00	8.219303e-01	8.219303e-01
3.360000e+02	3.400000e+02	7.312060e+00	7.865224e-01	7.865224e-01
3.400000e+02	3.440000e+02	7.489323e+00	8.326130e-01	8.326130e-01
3.440000e+02	3.480000e+02	8.287002e+00	8.466467e-01	8.466467e-01
3.480000e+02	3.520000e+02	7.666585e+00	8.255067e-01	8.255067e-01
3.520000e+02	3.560000e+02	8.508580e+00	8.243164e-01	8.243164e-01
3.560000e+02	3.600000e+02	8.508580e+00	8.123169e-01	8.123169e-01
# END HISTO1D

