# BEGIN PLOT
Legend=1
LogY=0
Title=Ratio of electron multiplicity
XLabel=$N_{\mathrm{electron}}$
YLabel=$\sigma(\geq N_{\mathrm{electron}})/\sigma(\geq N_{\mathrm{electron}}-1)$
XMajorTickMarks=10
XMinorTickMarks=0
ErrorBands=1
RemoveOptions=1
DrawOnly=//afs/cern.ch/user/y/yilinz/work/genVal_eos/genValidation/MGv2918wellnu012j_5f_NLO_FXFX_newtest.yoda/MC_ELECTRONS:ENERGY=13600/electron_multi_ratio //afs/cern.ch/user/y/yilinz/work/genVal_eos/genValidation/MGv356wellnu012j_5f_NLO_FXFX_newtest.yoda/MC_ELECTRONS:ENERGY=13600/electron_multi_ratio //afs/cern.ch/user/y/yilinz/work/genVal_eos/genValidation/MGv3_W012j_NLO_Jun26.yoda/MC_ELECTRONS:ENERGY=13600/electron_multi_ratio
LegendOnly=//afs/cern.ch/user/y/yilinz/work/genVal_eos/genValidation/MGv2918wellnu012j_5f_NLO_FXFX_newtest.yoda/MC_ELECTRONS:ENERGY=13600/electron_multi_ratio //afs/cern.ch/user/y/yilinz/work/genVal_eos/genValidation/MGv356wellnu012j_5f_NLO_FXFX_newtest.yoda/MC_ELECTRONS:ENERGY=13600/electron_multi_ratio //afs/cern.ch/user/y/yilinz/work/genVal_eos/genValidation/MGv3_W012j_NLO_Jun26.yoda/MC_ELECTRONS:ENERGY=13600/electron_multi_ratio
RatioPlot=1
RatioPlotReference=//afs/cern.ch/user/y/yilinz/work/genVal_eos/genValidation/MGv2918wellnu012j_5f_NLO_FXFX_newtest.yoda/MC_ELECTRONS:ENERGY=13600/electron_multi_ratio
RatioPlotYLabel=Ratio
# END PLOT

# BEGIN HISTO1D //afs/cern.ch/user/y/yilinz/work/genVal_eos/genValidation/MGv2918wellnu012j_5f_NLO_FXFX_newtest.yoda/MC_ELECTRONS:ENERGY=13600/electron_multi_ratio
ErrorBars=1
ErrorBreakdown={0: {"": {up: 0.003602713904658616, dn: 0.003602713904658616}}, 1: {"": {up: 0.001827475533950759, dn: 0.001827475533950759}}, 2: {"": {up: 0.004931950346532404, dn: 0.004931950346532404}}, 3: {"": {up: 0, dn: 0}}}
LineColor=red
LineStyle=solid
Path=//afs/cern.ch/user/y/yilinz/work/genVal_eos/genValidation/MGv2918wellnu012j_5f_NLO_FXFX_newtest.yoda/MC_ELECTRONS:ENERGY=13600/electron_multi_ratio
Title=W+012j@NLO(v2918)
# xlow	 xhigh	 val	 errminus	 errplus
5.000000e-01	1.500000e+00	6.587457e-01	3.602714e-03	3.602714e-03
1.500000e+00	2.500000e+00	1.741568e-01	1.827476e-03	1.827476e-03
2.500000e+00	3.500000e+00	2.013836e-01	4.931950e-03	4.931950e-03
3.500000e+00	4.500000e+00	0.000000e+00	0.000000e+00	0.000000e+00
# END HISTO1D


# BEGIN HISTO1D //afs/cern.ch/user/y/yilinz/work/genVal_eos/genValidation/MGv356wellnu012j_5f_NLO_FXFX_newtest.yoda/MC_ELECTRONS:ENERGY=13600/electron_multi_ratio
ErrorBars=1
ErrorBreakdown={0: {"": {up: 0.003604227658975456, dn: 0.003604227658975456}}, 1: {"": {up: 0.001846083509177506, dn: 0.001846083509177506}}, 2: {"": {up: 0.004872768548831847, dn: 0.004872768548831847}}, 3: {"": {up: 0, dn: 0}}}
LineColor=blue
LineStyle=solid
Path=//afs/cern.ch/user/y/yilinz/work/genVal_eos/genValidation/MGv356wellnu012j_5f_NLO_FXFX_newtest.yoda/MC_ELECTRONS:ENERGY=13600/electron_multi_ratio
Title=W+012j@NLO(v356)
# xlow	 xhigh	 val	 errminus	 errplus
5.000000e-01	1.500000e+00	6.576372e-01	3.604228e-03	3.604228e-03
1.500000e+00	2.500000e+00	1.769532e-01	1.846084e-03	1.846084e-03
2.500000e+00	3.500000e+00	1.988804e-01	4.872769e-03	4.872769e-03
3.500000e+00	4.500000e+00	0.000000e+00	0.000000e+00	0.000000e+00
# END HISTO1D


# BEGIN HISTO1D //afs/cern.ch/user/y/yilinz/work/genVal_eos/genValidation/MGv3_W012j_NLO_Jun26.yoda/MC_ELECTRONS:ENERGY=13600/electron_multi_ratio
ErrorBars=1
ErrorBreakdown={0: {"": {up: 0.003556741053460568, dn: 0.003556741053460568}}, 1: {"": {up: 0.001780842430686975, dn: 0.001780842430686975}}, 2: {"": {up: 0.004904057665128925, dn: 0.004904057665128925}}, 3: {"": {up: 0, dn: 0}}}
LineColor=green
LineStyle=solid
Path=//afs/cern.ch/user/y/yilinz/work/genVal_eos/genValidation/MGv3_W012j_NLO_Jun26.yoda/MC_ELECTRONS:ENERGY=13600/electron_multi_ratio
Title=W+012j@NLO(v352)
# xlow	 xhigh	 val	 errminus	 errplus
5.000000e-01	1.500000e+00	6.555688e-01	3.556741e-03	3.556741e-03
1.500000e+00	2.500000e+00	1.701629e-01	1.780842e-03	1.780842e-03
2.500000e+00	3.500000e+00	2.002401e-01	4.904058e-03	4.904058e-03
3.500000e+00	4.500000e+00	0.000000e+00	0.000000e+00	0.000000e+00
# END HISTO1D

