# BEGIN PLOT
Legend=1
LogY=1
Title=Transverse momentum of second muon
XLabel=$p_\perp(\mu\mathrm{2})$ [GeV]
YLabel=$\mathrm{d}\sigma/\mathrm{d}p_\perp(\mu\mathrm{2})$ [pb/GeV]
LogX=1
LegendXPos=0.05
LegendYPos=0.5
XMin=20.0
RemoveOptions=1
DrawOnly=//afs/cern.ch/user/y/yilinz/work/genVal_eos/genValidation/MGv2_LO_May26.yoda/MC_MUONS:ENERGY=13600/muon_pt_2 //afs/cern.ch/user/y/yilinz/work/genVal_eos/genValidation/MGv356_wellnu01j_5f_LO_MLM.yoda/MC_MUONS:ENERGY=13600/muon_pt_2 //afs/cern.ch/user/y/yilinz/work/genVal_eos/genValidation/MGv3_LO_May26.yoda/MC_MUONS:ENERGY=13600/muon_pt_2
LegendOnly=//afs/cern.ch/user/y/yilinz/work/genVal_eos/genValidation/MGv2_LO_May26.yoda/MC_MUONS:ENERGY=13600/muon_pt_2 //afs/cern.ch/user/y/yilinz/work/genVal_eos/genValidation/MGv356_wellnu01j_5f_LO_MLM.yoda/MC_MUONS:ENERGY=13600/muon_pt_2 //afs/cern.ch/user/y/yilinz/work/genVal_eos/genValidation/MGv3_LO_May26.yoda/MC_MUONS:ENERGY=13600/muon_pt_2
RatioPlot=1
RatioPlotReference=//afs/cern.ch/user/y/yilinz/work/genVal_eos/genValidation/MGv2_LO_May26.yoda/MC_MUONS:ENERGY=13600/muon_pt_2
RatioPlotYLabel=Ratio
# END PLOT

# BEGIN HISTO1D //afs/cern.ch/user/y/yilinz/work/genVal_eos/genValidation/MGv2_LO_May26.yoda/MC_MUONS:ENERGY=13600/muon_pt_2
ErrorBars=1
LineColor=red
LineStyle=solid
Path=//afs/cern.ch/user/y/yilinz/work/genVal_eos/genValidation/MGv2_LO_May26.yoda/MC_MUONS:ENERGY=13600/muon_pt_2
ScaledBy=9.16691122462594127e-02
Title=W+01j@LO(v2918)
# xlow	 xhigh	 val	 errminus	 errplus
1.000000e+00	1.167099e+00	8.889868e+02	2.272264e+01	2.272264e+01
1.167099e+00	1.362120e+00	6.862717e+02	1.862058e+01	1.862058e+01
1.362120e+00	1.589730e+00	5.162669e+02	1.501754e+01	1.501754e+01
1.589730e+00	1.855372e+00	3.550275e+02	1.141075e+01	1.141075e+01
1.855372e+00	2.165403e+00	2.384567e+02	8.682018e+00	8.682018e+00
2.165403e+00	2.527240e+00	1.482351e+02	6.363003e+00	6.363003e+00
2.527240e+00	2.949540e+00	1.111281e+02	5.083838e+00	5.083838e+00
2.949540e+00	3.442405e+00	6.897353e+01	3.733310e+00	3.733310e+00
3.442405e+00	4.017629e+00	4.726837e+01	2.828399e+00	2.828399e+00
4.017629e+00	4.688971e+00	2.948567e+01	2.120335e+00	2.120335e+00
4.688971e+00	5.472494e+00	1.966889e+01	1.569372e+00	1.569372e+00
5.472494e+00	6.386943e+00	1.257803e+01	1.180455e+00	1.180455e+00
6.386943e+00	7.454196e+00	6.821529e+00	7.780147e-01	7.780147e-01
7.454196e+00	8.699785e+00	5.524462e+00	6.545477e-01	6.545477e-01
8.699785e+00	1.015351e+01	3.824695e+00	4.945297e-01	4.945297e-01
1.015351e+01	1.185016e+01	2.650702e+00	3.951163e-01	3.951163e-01
1.185016e+01	1.383031e+01	9.936030e-01	2.151129e-01	2.151129e-01
1.383031e+01	1.614134e+01	1.266108e+00	2.273588e-01	2.273588e-01
1.614134e+01	1.883854e+01	4.582463e-01	1.246999e-01	1.246999e-01
1.883854e+01	2.198645e+01	2.633845e-01	8.876800e-02	8.876800e-02
2.198645e+01	2.566036e+01	2.040815e-01	8.198234e-02	8.198234e-02
2.566036e+01	2.994819e+01	9.933092e-02	4.487428e-02	4.487428e-02
2.994819e+01	3.495251e+01	1.472545e-02	1.472545e-02	1.472545e-02
3.495251e+01	4.079304e+01	0.000000e+00	0.000000e+00	0.000000e+00
4.079304e+01	4.760952e+01	2.597729e-02	1.836895e-02	1.836895e-02
4.760952e+01	5.556503e+01	2.242534e-02	1.614107e-02	1.614107e-02
5.556503e+01	6.484990e+01	0.000000e+00	0.000000e+00	0.000000e+00
6.484990e+01	7.568627e+01	0.000000e+00	0.000000e+00	0.000000e+00
7.568627e+01	8.833338e+01	0.000000e+00	0.000000e+00	0.000000e+00
8.833338e+01	1.030938e+02	0.000000e+00	0.000000e+00	0.000000e+00
1.030938e+02	1.203207e+02	0.000000e+00	0.000000e+00	0.000000e+00
1.203207e+02	1.404262e+02	0.000000e+00	0.000000e+00	0.000000e+00
1.404262e+02	1.638913e+02	0.000000e+00	0.000000e+00	0.000000e+00
1.638913e+02	1.912774e+02	0.000000e+00	0.000000e+00	0.000000e+00
1.912774e+02	2.232397e+02	0.000000e+00	0.000000e+00	0.000000e+00
2.232397e+02	2.605428e+02	0.000000e+00	0.000000e+00	0.000000e+00
2.605428e+02	3.040793e+02	0.000000e+00	0.000000e+00	0.000000e+00
3.040793e+02	3.548907e+02	0.000000e+00	0.000000e+00	0.000000e+00
3.548907e+02	4.141926e+02	0.000000e+00	0.000000e+00	0.000000e+00
4.141926e+02	4.834039e+02	0.000000e+00	0.000000e+00	0.000000e+00
4.834039e+02	5.641803e+02	0.000000e+00	0.000000e+00	0.000000e+00
5.641803e+02	6.584543e+02	0.000000e+00	0.000000e+00	0.000000e+00
6.584543e+02	7.684814e+02	0.000000e+00	0.000000e+00	0.000000e+00
7.684814e+02	8.968940e+02	0.000000e+00	0.000000e+00	0.000000e+00
8.968940e+02	1.046764e+03	0.000000e+00	0.000000e+00	0.000000e+00
1.046764e+03	1.221678e+03	0.000000e+00	0.000000e+00	0.000000e+00
1.221678e+03	1.425819e+03	0.000000e+00	0.000000e+00	0.000000e+00
1.425819e+03	1.664072e+03	0.000000e+00	0.000000e+00	0.000000e+00
1.664072e+03	1.942137e+03	0.000000e+00	0.000000e+00	0.000000e+00
1.942137e+03	2.266667e+03	0.000000e+00	0.000000e+00	0.000000e+00
# END HISTO1D


# BEGIN HISTO1D //afs/cern.ch/user/y/yilinz/work/genVal_eos/genValidation/MGv356_wellnu01j_5f_LO_MLM.yoda/MC_MUONS:ENERGY=13600/muon_pt_2
ErrorBars=1
LineColor=blue
LineStyle=solid
Path=//afs/cern.ch/user/y/yilinz/work/genVal_eos/genValidation/MGv356_wellnu01j_5f_LO_MLM.yoda/MC_MUONS:ENERGY=13600/muon_pt_2
ScaledBy=9.16697387419116716e-02
Title=W+01j@LO(v356)
# xlow	 xhigh	 val	 errminus	 errplus
1.000000e+00	1.167099e+00	8.486771e+02	2.157731e+01	2.157731e+01
1.167099e+00	1.362120e+00	6.576010e+02	1.758140e+01	1.758140e+01
1.362120e+00	1.589730e+00	4.744387e+02	1.382316e+01	1.382316e+01
1.589730e+00	1.855372e+00	3.481933e+02	1.096162e+01	1.096162e+01
1.855372e+00	2.165403e+00	2.326996e+02	8.294844e+00	8.294844e+00
2.165403e+00	2.527240e+00	1.606210e+02	6.379074e+00	6.379074e+00
2.527240e+00	2.949540e+00	1.104899e+02	4.897380e+00	4.897380e+00
2.949540e+00	3.442405e+00	6.900362e+01	3.582490e+00	3.582490e+00
3.442405e+00	4.017629e+00	4.637479e+01	2.718538e+00	2.718538e+00
4.017629e+00	4.688971e+00	2.922105e+01	1.997510e+00	1.997510e+00
4.688971e+00	5.472494e+00	2.012347e+01	1.534400e+00	1.534400e+00
5.472494e+00	6.386943e+00	1.172877e+01	1.084325e+00	1.084325e+00
6.386943e+00	7.454196e+00	7.558599e+00	8.057493e-01	8.057493e-01
7.454196e+00	8.699785e+00	5.519662e+00	6.373557e-01	6.373557e-01
8.699785e+00	1.015351e+01	3.089867e+00	4.414096e-01	4.414096e-01
1.015351e+01	1.185016e+01	1.999104e+00	3.286507e-01	3.286507e-01
1.185016e+01	1.383031e+01	1.111064e+00	2.267950e-01	2.267950e-01
1.383031e+01	1.614134e+01	7.933238e-01	1.773926e-01	1.773926e-01
1.614134e+01	1.883854e+01	4.758179e-01	1.271677e-01	1.271677e-01
1.883854e+01	2.198645e+01	2.038458e-01	7.704646e-02	7.704646e-02
2.198645e+01	2.566036e+01	1.247577e-01	5.579336e-02	5.579336e-02
2.566036e+01	2.994819e+01	8.551622e-02	4.275810e-02	4.275810e-02
2.994819e+01	3.495251e+01	3.663625e-02	2.590573e-02	2.590573e-02
3.495251e+01	4.079304e+01	7.847724e-02	3.509609e-02	3.509609e-02
4.079304e+01	4.760952e+01	4.034475e-02	2.329305e-02	2.329305e-02
4.760952e+01	5.556503e+01	3.456839e-02	1.995807e-02	1.995807e-02
5.556503e+01	6.484990e+01	1.974605e-02	1.396256e-02	1.396256e-02
6.484990e+01	7.568627e+01	0.000000e+00	0.000000e+00	0.000000e+00
7.568627e+01	8.833338e+01	0.000000e+00	0.000000e+00	0.000000e+00
8.833338e+01	1.030938e+02	6.210510e-03	6.210510e-03	6.210510e-03
1.030938e+02	1.203207e+02	0.000000e+00	0.000000e+00	0.000000e+00
1.203207e+02	1.404262e+02	0.000000e+00	0.000000e+00	0.000000e+00
1.404262e+02	1.638913e+02	0.000000e+00	0.000000e+00	0.000000e+00
1.638913e+02	1.912774e+02	0.000000e+00	0.000000e+00	0.000000e+00
1.912774e+02	2.232397e+02	0.000000e+00	0.000000e+00	0.000000e+00
2.232397e+02	2.605428e+02	0.000000e+00	0.000000e+00	0.000000e+00
2.605428e+02	3.040793e+02	0.000000e+00	0.000000e+00	0.000000e+00
3.040793e+02	3.548907e+02	0.000000e+00	0.000000e+00	0.000000e+00
3.548907e+02	4.141926e+02	0.000000e+00	0.000000e+00	0.000000e+00
4.141926e+02	4.834039e+02	0.000000e+00	0.000000e+00	0.000000e+00
4.834039e+02	5.641803e+02	0.000000e+00	0.000000e+00	0.000000e+00
5.641803e+02	6.584543e+02	0.000000e+00	0.000000e+00	0.000000e+00
6.584543e+02	7.684814e+02	0.000000e+00	0.000000e+00	0.000000e+00
7.684814e+02	8.968940e+02	0.000000e+00	0.000000e+00	0.000000e+00
8.968940e+02	1.046764e+03	0.000000e+00	0.000000e+00	0.000000e+00
1.046764e+03	1.221678e+03	0.000000e+00	0.000000e+00	0.000000e+00
1.221678e+03	1.425819e+03	0.000000e+00	0.000000e+00	0.000000e+00
1.425819e+03	1.664072e+03	0.000000e+00	0.000000e+00	0.000000e+00
1.664072e+03	1.942137e+03	0.000000e+00	0.000000e+00	0.000000e+00
1.942137e+03	2.266667e+03	0.000000e+00	0.000000e+00	0.000000e+00
# END HISTO1D


# BEGIN HISTO1D //afs/cern.ch/user/y/yilinz/work/genVal_eos/genValidation/MGv3_LO_May26.yoda/MC_MUONS:ENERGY=13600/muon_pt_2
ErrorBars=1
LineColor=green
LineStyle=solid
Path=//afs/cern.ch/user/y/yilinz/work/genVal_eos/genValidation/MGv3_LO_May26.yoda/MC_MUONS:ENERGY=13600/muon_pt_2
ScaledBy=9.17074108417636480e-02
Title=W+01j@LO(v352)
# xlow	 xhigh	 val	 errminus	 errplus
1.000000e+00	1.167099e+00	8.841501e+02	2.202817e+01	2.202817e+01
1.167099e+00	1.362120e+00	6.442342e+02	1.740537e+01	1.740537e+01
1.362120e+00	1.589730e+00	4.730218e+02	1.380534e+01	1.380534e+01
1.589730e+00	1.855372e+00	3.659431e+02	1.123985e+01	1.123985e+01
1.855372e+00	2.165403e+00	2.372322e+02	8.376961e+00	8.376961e+00
2.165403e+00	2.527240e+00	1.568853e+02	6.305750e+00	6.305750e+00
2.527240e+00	2.949540e+00	1.087980e+02	4.860738e+00	4.860738e+00
2.949540e+00	3.442405e+00	6.921806e+01	3.588789e+00	3.588789e+00
3.442405e+00	4.017629e+00	4.798814e+01	2.765990e+00	2.765990e+00
4.017629e+00	4.688971e+00	3.046249e+01	2.039920e+00	2.039920e+00
4.688971e+00	5.472494e+00	1.767379e+01	1.438273e+00	1.438273e+00
5.472494e+00	6.386943e+00	1.263617e+01	1.125719e+00	1.125719e+00
6.386943e+00	7.454196e+00	9.022489e+00	8.805048e-01	8.805048e-01
7.454196e+00	8.699785e+00	5.963685e+00	6.626317e-01	6.626317e-01
8.699785e+00	1.015351e+01	3.721981e+00	4.845607e-01	4.845607e-01
1.015351e+01	1.185016e+01	2.216134e+00	3.461020e-01	3.461020e-01
1.185016e+01	1.383031e+01	1.713594e+00	2.817132e-01	2.817132e-01
1.383031e+01	1.614134e+01	4.365075e-01	1.316119e-01	1.316119e-01
1.614134e+01	1.883854e+01	5.780165e-01	1.401896e-01	1.401896e-01
1.883854e+01	2.198645e+01	4.661248e-01	1.165312e-01	1.165312e-01
2.198645e+01	2.566036e+01	1.497708e-01	6.114368e-02	6.114368e-02
2.566036e+01	2.994819e+01	2.138784e-02	2.138784e-02	2.138784e-02
2.994819e+01	3.495251e+01	9.162825e-02	4.097740e-02	4.097740e-02
3.495251e+01	4.079304e+01	1.570190e-02	1.570190e-02	1.570190e-02
4.079304e+01	4.760952e+01	1.345378e-02	1.345378e-02	1.345378e-02
4.760952e+01	5.556503e+01	1.152753e-02	1.152753e-02	1.152753e-02
5.556503e+01	6.484990e+01	0.000000e+00	0.000000e+00	0.000000e+00
6.484990e+01	7.568627e+01	0.000000e+00	0.000000e+00	0.000000e+00
7.568627e+01	8.833338e+01	0.000000e+00	0.000000e+00	0.000000e+00
8.833338e+01	1.030938e+02	6.213062e-03	6.213062e-03	6.213062e-03
1.030938e+02	1.203207e+02	0.000000e+00	0.000000e+00	0.000000e+00
1.203207e+02	1.404262e+02	0.000000e+00	0.000000e+00	0.000000e+00
1.404262e+02	1.638913e+02	0.000000e+00	0.000000e+00	0.000000e+00
1.638913e+02	1.912774e+02	0.000000e+00	0.000000e+00	0.000000e+00
1.912774e+02	2.232397e+02	0.000000e+00	0.000000e+00	0.000000e+00
2.232397e+02	2.605428e+02	0.000000e+00	0.000000e+00	0.000000e+00
2.605428e+02	3.040793e+02	0.000000e+00	0.000000e+00	0.000000e+00
3.040793e+02	3.548907e+02	0.000000e+00	0.000000e+00	0.000000e+00
3.548907e+02	4.141926e+02	0.000000e+00	0.000000e+00	0.000000e+00
4.141926e+02	4.834039e+02	0.000000e+00	0.000000e+00	0.000000e+00
4.834039e+02	5.641803e+02	0.000000e+00	0.000000e+00	0.000000e+00
5.641803e+02	6.584543e+02	0.000000e+00	0.000000e+00	0.000000e+00
6.584543e+02	7.684814e+02	0.000000e+00	0.000000e+00	0.000000e+00
7.684814e+02	8.968940e+02	0.000000e+00	0.000000e+00	0.000000e+00
8.968940e+02	1.046764e+03	0.000000e+00	0.000000e+00	0.000000e+00
1.046764e+03	1.221678e+03	0.000000e+00	0.000000e+00	0.000000e+00
1.221678e+03	1.425819e+03	0.000000e+00	0.000000e+00	0.000000e+00
1.425819e+03	1.664072e+03	0.000000e+00	0.000000e+00	0.000000e+00
1.664072e+03	1.942137e+03	0.000000e+00	0.000000e+00	0.000000e+00
1.942137e+03	2.266667e+03	0.000000e+00	0.000000e+00	0.000000e+00
# END HISTO1D

