# BEGIN PLOT
Legend=1
LogY=1
Title=$\Delta R$ separation between jets
LegendXPos=0.10
LegendYPos=0.5
XLabel=$\Delta{R}(\mathrm{jet~2,~jet~3})$
YLabel=$\mathrm{d}\sigma/\mathrm{d}\Delta{R}(\mathrm{jet~2,~jet~3})$ [pb]
RemoveOptions=1
DrawOnly=//afs/cern.ch/user/y/yilinz/work/genVal_eos/genValidation/MGv2918wellnu012j_5f_NLO_FXFX_newtest.yoda/MC_JETS:ENERGY=13600/jets_dR_23 //afs/cern.ch/user/y/yilinz/work/genVal_eos/genValidation/MGv356wellnu012j_5f_NLO_FXFX_newtest.yoda/MC_JETS:ENERGY=13600/jets_dR_23 //afs/cern.ch/user/y/yilinz/work/genVal_eos/genValidation/MGv3_W012j_NLO_Jun26.yoda/MC_JETS:ENERGY=13600/jets_dR_23
LegendOnly=//afs/cern.ch/user/y/yilinz/work/genVal_eos/genValidation/MGv2918wellnu012j_5f_NLO_FXFX_newtest.yoda/MC_JETS:ENERGY=13600/jets_dR_23 //afs/cern.ch/user/y/yilinz/work/genVal_eos/genValidation/MGv356wellnu012j_5f_NLO_FXFX_newtest.yoda/MC_JETS:ENERGY=13600/jets_dR_23 //afs/cern.ch/user/y/yilinz/work/genVal_eos/genValidation/MGv3_W012j_NLO_Jun26.yoda/MC_JETS:ENERGY=13600/jets_dR_23
RatioPlot=1
RatioPlotReference=//afs/cern.ch/user/y/yilinz/work/genVal_eos/genValidation/MGv2918wellnu012j_5f_NLO_FXFX_newtest.yoda/MC_JETS:ENERGY=13600/jets_dR_23
RatioPlotYLabel=Ratio
# END PLOT

# BEGIN HISTO1D //afs/cern.ch/user/y/yilinz/work/genVal_eos/genValidation/MGv2918wellnu012j_5f_NLO_FXFX_newtest.yoda/MC_JETS:ENERGY=13600/jets_dR_23
ErrorBars=1
LineColor=red
LineStyle=solid
Path=//afs/cern.ch/user/y/yilinz/work/genVal_eos/genValidation/MGv2918wellnu012j_5f_NLO_FXFX_newtest.yoda/MC_JETS:ENERGY=13600/jets_dR_23
ScaledBy=9.95273825490549440e-07
Title=W+012j@NLO(v2918)
# xlow	 xhigh	 val	 errminus	 errplus
0.000000e+00	2.000000e-01	0.000000e+00	0.000000e+00	0.000000e+00
2.000000e-01	4.000000e-01	-7.563455e-01	2.985050e+00	2.985050e+00
4.000000e-01	6.000000e-01	3.405542e+02	2.776270e+01	2.776270e+01
6.000000e-01	8.000000e-01	4.792593e+02	3.380461e+01	3.380461e+01
8.000000e-01	1.000000e+00	5.135995e+02	3.400662e+01	3.400662e+01
1.000000e+00	1.200000e+00	5.110460e+02	3.512036e+01	3.512036e+01
1.200000e+00	1.400000e+00	5.415085e+02	3.678790e+01	3.678790e+01
1.400000e+00	1.600000e+00	6.309285e+02	4.000604e+01	4.000604e+01
1.600000e+00	1.800000e+00	6.724640e+02	4.026184e+01	4.026184e+01
1.800000e+00	2.000000e+00	7.247835e+02	4.175750e+01	4.175750e+01
2.000000e+00	2.200000e+00	7.814425e+02	4.453478e+01	4.453478e+01
2.200000e+00	2.400000e+00	8.921615e+02	4.504772e+01	4.504772e+01
2.400000e+00	2.600000e+00	9.192520e+02	4.588691e+01	4.588691e+01
2.600000e+00	2.800000e+00	9.668490e+02	4.664682e+01	4.664682e+01
2.800000e+00	3.000000e+00	1.013198e+03	4.805795e+01	4.805795e+01
3.000000e+00	3.200000e+00	1.047009e+03	4.771151e+01	4.771151e+01
3.200000e+00	3.400000e+00	9.010870e+02	4.377384e+01	4.377384e+01
3.400000e+00	3.600000e+00	6.708230e+02	3.857985e+01	3.857985e+01
3.600000e+00	3.800000e+00	5.903830e+02	3.603782e+01	3.603782e+01
3.800000e+00	4.000000e+00	4.855520e+02	3.317062e+01	3.317062e+01
4.000000e+00	4.200000e+00	4.158443e+02	3.095886e+01	3.095886e+01
4.200000e+00	4.400000e+00	4.304318e+02	2.865270e+01	2.865270e+01
4.400000e+00	4.600000e+00	3.186678e+02	2.700979e+01	2.700979e+01
4.600000e+00	4.800000e+00	2.911799e+02	2.549606e+01	2.549606e+01
4.800000e+00	5.000000e+00	2.081130e+02	2.337540e+01	2.337540e+01
# END HISTO1D


# BEGIN HISTO1D //afs/cern.ch/user/y/yilinz/work/genVal_eos/genValidation/MGv356wellnu012j_5f_NLO_FXFX_newtest.yoda/MC_JETS:ENERGY=13600/jets_dR_23
ErrorBars=1
LineColor=blue
LineStyle=solid
Path=//afs/cern.ch/user/y/yilinz/work/genVal_eos/genValidation/MGv356wellnu012j_5f_NLO_FXFX_newtest.yoda/MC_JETS:ENERGY=13600/jets_dR_23
ScaledBy=1.00429623479435656e-06
Title=W+012j@NLO(v356)
# xlow	 xhigh	 val	 errminus	 errplus
0.000000e+00	2.000000e-01	0.000000e+00	0.000000e+00	0.000000e+00
2.000000e-01	4.000000e-01	8.863105e-01	1.981850e+00	1.981850e+00
4.000000e-01	6.000000e-01	3.394569e+02	2.801358e+01	2.801358e+01
6.000000e-01	8.000000e-01	5.131735e+02	3.341049e+01	3.341049e+01
8.000000e-01	1.000000e+00	5.681250e+02	3.519668e+01	3.519668e+01
1.000000e+00	1.200000e+00	5.246955e+02	3.595843e+01	3.595843e+01
1.200000e+00	1.400000e+00	5.964870e+02	3.833740e+01	3.833740e+01
1.400000e+00	1.600000e+00	5.920555e+02	3.945823e+01	3.945823e+01
1.600000e+00	1.800000e+00	7.728625e+02	4.196658e+01	4.196658e+01
1.800000e+00	2.000000e+00	7.808395e+02	4.304768e+01	4.304768e+01
2.000000e+00	2.200000e+00	8.818790e+02	4.558255e+01	4.558255e+01
2.200000e+00	2.400000e+00	8.526305e+02	4.605404e+01	4.605404e+01
2.400000e+00	2.600000e+00	9.589880e+02	4.810632e+01	4.810632e+01
2.600000e+00	2.800000e+00	1.070663e+03	4.917226e+01	4.917226e+01
2.800000e+00	3.000000e+00	1.133591e+03	4.959379e+01	4.959379e+01
3.000000e+00	3.200000e+00	1.081298e+03	4.971245e+01	4.971245e+01
3.200000e+00	3.400000e+00	8.419950e+02	4.420903e+01	4.420903e+01
3.400000e+00	3.600000e+00	7.781805e+02	4.005103e+01	4.005103e+01
3.600000e+00	3.800000e+00	5.583755e+02	3.656500e+01	3.656500e+01
3.800000e+00	4.000000e+00	5.069695e+02	3.484902e+01	3.484902e+01
4.000000e+00	4.200000e+00	4.112480e+02	3.141092e+01	3.141092e+01
4.200000e+00	4.400000e+00	3.678188e+02	3.040703e+01	3.040703e+01
4.400000e+00	4.600000e+00	2.783015e+02	2.780247e+01	2.780247e+01
4.600000e+00	4.800000e+00	2.295544e+02	2.624736e+01	2.624736e+01
4.800000e+00	5.000000e+00	2.251228e+02	2.414281e+01	2.414281e+01
# END HISTO1D


# BEGIN HISTO1D //afs/cern.ch/user/y/yilinz/work/genVal_eos/genValidation/MGv3_W012j_NLO_Jun26.yoda/MC_JETS:ENERGY=13600/jets_dR_23
ErrorBars=1
LineColor=green
LineStyle=solid
Path=//afs/cern.ch/user/y/yilinz/work/genVal_eos/genValidation/MGv3_W012j_NLO_Jun26.yoda/MC_JETS:ENERGY=13600/jets_dR_23
ScaledBy=9.98919791765775578e-07
Title=W+012j@NLO(v352)
# xlow	 xhigh	 val	 errminus	 errplus
0.000000e+00	2.000000e-01	0.000000e+00	0.000000e+00	0.000000e+00
2.000000e-01	4.000000e-01	8.285950e-01	1.435169e+00	1.435169e+00
4.000000e-01	6.000000e-01	2.933226e+02	2.513253e+01	2.513253e+01
6.000000e-01	8.000000e-01	4.060115e+02	3.126780e+01	3.126780e+01
8.000000e-01	1.000000e+00	5.021285e+02	3.155196e+01	3.155196e+01
1.000000e+00	1.200000e+00	4.996428e+02	3.350435e+01	3.350435e+01
1.200000e+00	1.400000e+00	5.667590e+02	3.515431e+01	3.515431e+01
1.400000e+00	1.600000e+00	5.551585e+02	3.645818e+01	3.645818e+01
1.600000e+00	1.800000e+00	6.065315e+02	3.788048e+01	3.788048e+01
1.800000e+00	2.000000e+00	6.711620e+02	4.040622e+01	4.040622e+01
2.000000e+00	2.200000e+00	7.846795e+02	4.175166e+01	4.175166e+01
2.200000e+00	2.400000e+00	7.797080e+02	4.315859e+01	4.315859e+01
2.400000e+00	2.600000e+00	8.990255e+02	4.375892e+01	4.375892e+01
2.600000e+00	2.800000e+00	8.923970e+02	4.438208e+01	4.438208e+01
2.800000e+00	3.000000e+00	1.024972e+03	4.671836e+01	4.671836e+01
3.000000e+00	3.200000e+00	1.054801e+03	4.618628e+01	4.618628e+01
3.200000e+00	3.400000e+00	7.548500e+02	4.085402e+01	4.085402e+01
3.400000e+00	3.600000e+00	6.446470e+02	3.649583e+01	3.649583e+01
3.600000e+00	3.800000e+00	5.501870e+02	3.442411e+01	3.442411e+01
3.800000e+00	4.000000e+00	4.374981e+02	3.191974e+01	3.191974e+01
4.000000e+00	4.200000e+00	4.142975e+02	3.021817e+01	3.021817e+01
4.200000e+00	4.400000e+00	3.579530e+02	2.787825e+01	2.787825e+01
4.400000e+00	4.600000e+00	2.949798e+02	2.617626e+01	2.617626e+01
4.600000e+00	4.800000e+00	2.527214e+02	2.405781e+01	2.405781e+01
4.800000e+00	5.000000e+00	2.170919e+02	2.238741e+01	2.238741e+01
# END HISTO1D

