# BEGIN PLOT
Legend=1
LogY=0
Title=$\cos(\theta^*)$ for $p_\perp(W^+)>20$ GeV
XLabel=$\cos(\theta^*)$
YLabel=$\mathrm{d}\sigma/\mathrm{d}\cos(\theta^*)$ [pb]
LogX=0
RemoveOptions=1
DrawOnly=//afs/cern.ch/user/y/yilinz/work/genVal_eos/genValidation/MGv2_012j_LOmerged.yoda/MC_WPOL:ENERGY=13600/thetastar_ptw20_wplus //afs/cern.ch/user/y/yilinz/work/genVal_eos/genValidation/MGv356_wellnu012j_5f_LO_MLM.yoda/MC_WPOL:ENERGY=13600/thetastar_ptw20_wplus //afs/cern.ch/user/y/yilinz/work/genVal_eos/genValidation/MGv3_012j_LOmerged.yoda/MC_WPOL:ENERGY=13600/thetastar_ptw20_wplus
LegendOnly=//afs/cern.ch/user/y/yilinz/work/genVal_eos/genValidation/MGv2_012j_LOmerged.yoda/MC_WPOL:ENERGY=13600/thetastar_ptw20_wplus //afs/cern.ch/user/y/yilinz/work/genVal_eos/genValidation/MGv356_wellnu012j_5f_LO_MLM.yoda/MC_WPOL:ENERGY=13600/thetastar_ptw20_wplus //afs/cern.ch/user/y/yilinz/work/genVal_eos/genValidation/MGv3_012j_LOmerged.yoda/MC_WPOL:ENERGY=13600/thetastar_ptw20_wplus
RatioPlot=1
RatioPlotReference=//afs/cern.ch/user/y/yilinz/work/genVal_eos/genValidation/MGv2_012j_LOmerged.yoda/MC_WPOL:ENERGY=13600/thetastar_ptw20_wplus
RatioPlotYLabel=Ratio
# END PLOT

# BEGIN HISTO1D //afs/cern.ch/user/y/yilinz/work/genVal_eos/genValidation/MGv2_012j_LOmerged.yoda/MC_WPOL:ENERGY=13600/thetastar_ptw20_wplus
ErrorBars=1
LineColor=red
LineStyle=solid
Path=//afs/cern.ch/user/y/yilinz/work/genVal_eos/genValidation/MGv2_012j_LOmerged.yoda/MC_WPOL:ENERGY=13600/thetastar_ptw20_wplus
ScaledBy=1.17320367966859754e-01
Title=W+012j@LO(v2918)
# xlow	 xhigh	 val	 errminus	 errplus
-1.000000e+00	-9.800000e-01	2.460911e+03	1.234042e+02	1.234042e+02
-9.800000e-01	-9.600000e-01	2.550678e+03	1.253300e+02	1.253300e+02
-9.600000e-01	-9.400000e-01	2.809170e+03	1.309812e+02	1.309812e+02
-9.400000e-01	-9.200000e-01	2.538178e+03	1.242357e+02	1.242357e+02
-9.200000e-01	-9.000000e-01	2.498297e+03	1.249992e+02	1.249992e+02
-9.000000e-01	-8.800000e-01	2.414145e+03	1.204679e+02	1.204679e+02
-8.800000e-01	-8.600000e-01	2.566711e+03	1.261184e+02	1.261184e+02
-8.600000e-01	-8.400000e-01	2.323454e+03	1.189833e+02	1.189833e+02
-8.400000e-01	-8.200000e-01	2.150231e+03	1.156649e+02	1.156649e+02
-8.200000e-01	-8.000000e-01	2.408951e+03	1.205055e+02	1.205055e+02
-8.000000e-01	-7.800000e-01	2.266429e+03	1.190486e+02	1.190486e+02
-7.800000e-01	-7.600000e-01	2.105510e+03	1.141633e+02	1.141633e+02
-7.600000e-01	-7.400000e-01	2.103052e+03	1.129722e+02	1.129722e+02
-7.400000e-01	-7.200000e-01	2.341766e+03	1.205479e+02	1.205479e+02
-7.200000e-01	-7.000000e-01	2.099243e+03	1.151446e+02	1.151446e+02
-7.000000e-01	-6.800000e-01	1.981995e+03	1.119115e+02	1.119115e+02
-6.800000e-01	-6.600000e-01	1.902952e+03	1.072814e+02	1.072814e+02
-6.600000e-01	-6.400000e-01	2.034526e+03	1.120759e+02	1.120759e+02
-6.400000e-01	-6.200000e-01	1.968818e+03	1.098379e+02	1.098379e+02
-6.200000e-01	-6.000000e-01	1.877834e+03	1.073511e+02	1.073511e+02
-6.000000e-01	-5.800000e-01	1.976573e+03	1.096044e+02	1.096044e+02
-5.800000e-01	-5.600000e-01	1.815027e+03	1.059110e+02	1.059110e+02
-5.600000e-01	-5.400000e-01	1.880899e+03	1.068756e+02	1.068756e+02
-5.400000e-01	-5.200000e-01	1.982208e+03	1.115939e+02	1.115939e+02
-5.200000e-01	-5.000000e-01	1.611490e+03	9.861582e+01	9.861582e+01
-5.000000e-01	-4.800000e-01	1.970705e+03	1.118341e+02	1.118341e+02
-4.800000e-01	-4.600000e-01	1.815051e+03	1.060765e+02	1.060765e+02
-4.600000e-01	-4.400000e-01	1.561869e+03	9.712393e+01	9.712393e+01
-4.400000e-01	-4.200000e-01	1.552318e+03	9.718970e+01	9.718970e+01
-4.200000e-01	-4.000000e-01	1.502269e+03	9.510398e+01	9.510398e+01
-4.000000e-01	-3.800000e-01	1.737875e+03	1.046790e+02	1.046790e+02
-3.800000e-01	-3.600000e-01	1.556964e+03	9.825579e+01	9.825579e+01
-3.600000e-01	-3.400000e-01	1.547874e+03	9.681764e+01	9.681764e+01
-3.400000e-01	-3.200000e-01	1.452904e+03	9.519074e+01	9.519074e+01
-3.200000e-01	-3.000000e-01	1.557955e+03	9.776132e+01	9.776132e+01
-3.000000e-01	-2.800000e-01	1.359304e+03	8.995816e+01	8.995816e+01
-2.800000e-01	-2.600000e-01	1.413734e+03	9.301308e+01	9.301308e+01
-2.600000e-01	-2.400000e-01	1.538603e+03	9.646353e+01	9.646353e+01
-2.400000e-01	-2.200000e-01	1.339820e+03	9.056382e+01	9.056382e+01
-2.200000e-01	-2.000000e-01	1.298865e+03	8.853495e+01	8.853495e+01
-2.000000e-01	-1.800000e-01	1.061106e+03	7.953526e+01	7.953526e+01
-1.800000e-01	-1.600000e-01	1.287736e+03	8.837959e+01	8.837959e+01
-1.600000e-01	-1.400000e-01	1.070076e+03	8.075526e+01	8.075526e+01
-1.400000e-01	-1.200000e-01	1.193880e+03	8.543850e+01	8.543850e+01
-1.200000e-01	-1.000000e-01	1.236307e+03	8.697229e+01	8.697229e+01
-1.000000e-01	-8.000000e-02	1.281449e+03	8.816967e+01	8.816967e+01
-8.000000e-02	-6.000000e-02	1.175912e+03	8.432451e+01	8.432451e+01
-6.000000e-02	-4.000000e-02	1.166183e+03	8.558306e+01	8.558306e+01
-4.000000e-02	-2.000000e-02	1.210219e+03	8.591596e+01	8.591596e+01
-2.000000e-02	0.000000e+00	1.191180e+03	8.458748e+01	8.458748e+01
0.000000e+00	2.000000e-02	1.137929e+03	8.301030e+01	8.301030e+01
2.000000e-02	4.000000e-02	1.150274e+03	8.459032e+01	8.459032e+01
4.000000e-02	6.000000e-02	1.214595e+03	8.544658e+01	8.544658e+01
6.000000e-02	8.000000e-02	1.074350e+03	8.021451e+01	8.021451e+01
8.000000e-02	1.000000e-01	9.166395e+02	7.514923e+01	7.514923e+01
1.000000e-01	1.200000e-01	8.983430e+02	7.368546e+01	7.368546e+01
1.200000e-01	1.400000e-01	1.093497e+03	8.247697e+01	8.247697e+01
1.400000e-01	1.600000e-01	1.130480e+03	8.508901e+01	8.508901e+01
1.600000e-01	1.800000e-01	1.072058e+03	8.135900e+01	8.135900e+01
1.800000e-01	2.000000e-01	1.078733e+03	8.151037e+01	8.151037e+01
2.000000e-01	2.200000e-01	9.949860e+02	7.770172e+01	7.770172e+01
2.200000e-01	2.400000e-01	9.633595e+02	7.650026e+01	7.650026e+01
2.400000e-01	2.600000e-01	8.671135e+02	7.223834e+01	7.223834e+01
2.600000e-01	2.800000e-01	1.053264e+03	7.997933e+01	7.997933e+01
2.800000e-01	3.000000e-01	9.489485e+02	7.675611e+01	7.675611e+01
3.000000e-01	3.200000e-01	1.029054e+03	7.878882e+01	7.878882e+01
3.200000e-01	3.400000e-01	9.615270e+02	7.469555e+01	7.469555e+01
3.400000e-01	3.600000e-01	1.031295e+03	8.070742e+01	8.070742e+01
3.600000e-01	3.800000e-01	9.248465e+02	7.503441e+01	7.503441e+01
3.800000e-01	4.000000e-01	9.194310e+02	7.464859e+01	7.464859e+01
4.000000e-01	4.200000e-01	1.004519e+03	7.874213e+01	7.874213e+01
4.200000e-01	4.400000e-01	1.076646e+03	8.340613e+01	8.340613e+01
4.400000e-01	4.600000e-01	9.102245e+02	7.400579e+01	7.400579e+01
4.600000e-01	4.800000e-01	9.254610e+02	7.542693e+01	7.542693e+01
4.800000e-01	5.000000e-01	1.013162e+03	7.914300e+01	7.914300e+01
5.000000e-01	5.200000e-01	9.973670e+02	7.783651e+01	7.783651e+01
5.200000e-01	5.400000e-01	7.438060e+02	6.648628e+01	6.648628e+01
5.400000e-01	5.600000e-01	9.392805e+02	7.552041e+01	7.552041e+01
5.600000e-01	5.800000e-01	9.291830e+02	7.581379e+01	7.581379e+01
5.800000e-01	6.000000e-01	9.623795e+02	7.710908e+01	7.710908e+01
6.000000e-01	6.200000e-01	8.614965e+02	7.297666e+01	7.297666e+01
6.200000e-01	6.400000e-01	8.642920e+02	7.220656e+01	7.220656e+01
6.400000e-01	6.600000e-01	9.215135e+02	7.541651e+01	7.541651e+01
6.600000e-01	6.800000e-01	8.760380e+02	7.373522e+01	7.373522e+01
6.800000e-01	7.000000e-01	9.503895e+02	7.689295e+01	7.689295e+01
7.000000e-01	7.200000e-01	8.320335e+02	7.099623e+01	7.099623e+01
7.200000e-01	7.400000e-01	1.003087e+03	7.781864e+01	7.781864e+01
7.400000e-01	7.600000e-01	8.878815e+02	7.384726e+01	7.384726e+01
7.600000e-01	7.800000e-01	9.351515e+02	7.662493e+01	7.662493e+01
7.800000e-01	8.000000e-01	1.111993e+03	8.254506e+01	8.254506e+01
8.000000e-01	8.200000e-01	9.601320e+02	7.695672e+01	7.695672e+01
8.200000e-01	8.400000e-01	1.003657e+03	7.838595e+01	7.838595e+01
8.400000e-01	8.600000e-01	1.037758e+03	8.143193e+01	8.143193e+01
8.600000e-01	8.800000e-01	9.515490e+02	7.622244e+01	7.622244e+01
8.800000e-01	9.000000e-01	1.007547e+03	7.892243e+01	7.892243e+01
9.000000e-01	9.200000e-01	1.078900e+03	7.948025e+01	7.948025e+01
9.200000e-01	9.400000e-01	1.038495e+03	8.008524e+01	8.008524e+01
9.400000e-01	9.600000e-01	9.599035e+02	7.707487e+01	7.707487e+01
9.600000e-01	9.800000e-01	1.013723e+03	7.924825e+01	7.924825e+01
9.800000e-01	1.000000e+00	9.879635e+02	7.842410e+01	7.842410e+01
# END HISTO1D


# BEGIN HISTO1D //afs/cern.ch/user/y/yilinz/work/genVal_eos/genValidation/MGv356_wellnu012j_5f_LO_MLM.yoda/MC_WPOL:ENERGY=13600/thetastar_ptw20_wplus
ErrorBars=1
LineColor=blue
LineStyle=solid
Path=//afs/cern.ch/user/y/yilinz/work/genVal_eos/genValidation/MGv356_wellnu012j_5f_LO_MLM.yoda/MC_WPOL:ENERGY=13600/thetastar_ptw20_wplus
ScaledBy=1.16353693951584680e-01
Title=W+012j@LO(v356)
# xlow	 xhigh	 val	 errminus	 errplus
-1.000000e+00	-9.800000e-01	2.728494e+03	1.259901e+02	1.259901e+02
-9.800000e-01	-9.600000e-01	2.862301e+03	1.290425e+02	1.290425e+02
-9.600000e-01	-9.400000e-01	2.612140e+03	1.232745e+02	1.232745e+02
-9.400000e-01	-9.200000e-01	2.937931e+03	1.307362e+02	1.307362e+02
-9.200000e-01	-9.000000e-01	2.757582e+03	1.266600e+02	1.266600e+02
-9.000000e-01	-8.800000e-01	2.460880e+03	1.196521e+02	1.196521e+02
-8.800000e-01	-8.600000e-01	2.408521e+03	1.183724e+02	1.183724e+02
-8.600000e-01	-8.400000e-01	2.228173e+03	1.138543e+02	1.138543e+02
-8.400000e-01	-8.200000e-01	2.239808e+03	1.141512e+02	1.141512e+02
-8.200000e-01	-8.000000e-01	2.257262e+03	1.145951e+02	1.145951e+02
-8.000000e-01	-7.800000e-01	2.385250e+03	1.177991e+02	1.177991e+02
-7.800000e-01	-7.600000e-01	2.257261e+03	1.145951e+02	1.145951e+02
-7.600000e-01	-7.400000e-01	2.106002e+03	1.106890e+02	1.106890e+02
-7.400000e-01	-7.200000e-01	2.140908e+03	1.116025e+02	1.116025e+02
-7.200000e-01	-7.000000e-01	2.199085e+03	1.131087e+02	1.131087e+02
-7.000000e-01	-6.800000e-01	2.152544e+03	1.119054e+02	1.119054e+02
-6.800000e-01	-6.600000e-01	1.902383e+03	1.052020e+02	1.052020e+02
-6.600000e-01	-6.400000e-01	1.844206e+03	1.035809e+02	1.035809e+02
-6.400000e-01	-6.200000e-01	2.071096e+03	1.097679e+02	1.097679e+02
-6.200000e-01	-6.000000e-01	1.896565e+03	1.050410e+02	1.050410e+02
-6.000000e-01	-5.800000e-01	1.861659e+03	1.040699e+02	1.040699e+02
-5.800000e-01	-5.600000e-01	1.925654e+03	1.058435e+02	1.058435e+02
-5.600000e-01	-5.400000e-01	1.832570e+03	1.032537e+02	1.032537e+02
-5.400000e-01	-5.200000e-01	1.716217e+03	9.992202e+01	9.992202e+01
-5.200000e-01	-5.000000e-01	1.768576e+03	1.014348e+02	1.014348e+02
-5.000000e-01	-4.800000e-01	1.733670e+03	1.004288e+02	1.004288e+02
-4.800000e-01	-4.600000e-01	1.652223e+03	9.804137e+01	9.804137e+01
-4.600000e-01	-4.400000e-01	1.687128e+03	9.907160e+01	9.907160e+01
-4.400000e-01	-4.200000e-01	1.599863e+03	9.647539e+01	9.647539e+01
-4.200000e-01	-4.000000e-01	1.466057e+03	9.235288e+01	9.235288e+01
-4.000000e-01	-3.800000e-01	1.588228e+03	9.612393e+01	9.612393e+01
-3.800000e-01	-3.600000e-01	1.431150e+03	9.124682e+01	9.124682e+01
-3.600000e-01	-3.400000e-01	1.471874e+03	9.253594e+01	9.253594e+01
-3.400000e-01	-3.200000e-01	1.559139e+03	9.523961e+01	9.523961e+01
-3.200000e-01	-3.000000e-01	1.483509e+03	9.290097e+01	9.290097e+01
-3.000000e-01	-2.800000e-01	1.518416e+03	9.398758e+01	9.398758e+01
-2.800000e-01	-2.600000e-01	1.512598e+03	9.380734e+01	9.380734e+01
-2.600000e-01	-2.400000e-01	1.314796e+03	8.745898e+01	8.745898e+01
-2.400000e-01	-2.200000e-01	1.262438e+03	8.569985e+01	8.569985e+01
-2.200000e-01	-2.000000e-01	1.285709e+03	8.648610e+01	8.648610e+01
-2.000000e-01	-1.800000e-01	1.268255e+03	8.589709e+01	8.589709e+01
-1.800000e-01	-1.600000e-01	1.285709e+03	8.648610e+01	8.648610e+01
-1.600000e-01	-1.400000e-01	1.274073e+03	8.609387e+01	8.609387e+01
-1.400000e-01	-1.200000e-01	1.372973e+03	8.937297e+01	8.937297e+01
-1.200000e-01	-1.000000e-01	1.192626e+03	8.329656e+01	8.329656e+01
-1.000000e-01	-8.000000e-02	1.279890e+03	8.629021e+01	8.629021e+01
-8.000000e-02	-6.000000e-02	1.244984e+03	8.510539e+01	8.510539e+01
-6.000000e-02	-4.000000e-02	1.233349e+03	8.470677e+01	8.470677e+01
-4.000000e-02	-2.000000e-02	1.157719e+03	8.206854e+01	8.206854e+01
-2.000000e-02	0.000000e+00	1.285708e+03	8.648610e+01	8.648610e+01
0.000000e+00	2.000000e-02	1.215896e+03	8.410529e+01	8.410529e+01
2.000000e-02	4.000000e-02	1.198443e+03	8.349949e+01	8.349949e+01
4.000000e-02	6.000000e-02	1.116996e+03	8.061220e+01	8.061220e+01
6.000000e-02	8.000000e-02	1.053001e+03	7.826894e+01	7.826894e+01
8.000000e-02	1.000000e-01	1.035548e+03	7.761759e+01	7.761759e+01
1.000000e-01	1.200000e-01	1.134449e+03	8.123955e+01	8.123955e+01
1.200000e-01	1.400000e-01	1.064636e+03	7.870017e+01	7.870017e+01
1.400000e-01	1.600000e-01	1.111178e+03	8.040201e+01	8.040201e+01
1.600000e-01	1.800000e-01	1.180990e+03	8.288925e+01	8.288925e+01
1.800000e-01	2.000000e-01	1.012277e+03	7.674054e+01	7.674054e+01
2.000000e-01	2.200000e-01	9.541005e+02	7.450272e+01	7.450272e+01
2.200000e-01	2.400000e-01	1.012277e+03	7.674054e+01	7.674054e+01
2.400000e-01	2.600000e-01	9.657355e+02	7.495562e+01	7.495562e+01
2.600000e-01	2.800000e-01	7.679345e+02	6.684011e+01	6.684011e+01
2.800000e-01	3.000000e-01	9.075590e+02	7.266285e+01	7.266285e+01
3.000000e-01	3.200000e-01	9.890065e+02	7.585333e+01	7.585333e+01
3.200000e-01	3.400000e-01	1.029730e+03	7.739926e+01	7.739926e+01
3.400000e-01	3.600000e-01	9.191940e+02	7.312717e+01	7.312717e+01
3.600000e-01	3.800000e-01	8.784705e+02	7.148890e+01	7.148890e+01
3.800000e-01	4.000000e-01	1.018095e+03	7.696074e+01	7.696074e+01
4.000000e-01	4.200000e-01	1.006460e+03	7.651970e+01	7.651970e+01
4.200000e-01	4.400000e-01	9.773710e+02	7.540582e+01	7.540582e+01
4.400000e-01	4.600000e-01	8.261110e+02	6.932572e+01	6.932572e+01
4.600000e-01	4.800000e-01	8.261110e+02	6.932572e+01	6.932572e+01
4.800000e-01	5.000000e-01	9.657355e+02	7.495562e+01	7.495562e+01
5.000000e-01	5.200000e-01	9.308295e+02	7.358854e+01	7.358854e+01
5.200000e-01	5.400000e-01	9.482825e+02	7.427523e+01	7.427523e+01
5.400000e-01	5.600000e-01	8.959235e+02	7.219557e+01	7.219557e+01
5.600000e-01	5.800000e-01	9.366470e+02	7.381814e+01	7.381814e+01
5.800000e-01	6.000000e-01	1.029730e+03	7.739926e+01	7.739926e+01
6.000000e-01	6.200000e-01	9.482825e+02	7.427523e+01	7.427523e+01
6.200000e-01	6.400000e-01	8.668350e+02	7.101389e+01	7.101389e+01
6.400000e-01	6.600000e-01	9.773710e+02	7.540582e+01	7.540582e+01
6.600000e-01	6.800000e-01	9.890065e+02	7.585333e+01	7.585333e+01
6.800000e-01	7.000000e-01	9.133765e+02	7.289539e+01	7.289539e+01
7.000000e-01	7.200000e-01	9.075590e+02	7.266285e+01	7.266285e+01
7.200000e-01	7.400000e-01	8.028405e+02	6.834232e+01	6.834232e+01
7.400000e-01	7.600000e-01	9.890065e+02	7.585333e+01	7.585333e+01
7.600000e-01	7.800000e-01	9.948240e+02	7.607610e+01	7.607610e+01
7.800000e-01	8.000000e-01	8.901060e+02	7.196079e+01	7.196079e+01
8.000000e-01	8.200000e-01	1.035548e+03	7.761759e+01	7.761759e+01
8.200000e-01	8.400000e-01	8.901060e+02	7.196079e+01	7.196079e+01
8.400000e-01	8.600000e-01	9.250120e+02	7.335821e+01	7.335821e+01
8.600000e-01	8.800000e-01	9.250120e+02	7.335821e+01	7.335821e+01
8.800000e-01	9.000000e-01	1.029730e+03	7.739926e+01	7.739926e+01
9.000000e-01	9.200000e-01	9.366470e+02	7.381814e+01	7.381814e+01
9.200000e-01	9.400000e-01	9.424650e+02	7.404703e+01	7.404703e+01
9.400000e-01	9.600000e-01	8.086580e+02	6.858949e+01	6.858949e+01
9.600000e-01	9.800000e-01	9.250120e+02	7.335821e+01	7.335821e+01
9.800000e-01	1.000000e+00	9.599180e+02	7.472951e+01	7.472951e+01
# END HISTO1D


# BEGIN HISTO1D //afs/cern.ch/user/y/yilinz/work/genVal_eos/genValidation/MGv3_012j_LOmerged.yoda/MC_WPOL:ENERGY=13600/thetastar_ptw20_wplus
ErrorBars=1
LineColor=green
LineStyle=solid
Path=//afs/cern.ch/user/y/yilinz/work/genVal_eos/genValidation/MGv3_012j_LOmerged.yoda/MC_WPOL:ENERGY=13600/thetastar_ptw20_wplus
ScaledBy=1.17350265061033326e-01
Title=W+012j@LO(v352)
# xlow	 xhigh	 val	 errminus	 errplus
-1.000000e+00	-9.800000e-01	2.927889e+03	1.310703e+02	1.310703e+02
-9.800000e-01	-9.600000e-01	2.769466e+03	1.274750e+02	1.274750e+02
-9.600000e-01	-9.400000e-01	2.652116e+03	1.247450e+02	1.247450e+02
-9.400000e-01	-9.200000e-01	2.822274e+03	1.286846e+02	1.286846e+02
-9.200000e-01	-9.000000e-01	2.804671e+03	1.282827e+02	1.282827e+02
-9.000000e-01	-8.800000e-01	2.587573e+03	1.232178e+02	1.232178e+02
-8.800000e-01	-8.600000e-01	2.358740e+03	1.176433e+02	1.176433e+02
-8.600000e-01	-8.400000e-01	2.305932e+03	1.163189e+02	1.163189e+02
-8.400000e-01	-8.200000e-01	2.305932e+03	1.163189e+02	1.163189e+02
-8.200000e-01	-8.000000e-01	2.329403e+03	1.169094e+02	1.169094e+02
-8.000000e-01	-7.800000e-01	2.141642e+03	1.120987e+02	1.120987e+02
-7.800000e-01	-7.600000e-01	2.036027e+03	1.092997e+02	1.092997e+02
-7.600000e-01	-7.400000e-01	2.311800e+03	1.164668e+02	1.164668e+02
-7.400000e-01	-7.200000e-01	2.112305e+03	1.113282e+02	1.113282e+02
-7.200000e-01	-7.000000e-01	2.170980e+03	1.128639e+02	1.128639e+02
-7.000000e-01	-6.800000e-01	2.000822e+03	1.083506e+02	1.083506e+02
-6.800000e-01	-6.600000e-01	1.918677e+03	1.061031e+02	1.061031e+02
-6.600000e-01	-6.400000e-01	2.036027e+03	1.092997e+02	1.092997e+02
-6.400000e-01	-6.200000e-01	1.813061e+03	1.031415e+02	1.031415e+02
-6.200000e-01	-6.000000e-01	1.989087e+03	1.080324e+02	1.080324e+02
-6.000000e-01	-5.800000e-01	2.077099e+03	1.103966e+02	1.103966e+02
-5.800000e-01	-5.600000e-01	1.748519e+03	1.012890e+02	1.012890e+02
-5.600000e-01	-5.400000e-01	1.613566e+03	9.730170e+01	9.730170e+01
-5.400000e-01	-5.200000e-01	1.683976e+03	9.940197e+01	9.940197e+01
-5.200000e-01	-5.000000e-01	1.895207e+03	1.054521e+02	1.054521e+02
-5.000000e-01	-4.800000e-01	1.807194e+03	1.029744e+02	1.029744e+02
-4.800000e-01	-4.600000e-01	1.607699e+03	9.712462e+01	9.712462e+01
-4.600000e-01	-4.400000e-01	1.742651e+03	1.011189e+02	1.011189e+02
-4.400000e-01	-4.200000e-01	1.554891e+03	9.551619e+01	9.551619e+01
-4.200000e-01	-4.000000e-01	1.660507e+03	9.870685e+01	9.870685e+01
-4.000000e-01	-3.800000e-01	1.660506e+03	9.870685e+01	9.870685e+01
-3.800000e-01	-3.600000e-01	1.683976e+03	9.940197e+01	9.940197e+01
-3.600000e-01	-3.400000e-01	1.531421e+03	9.479258e+01	9.479258e+01
-3.400000e-01	-3.200000e-01	1.601831e+03	9.694723e+01	9.694723e+01
-3.200000e-01	-3.000000e-01	1.531421e+03	9.479258e+01	9.479258e+01
-3.000000e-01	-2.800000e-01	1.554891e+03	9.551619e+01	9.551619e+01
-2.800000e-01	-2.600000e-01	1.572493e+03	9.605534e+01	9.605534e+01
-2.600000e-01	-2.400000e-01	1.378865e+03	8.994728e+01	8.994728e+01
-2.400000e-01	-2.200000e-01	1.414071e+03	9.108830e+01	9.108830e+01
-2.200000e-01	-2.000000e-01	1.466879e+03	9.277353e+01	9.277353e+01
-2.000000e-01	-1.800000e-01	1.331925e+03	8.840300e+01	8.840300e+01
-1.800000e-01	-1.600000e-01	1.179370e+03	8.318636e+01	8.318636e+01
-1.600000e-01	-1.400000e-01	1.173503e+03	8.297917e+01	8.297917e+01
-1.400000e-01	-1.200000e-01	1.343660e+03	8.879158e+01	8.879158e+01
-1.200000e-01	-1.000000e-01	1.284986e+03	8.683127e+01	8.683127e+01
-1.000000e-01	-8.000000e-02	1.255648e+03	8.583432e+01	8.583432e+01
-8.000000e-02	-6.000000e-02	1.290853e+03	8.702929e+01	8.702929e+01
-6.000000e-02	-4.000000e-02	1.044418e+03	7.828239e+01	7.828239e+01
-4.000000e-02	-2.000000e-02	1.067888e+03	7.915707e+01	7.915707e+01
-2.000000e-02	0.000000e+00	1.226310e+03	8.482566e+01	8.482566e+01
0.000000e+00	2.000000e-02	1.150033e+03	8.214519e+01	8.214519e+01
2.000000e-02	4.000000e-02	1.279118e+03	8.663279e+01	8.663279e+01
4.000000e-02	6.000000e-02	1.003345e+03	7.672768e+01	7.672768e+01
6.000000e-02	8.000000e-02	1.114827e+03	8.087809e+01	8.087809e+01
8.000000e-02	1.000000e-01	1.144165e+03	8.193537e+01	8.193537e+01
1.000000e-01	1.200000e-01	1.056153e+03	7.872095e+01	7.872095e+01
1.200000e-01	1.400000e-01	1.261515e+03	8.603463e+01	8.603463e+01
1.400000e-01	1.600000e-01	1.032683e+03	7.784136e+01	7.784136e+01
1.600000e-01	1.800000e-01	1.050285e+03	7.850197e+01	7.850197e+01
1.800000e-01	2.000000e-01	1.173502e+03	8.297917e+01	8.297917e+01
2.000000e-01	2.200000e-01	1.038550e+03	7.806219e+01	7.806219e+01
2.200000e-01	2.400000e-01	1.020948e+03	7.739782e+01	7.739782e+01
2.400000e-01	2.600000e-01	1.056152e+03	7.872095e+01	7.872095e+01
2.600000e-01	2.800000e-01	1.020947e+03	7.739782e+01	7.739782e+01
2.800000e-01	3.000000e-01	1.050285e+03	7.850197e+01	7.850197e+01
3.000000e-01	3.200000e-01	1.038550e+03	7.806219e+01	7.806219e+01
3.200000e-01	3.400000e-01	9.798745e+02	7.582498e+01	7.582498e+01
3.400000e-01	3.600000e-01	9.270670e+02	7.375349e+01	7.375349e+01
3.600000e-01	3.800000e-01	8.801270e+02	7.186207e+01	7.186207e+01
3.800000e-01	4.000000e-01	8.859945e+02	7.210121e+01	7.210121e+01
4.000000e-01	4.200000e-01	9.916095e+02	7.627767e+01	7.627767e+01
4.200000e-01	4.400000e-01	9.211995e+02	7.351973e+01	7.351973e+01
4.400000e-01	4.600000e-01	8.977295e+02	7.257713e+01	7.257713e+01
4.600000e-01	4.800000e-01	8.390545e+02	7.016525e+01	7.016525e+01
4.800000e-01	5.000000e-01	8.801270e+02	7.186207e+01	7.186207e+01
5.000000e-01	5.200000e-01	9.798745e+02	7.582498e+01	7.582498e+01
5.200000e-01	5.400000e-01	1.050285e+03	7.850197e+01	7.850197e+01
5.400000e-01	5.600000e-01	8.742595e+02	7.162213e+01	7.162213e+01
5.600000e-01	5.800000e-01	9.622720e+02	7.514083e+01	7.514083e+01
5.800000e-01	6.000000e-01	8.683920e+02	7.138139e+01	7.138139e+01
6.000000e-01	6.200000e-01	8.859945e+02	7.210121e+01	7.210121e+01
6.200000e-01	6.400000e-01	1.050285e+03	7.850197e+01	7.850197e+01
6.400000e-01	6.600000e-01	8.859945e+02	7.210121e+01	7.210121e+01
6.600000e-01	6.800000e-01	1.144165e+03	8.193537e+01	8.193537e+01
6.800000e-01	7.000000e-01	9.857420e+02	7.605166e+01	7.605166e+01
7.000000e-01	7.200000e-01	1.044417e+03	7.828239e+01	7.828239e+01
7.200000e-01	7.400000e-01	1.114827e+03	8.087809e+01	8.087809e+01
7.400000e-01	7.600000e-01	8.566570e+02	7.089743e+01	7.089743e+01
7.600000e-01	7.800000e-01	1.015080e+03	7.717509e+01	7.717509e+01
7.800000e-01	8.000000e-01	9.681395e+02	7.536957e+01	7.536957e+01
8.000000e-01	8.200000e-01	9.153320e+02	7.328521e+01	7.328521e+01
8.200000e-01	8.400000e-01	1.056152e+03	7.872095e+01	7.872095e+01
8.400000e-01	8.600000e-01	9.622720e+02	7.514083e+01	7.514083e+01
8.600000e-01	8.800000e-01	9.622720e+02	7.514083e+01	7.514083e+01
8.800000e-01	9.000000e-01	1.056152e+03	7.872095e+01	7.872095e+01
9.000000e-01	9.200000e-01	1.067887e+03	7.915707e+01	7.915707e+01
9.200000e-01	9.400000e-01	9.329345e+02	7.398652e+01	7.398652e+01
9.400000e-01	9.600000e-01	1.085490e+03	7.980681e+01	7.980681e+01
9.600000e-01	9.800000e-01	1.085490e+03	7.980681e+01	7.980681e+01
9.800000e-01	1.000000e+00	8.977295e+02	7.257713e+01	7.257713e+01
# END HISTO1D

