# BEGIN PLOT
Legend=1
LogY=1
Title=Pseudorapidity of leading muon
XLabel=$\eta(\mu\mathrm{1})$
YLabel=$\mathrm{d}\sigma/\mathrm{d}\eta(\mu\mathrm{1})$ [pb]
LegendYPos=0.5
LegendXPos=0.30
RemoveOptions=1
DrawOnly=//eos/home-y/yilinz/genVal_eos/genValidation/MGv2918wellnu012j_5f_NLO_FXFX_newtest.yoda/MC_MUONS:ENERGY=13600/muon_eta_1 //eos/home-y/yilinz/genVal_eos/genValidation/MGv356wellnu012j_5f_NLO_FXFX_newtest.yoda/MC_MUONS:ENERGY=13600/muon_eta_1
LegendOnly=//eos/home-y/yilinz/genVal_eos/genValidation/MGv2918wellnu012j_5f_NLO_FXFX_newtest.yoda/MC_MUONS:ENERGY=13600/muon_eta_1 //eos/home-y/yilinz/genVal_eos/genValidation/MGv356wellnu012j_5f_NLO_FXFX_newtest.yoda/MC_MUONS:ENERGY=13600/muon_eta_1
RatioPlot=1
RatioPlotReference=//eos/home-y/yilinz/genVal_eos/genValidation/MGv2918wellnu012j_5f_NLO_FXFX_newtest.yoda/MC_MUONS:ENERGY=13600/muon_eta_1
RatioPlotYLabel=Ratio
# END PLOT

# BEGIN HISTO1D //eos/home-y/yilinz/genVal_eos/genValidation/MGv2918wellnu012j_5f_NLO_FXFX_newtest.yoda/MC_MUONS:ENERGY=13600/muon_eta_1
ErrorBars=1
LineColor=red
LineStyle=solid
Path=//eos/home-y/yilinz/genVal_eos/genValidation/MGv2918wellnu012j_5f_NLO_FXFX_newtest.yoda/MC_MUONS:ENERGY=13600/muon_eta_1
ScaledBy=9.95273825490549440e-07
Title=W+012j@NLO(v2918)
# xlow	 xhigh	 val	 errminus	 errplus
-5.000000e+00	-4.800000e+00	1.584387e+02	1.406018e+01	1.406018e+01
-4.800000e+00	-4.600000e+00	2.097745e+02	1.662020e+01	1.662020e+01
-4.600000e+00	-4.400000e+00	2.246813e+02	1.781656e+01	1.781656e+01
-4.400000e+00	-4.200000e+00	2.856866e+02	1.983156e+01	1.983156e+01
-4.200000e+00	-4.000000e+00	3.511965e+02	2.081078e+01	2.081078e+01
-4.000000e+00	-3.800000e+00	3.722176e+02	2.227217e+01	2.227217e+01
-3.800000e+00	-3.600000e+00	4.573341e+02	2.445472e+01	2.445472e+01
-3.600000e+00	-3.400000e+00	4.915262e+02	2.586111e+01	2.586111e+01
-3.400000e+00	-3.200000e+00	5.757380e+02	2.695309e+01	2.695309e+01
-3.200000e+00	-3.000000e+00	5.533005e+02	2.800672e+01	2.800672e+01
-3.000000e+00	-2.800000e+00	6.320545e+02	2.942188e+01	2.942188e+01
-2.800000e+00	-2.600000e+00	6.300860e+02	3.024133e+01	3.024133e+01
-2.600000e+00	-2.400000e+00	7.006470e+02	3.047665e+01	3.047665e+01
-2.400000e+00	-2.200000e+00	7.632480e+02	3.200561e+01	3.200561e+01
-2.200000e+00	-2.000000e+00	7.262005e+02	3.218283e+01	3.218283e+01
-2.000000e+00	-1.800000e+00	7.607670e+02	3.245421e+01	3.245421e+01
-1.800000e+00	-1.600000e+00	7.419585e+02	3.252295e+01	3.252295e+01
-1.600000e+00	-1.400000e+00	7.429710e+02	3.234386e+01	3.234386e+01
-1.400000e+00	-1.200000e+00	8.176105e+02	3.348263e+01	3.348263e+01
-1.200000e+00	-1.000000e+00	8.138710e+02	3.310818e+01	3.310818e+01
-1.000000e+00	-8.000000e-01	8.006915e+02	3.349062e+01	3.349062e+01
-8.000000e-01	-6.000000e-01	8.594530e+02	3.380256e+01	3.380256e+01
-6.000000e-01	-4.000000e-01	8.502040e+02	3.345180e+01	3.345180e+01
-4.000000e-01	-2.000000e-01	8.025470e+02	3.332602e+01	3.332602e+01
-2.000000e-01	0.000000e+00	8.673025e+02	3.396567e+01	3.396567e+01
0.000000e+00	2.000000e-01	7.845370e+02	3.406609e+01	3.406609e+01
2.000000e-01	4.000000e-01	8.287635e+02	3.340800e+01	3.340800e+01
4.000000e-01	6.000000e-01	8.620530e+02	3.411007e+01	3.411007e+01
6.000000e-01	8.000000e-01	8.547995e+02	3.461006e+01	3.461006e+01
8.000000e-01	1.000000e+00	7.476970e+02	3.181900e+01	3.181900e+01
1.000000e+00	1.200000e+00	8.402575e+02	3.361764e+01	3.361764e+01
1.200000e+00	1.400000e+00	7.922635e+02	3.286443e+01	3.286443e+01
1.400000e+00	1.600000e+00	7.689825e+02	3.280042e+01	3.280042e+01
1.600000e+00	1.800000e+00	7.973115e+02	3.326645e+01	3.326645e+01
1.800000e+00	2.000000e+00	7.452435e+02	3.211235e+01	3.211235e+01
2.000000e+00	2.200000e+00	7.166585e+02	3.221285e+01	3.221285e+01
2.200000e+00	2.400000e+00	7.259315e+02	3.156273e+01	3.156273e+01
2.400000e+00	2.600000e+00	6.944075e+02	3.110908e+01	3.110908e+01
2.600000e+00	2.800000e+00	6.294720e+02	3.017458e+01	3.017458e+01
2.800000e+00	3.000000e+00	6.395595e+02	2.954858e+01	2.954858e+01
3.000000e+00	3.200000e+00	6.097705e+02	2.804840e+01	2.804840e+01
3.200000e+00	3.400000e+00	5.774660e+02	2.765230e+01	2.765230e+01
3.400000e+00	3.600000e+00	5.415370e+02	2.762133e+01	2.762133e+01
3.600000e+00	3.800000e+00	4.037045e+02	2.413543e+01	2.413543e+01
3.800000e+00	4.000000e+00	3.821166e+02	2.275928e+01	2.275928e+01
4.000000e+00	4.200000e+00	3.328697e+02	2.148869e+01	2.148869e+01
4.200000e+00	4.400000e+00	2.826490e+02	1.898743e+01	1.898743e+01
4.400000e+00	4.600000e+00	2.294750e+02	1.791038e+01	1.791038e+01
4.600000e+00	4.800000e+00	2.317133e+02	1.689857e+01	1.689857e+01
4.800000e+00	5.000000e+00	1.596668e+02	1.503489e+01	1.503489e+01
# END HISTO1D


# BEGIN HISTO1D //eos/home-y/yilinz/genVal_eos/genValidation/MGv356wellnu012j_5f_NLO_FXFX_newtest.yoda/MC_MUONS:ENERGY=13600/muon_eta_1
ErrorBars=1
LineColor=blue
LineStyle=solid
Path=//eos/home-y/yilinz/genVal_eos/genValidation/MGv356wellnu012j_5f_NLO_FXFX_newtest.yoda/MC_MUONS:ENERGY=13600/muon_eta_1
ScaledBy=1.00429623479435656e-06
Title=W+012j@NLO(v356)
# xlow	 xhigh	 val	 errminus	 errplus
-5.000000e+00	-4.800000e+00	1.586495e+02	1.480430e+01	1.480430e+01
-4.800000e+00	-4.600000e+00	1.790347e+02	1.600275e+01	1.600275e+01
-4.600000e+00	-4.400000e+00	2.180324e+02	1.741323e+01	1.741323e+01
-4.400000e+00	-4.200000e+00	2.658931e+02	1.900924e+01	1.900924e+01
-4.200000e+00	-4.000000e+00	3.332527e+02	2.089889e+01	2.089889e+01
-4.000000e+00	-3.800000e+00	3.616146e+02	2.321389e+01	2.321389e+01
-3.800000e+00	-3.600000e+00	4.068165e+02	2.409395e+01	2.409395e+01
-3.600000e+00	-3.400000e+00	5.503985e+02	2.651535e+01	2.651535e+01
-3.400000e+00	-3.200000e+00	5.131735e+02	2.689773e+01	2.689773e+01
-3.200000e+00	-3.000000e+00	6.470065e+02	2.944899e+01	2.944899e+01
-3.000000e+00	-2.800000e+00	6.319395e+02	2.900551e+01	2.900551e+01
-2.800000e+00	-2.600000e+00	6.727095e+02	3.074104e+01	3.074104e+01
-2.600000e+00	-2.400000e+00	7.090485e+02	3.133580e+01	3.133580e+01
-2.400000e+00	-2.200000e+00	7.418420e+02	3.201777e+01	3.201777e+01
-2.200000e+00	-2.000000e+00	7.826120e+02	3.255306e+01	3.255306e+01
-2.000000e+00	-1.800000e+00	8.021110e+02	3.319821e+01	3.319821e+01
-1.800000e+00	-1.600000e+00	7.879300e+02	3.298456e+01	3.298456e+01
-1.600000e+00	-1.400000e+00	7.223430e+02	3.317454e+01	3.317454e+01
-1.400000e+00	-1.200000e+00	7.905890e+02	3.220125e+01	3.220125e+01
-1.200000e+00	-1.000000e+00	8.544030e+02	3.335166e+01	3.335166e+01
-1.000000e+00	-8.000000e-01	8.127465e+02	3.329272e+01	3.329272e+01
-8.000000e-01	-6.000000e-01	8.083150e+02	3.372641e+01	3.372641e+01
-6.000000e-01	-4.000000e-01	8.349045e+02	3.423499e+01	3.423499e+01
-4.000000e-01	-2.000000e-01	8.756745e+02	3.441807e+01	3.441807e+01
-2.000000e-01	0.000000e+00	8.809925e+02	3.407399e+01	3.407399e+01
0.000000e+00	2.000000e-01	8.588345e+02	3.390065e+01	3.390065e+01
2.000000e-01	4.000000e-01	8.579485e+02	3.412007e+01	3.412007e+01
4.000000e-01	6.000000e-01	8.561760e+02	3.379621e+01	3.379621e+01
6.000000e-01	8.000000e-01	8.375635e+02	3.392381e+01	3.392381e+01
8.000000e-01	1.000000e+00	8.588345e+02	3.336343e+01	3.336343e+01
1.000000e+00	1.200000e+00	7.772940e+02	3.272154e+01	3.272154e+01
1.200000e+00	1.400000e+00	7.285470e+02	3.309156e+01	3.309156e+01
1.400000e+00	1.600000e+00	8.419950e+02	3.311529e+01	3.311529e+01
1.600000e+00	1.800000e+00	8.038835e+02	3.298456e+01	3.298456e+01
1.800000e+00	2.000000e+00	8.003385e+02	3.274554e+01	3.274554e+01
2.000000e+00	2.200000e+00	7.817255e+02	3.244429e+01	3.244429e+01
2.200000e+00	2.400000e+00	7.001850e+02	3.115983e+01	3.115983e+01
2.400000e+00	2.600000e+00	6.532105e+02	2.991215e+01	2.991215e+01
2.600000e+00	2.800000e+00	6.948675e+02	3.039411e+01	3.039411e+01
2.800000e+00	3.000000e+00	6.177585e+02	2.916755e+01	2.916755e+01
3.000000e+00	3.200000e+00	5.601480e+02	2.794338e+01	2.794338e+01
3.200000e+00	3.400000e+00	5.495125e+02	2.740405e+01	2.740405e+01
3.400000e+00	3.600000e+00	5.069695e+02	2.590089e+01	2.590089e+01
3.600000e+00	3.800000e+00	4.972202e+02	2.530257e+01	2.530257e+01
3.800000e+00	4.000000e+00	3.713640e+02	2.212228e+01	2.212228e+01
4.000000e+00	4.200000e+00	3.048908e+02	2.017208e+01	2.017208e+01
4.200000e+00	4.400000e+00	2.862782e+02	1.983831e+01	1.983831e+01
4.400000e+00	4.600000e+00	2.286681e+02	1.727737e+01	1.727737e+01
4.600000e+00	4.800000e+00	1.861252e+02	1.605176e+01	1.605176e+01
4.800000e+00	5.000000e+00	1.497864e+02	1.375924e+01	1.375924e+01
# END HISTO1D

