# BEGIN PLOT
Legend=1
LogY=0
Title=Ratio of tau multiplicity
XLabel=$N_{\mathrm{tau}}$
YLabel=$\sigma(\geq N_{\mathrm{tau}})/\sigma(\geq N_{\mathrm{tau}}-1)$
XMajorTickMarks=10
XMinorTickMarks=0
ErrorBands=1
RemoveOptions=1
DrawOnly=//eos/home-y/yilinz/genVal_eos/genValidation/MGv2_LO_May26.yoda/MC_TAUS:ENERGY=13600/tau_multi_ratio_prompt //eos/home-y/yilinz/genVal_eos/genValidation/MGv356_wellnu01j_5f_LO_MLM.yoda/MC_TAUS:ENERGY=13600/tau_multi_ratio_prompt
LegendOnly=//eos/home-y/yilinz/genVal_eos/genValidation/MGv2_LO_May26.yoda/MC_TAUS:ENERGY=13600/tau_multi_ratio_prompt //eos/home-y/yilinz/genVal_eos/genValidation/MGv356_wellnu01j_5f_LO_MLM.yoda/MC_TAUS:ENERGY=13600/tau_multi_ratio_prompt
RatioPlot=1
RatioPlotReference=//eos/home-y/yilinz/genVal_eos/genValidation/MGv2_LO_May26.yoda/MC_TAUS:ENERGY=13600/tau_multi_ratio_prompt
RatioPlotYLabel=Ratio
# END PLOT

# BEGIN HISTO1D //eos/home-y/yilinz/genVal_eos/genValidation/MGv2_LO_May26.yoda/MC_TAUS:ENERGY=13600/tau_multi_ratio_prompt
ErrorBars=1
ErrorBreakdown={0: {"": {up: 0.001181514091282196, dn: 0.001181514091282196}}, 1: {"": {up: 1.680353037331937e-05, dn: 1.680353037331937e-05}}, 2: {"": {up: 0.3879347014319586, dn: 0.3879347014319586}}, 3: {"": {up: 0, dn: 0}}}
LineColor=red
LineStyle=solid
Path=//eos/home-y/yilinz/genVal_eos/genValidation/MGv2_LO_May26.yoda/MC_TAUS:ENERGY=13600/tau_multi_ratio_prompt
Title=W+01j@LO(v2918)
# xlow	 xhigh	 val	 errminus	 errplus
5.000000e-01	1.500000e+00	3.335488e-01	1.181514e-03	1.181514e-03
1.500000e+00	2.500000e+00	5.453746e-05	1.680353e-05	1.680353e-05
2.500000e+00	3.500000e+00	5.111715e-01	3.879347e-01	3.879347e-01
3.500000e+00	4.500000e+00	0.000000e+00	0.000000e+00	0.000000e+00
# END HISTO1D


# BEGIN HISTO1D //eos/home-y/yilinz/genVal_eos/genValidation/MGv356_wellnu01j_5f_LO_MLM.yoda/MC_TAUS:ENERGY=13600/tau_multi_ratio_prompt
ErrorBars=1
ErrorBreakdown={0: {"": {up: 0.001158985942190612, dn: 0.001158985942190612}}, 1: {"": {up: 1.207016697371575e-05, dn: 1.207016697371575e-05}}, 2: {"": {up: 0.4927992798267443, dn: 0.4927992798267443}}, 3: {"": {up: 0, dn: 0}}}
LineColor=blue
LineStyle=solid
Path=//eos/home-y/yilinz/genVal_eos/genValidation/MGv356_wellnu01j_5f_LO_MLM.yoda/MC_TAUS:ENERGY=13600/tau_multi_ratio_prompt
Title=W+01j@LO(v356)
# xlow	 xhigh	 val	 errminus	 errplus
5.000000e-01	1.500000e+00	3.321201e-01	1.158986e-03	1.158986e-03
1.500000e+00	2.500000e+00	2.940629e-05	1.207017e-05	1.207017e-05
2.500000e+00	3.500000e+00	5.000000e-01	4.927993e-01	4.927993e-01
3.500000e+00	4.500000e+00	0.000000e+00	0.000000e+00	0.000000e+00
# END HISTO1D

