# BEGIN PLOT
Legend=1
LogY=1
Title=Rapidity $+/-$ ratio of first tau
XLabel=$y(\tau\mathrm{1})_+/y(\tau\mathrm{1})_-$
YLabel=$|y(\tau\mathrm{1}|$
RemoveOptions=1
DrawOnly=//eos/home-y/yilinz/genVal_eos/genValidation/MGv2_LO_May26.yoda/MC_TAUS:ENERGY=13600/tau_y_pmratio_1 //eos/home-y/yilinz/genVal_eos/genValidation/MGv356_wellnu01j_5f_LO_MLM.yoda/MC_TAUS:ENERGY=13600/tau_y_pmratio_1
LegendOnly=//eos/home-y/yilinz/genVal_eos/genValidation/MGv2_LO_May26.yoda/MC_TAUS:ENERGY=13600/tau_y_pmratio_1 //eos/home-y/yilinz/genVal_eos/genValidation/MGv356_wellnu01j_5f_LO_MLM.yoda/MC_TAUS:ENERGY=13600/tau_y_pmratio_1
RatioPlot=1
RatioPlotReference=//eos/home-y/yilinz/genVal_eos/genValidation/MGv2_LO_May26.yoda/MC_TAUS:ENERGY=13600/tau_y_pmratio_1
RatioPlotYLabel=Ratio
# END PLOT

# BEGIN HISTO1D //eos/home-y/yilinz/genVal_eos/genValidation/MGv2_LO_May26.yoda/MC_TAUS:ENERGY=13600/tau_y_pmratio_1
ErrorBars=1
ErrorBreakdown={0: {"": {up: 0.01923166540660134, dn: 0.01923166540660134}}, 1: {"": {up: 0.01983027061703401, dn: 0.01983027061703401}}, 2: {"": {up: 0.01940092570324821, dn: 0.01940092570324821}}, 3: {"": {up: 0.01866396671308444, dn: 0.01866396671308444}}, 4: {"": {up: 0.01907406925085499, dn: 0.01907406925085499}}, 5: {"": {up: 0.01959178751464035, dn: 0.01959178751464035}}, 6: {"": {up: 0.01968847625442229, dn: 0.01968847625442229}}, 7: {"": {up: 0.01882848879586157, dn: 0.01882848879586157}}, 8: {"": {up: 0.01917137184634996, dn: 0.01917137184634996}}, 9: {"": {up: 0.01958251104442357, dn: 0.01958251104442357}}, 10: {"": {up: 0.01963182003804296, dn: 0.01963182003804296}}, 11: {"": {up: 0.01955737902183436, dn: 0.01955737902183436}}, 12: {"": {up: 0.02017329081179368, dn: 0.02017329081179368}}, 13: {"": {up: 0.02051265470650013, dn: 0.02051265470650013}}, 14: {"": {up: 0.02256286409173736, dn: 0.02256286409173736}}, 15: {"": {up: 0.02163462514996076, dn: 0.02163462514996076}}, 16: {"": {up: 0.02329841504811641, dn: 0.02329841504811641}}, 17: {"": {up: 0.02507606413347893, dn: 0.02507606413347893}}, 18: {"": {up: 0.02836657488369712, dn: 0.02836657488369712}}, 19: {"": {up: 0.02819996514599956, dn: 0.02819996514599956}}, 20: {"": {up: 0.03194164346329275, dn: 0.03194164346329275}}, 21: {"": {up: 0.03479510769319741, dn: 0.03479510769319741}}, 22: {"": {up: 0.04329026360625502, dn: 0.04329026360625502}}, 23: {"": {up: 0.04709248895528306, dn: 0.04709248895528306}}, 24: {"": {up: 0.05750821009536135, dn: 0.05750821009536135}}}
LineColor=red
LineStyle=solid
Path=//eos/home-y/yilinz/genVal_eos/genValidation/MGv2_LO_May26.yoda/MC_TAUS:ENERGY=13600/tau_y_pmratio_1
Title=W+01j@LO(v2918)
# xlow	 xhigh	 val	 errminus	 errplus
0.000000e+00	2.000000e-01	1.003663e+00	1.923167e-02	1.923167e-02
2.000000e-01	4.000000e-01	1.037687e+00	1.983027e-02	1.983027e-02
4.000000e-01	6.000000e-01	1.009238e+00	1.940093e-02	1.940093e-02
6.000000e-01	8.000000e-01	9.746146e-01	1.866397e-02	1.866397e-02
8.000000e-01	1.000000e+00	9.896685e-01	1.907407e-02	1.907407e-02
1.000000e+00	1.200000e+00	1.022183e+00	1.959179e-02	1.959179e-02
1.200000e+00	1.400000e+00	1.014237e+00	1.968848e-02	1.968848e-02
1.400000e+00	1.600000e+00	9.761416e-01	1.882849e-02	1.882849e-02
1.600000e+00	1.800000e+00	9.805526e-01	1.917137e-02	1.917137e-02
1.800000e+00	2.000000e+00	9.988962e-01	1.958251e-02	1.958251e-02
2.000000e+00	2.200000e+00	9.917596e-01	1.963182e-02	1.963182e-02
2.200000e+00	2.400000e+00	9.752872e-01	1.955738e-02	1.955738e-02
2.400000e+00	2.600000e+00	9.844013e-01	2.017329e-02	2.017329e-02
2.600000e+00	2.800000e+00	9.851868e-01	2.051265e-02	2.051265e-02
2.800000e+00	3.000000e+00	1.034494e+00	2.256286e-02	2.256286e-02
3.000000e+00	3.200000e+00	9.519704e-01	2.163463e-02	2.163463e-02
3.200000e+00	3.400000e+00	9.915475e-01	2.329842e-02	2.329842e-02
3.400000e+00	3.600000e+00	1.004888e+00	2.507606e-02	2.507606e-02
3.600000e+00	3.800000e+00	1.045118e+00	2.836657e-02	2.836657e-02
3.800000e+00	4.000000e+00	9.608353e-01	2.819997e-02	2.819997e-02
4.000000e+00	4.200000e+00	9.802949e-01	3.194164e-02	3.194164e-02
4.200000e+00	4.400000e+00	9.474695e-01	3.479511e-02	3.479511e-02
4.400000e+00	4.600000e+00	1.043430e+00	4.329026e-02	4.329026e-02
4.600000e+00	4.800000e+00	9.735975e-01	4.709249e-02	4.709249e-02
4.800000e+00	5.000000e+00	1.049223e+00	5.750821e-02	5.750821e-02
# END HISTO1D


# BEGIN HISTO1D //eos/home-y/yilinz/genVal_eos/genValidation/MGv356_wellnu01j_5f_LO_MLM.yoda/MC_TAUS:ENERGY=13600/tau_y_pmratio_1
ErrorBars=1
ErrorBreakdown={0: {"": {up: 0.01900550298393965, dn: 0.01900550298393965}}, 1: {"": {up: 0.01956019410154975, dn: 0.01956019410154975}}, 2: {"": {up: 0.01921220343638658, dn: 0.01921220343638658}}, 3: {"": {up: 0.01856019753042539, dn: 0.01856019753042539}}, 4: {"": {up: 0.0189258424531672, dn: 0.0189258424531672}}, 5: {"": {up: 0.01867684028202958, dn: 0.01867684028202958}}, 6: {"": {up: 0.01918185813767644, dn: 0.01918185813767644}}, 7: {"": {up: 0.01907965284681808, dn: 0.01907965284681808}}, 8: {"": {up: 0.01924946018766789, dn: 0.01924946018766789}}, 9: {"": {up: 0.01990884826375916, dn: 0.01990884826375916}}, 10: {"": {up: 0.01937912413045052, dn: 0.01937912413045052}}, 11: {"": {up: 0.01971477922847312, dn: 0.01971477922847312}}, 12: {"": {up: 0.01969343635571172, dn: 0.01969343635571172}}, 13: {"": {up: 0.02009437895027652, dn: 0.02009437895027652}}, 14: {"": {up: 0.02060051097174518, dn: 0.02060051097174518}}, 15: {"": {up: 0.02234431655493722, dn: 0.02234431655493722}}, 16: {"": {up: 0.02299957371416915, dn: 0.02299957371416915}}, 17: {"": {up: 0.02418079157326868, dn: 0.02418079157326868}}, 18: {"": {up: 0.02732680872862033, dn: 0.02732680872862033}}, 19: {"": {up: 0.02999845266273285, dn: 0.02999845266273285}}, 20: {"": {up: 0.0322569816807086, dn: 0.0322569816807086}}, 21: {"": {up: 0.03766516914039493, dn: 0.03766516914039493}}, 22: {"": {up: 0.04158778566321185, dn: 0.04158778566321185}}, 23: {"": {up: 0.04353904417877071, dn: 0.04353904417877071}}, 24: {"": {up: 0.05288340238867872, dn: 0.05288340238867872}}}
LineColor=blue
LineStyle=solid
Path=//eos/home-y/yilinz/genVal_eos/genValidation/MGv356_wellnu01j_5f_LO_MLM.yoda/MC_TAUS:ENERGY=13600/tau_y_pmratio_1
Title=W+01j@LO(v356)
# xlow	 xhigh	 val	 errminus	 errplus
0.000000e+00	2.000000e-01	1.012236e+00	1.900550e-02	1.900550e-02
2.000000e-01	4.000000e-01	1.032629e+00	1.956019e-02	1.956019e-02
4.000000e-01	6.000000e-01	1.019017e+00	1.921220e-02	1.921220e-02
6.000000e-01	8.000000e-01	9.804861e-01	1.856020e-02	1.856020e-02
8.000000e-01	1.000000e+00	9.958551e-01	1.892584e-02	1.892584e-02
1.000000e+00	1.200000e+00	9.875600e-01	1.867684e-02	1.867684e-02
1.200000e+00	1.400000e+00	1.012992e+00	1.918186e-02	1.918186e-02
1.400000e+00	1.600000e+00	9.992711e-01	1.907965e-02	1.907965e-02
1.600000e+00	1.800000e+00	1.000555e+00	1.924946e-02	1.924946e-02
1.800000e+00	2.000000e+00	1.027767e+00	1.990885e-02	1.990885e-02
2.000000e+00	2.200000e+00	9.986830e-01	1.937912e-02	1.937912e-02
2.200000e+00	2.400000e+00	9.883307e-01	1.971478e-02	1.971478e-02
2.400000e+00	2.600000e+00	9.820681e-01	1.969344e-02	1.969344e-02
2.600000e+00	2.800000e+00	9.808811e-01	2.009438e-02	2.009438e-02
2.800000e+00	3.000000e+00	9.746417e-01	2.060051e-02	2.060051e-02
3.000000e+00	3.200000e+00	1.007162e+00	2.234432e-02	2.234432e-02
3.200000e+00	3.400000e+00	9.831796e-01	2.299957e-02	2.299957e-02
3.400000e+00	3.600000e+00	9.794934e-01	2.418079e-02	2.418079e-02
3.600000e+00	3.800000e+00	1.007386e+00	2.732681e-02	2.732681e-02
3.800000e+00	4.000000e+00	1.019239e+00	2.999845e-02	2.999845e-02
4.000000e+00	4.200000e+00	1.006186e+00	3.225698e-02	3.225698e-02
4.200000e+00	4.400000e+00	1.022634e+00	3.766517e-02	3.766517e-02
4.400000e+00	4.600000e+00	1.013559e+00	4.158779e-02	4.158779e-02
4.600000e+00	4.800000e+00	9.373695e-01	4.353904e-02	4.353904e-02
4.800000e+00	5.000000e+00	9.582712e-01	5.288340e-02	5.288340e-02
# END HISTO1D

