# BEGIN PLOT
Legend=1
LogY=1
Title=$\Delta R$ separation between jets
LegendXPos=0.10
LegendYPos=0.5
XLabel=$\Delta{R}(\mathrm{jet~1,~jet~3})$
YLabel=$\mathrm{d}\sigma/\mathrm{d}\Delta{R}(\mathrm{jet~1,~jet~3})$ [pb]
RemoveOptions=1
DrawOnly=//eos/home-y/yilinz/genVal_eos/genValidation/MGv2_wellnu0123j_5f_LO_MLM.yoda/MC_JETS:ENERGY=13600/jets_dR_13 //eos/home-y/yilinz/genVal_eos/genValidation/MGv356_wellnu0123j_5f_LO_MLM.yoda/MC_JETS:ENERGY=13600/jets_dR_13
LegendOnly=//eos/home-y/yilinz/genVal_eos/genValidation/MGv2_wellnu0123j_5f_LO_MLM.yoda/MC_JETS:ENERGY=13600/jets_dR_13 //eos/home-y/yilinz/genVal_eos/genValidation/MGv356_wellnu0123j_5f_LO_MLM.yoda/MC_JETS:ENERGY=13600/jets_dR_13
RatioPlot=1
RatioPlotReference=//eos/home-y/yilinz/genVal_eos/genValidation/MGv2_wellnu0123j_5f_LO_MLM.yoda/MC_JETS:ENERGY=13600/jets_dR_13
RatioPlotYLabel=Ratio
# END PLOT

# BEGIN HISTO1D //eos/home-y/yilinz/genVal_eos/genValidation/MGv2_wellnu0123j_5f_LO_MLM.yoda/MC_JETS:ENERGY=13600/jets_dR_13
ErrorBars=1
LineColor=red
LineStyle=solid
Path=//eos/home-y/yilinz/genVal_eos/genValidation/MGv2_wellnu0123j_5f_LO_MLM.yoda/MC_JETS:ENERGY=13600/jets_dR_13
ScaledBy=4.57116900016995842e-02
Title=W+0123j@LO(v2918)
# xlow	 xhigh	 val	 errminus	 errplus
0.000000e+00	2.000000e-01	0.000000e+00	0.000000e+00	0.000000e+00
2.000000e-01	4.000000e-01	6.063345e-01	4.555704e-01	4.555704e-01
4.000000e-01	6.000000e-01	9.012310e+01	4.725294e+00	4.725294e+00
6.000000e-01	8.000000e-01	1.261072e+02	5.538928e+00	5.538928e+00
8.000000e-01	1.000000e+00	1.427645e+02	5.850840e+00	5.850840e+00
1.000000e+00	1.200000e+00	1.845028e+02	6.698267e+00	6.698267e+00
1.200000e+00	1.400000e+00	1.999406e+02	6.949110e+00	6.949110e+00
1.400000e+00	1.600000e+00	2.372726e+02	7.498036e+00	7.498036e+00
1.600000e+00	1.800000e+00	2.862846e+02	8.209930e+00	8.209930e+00
1.800000e+00	2.000000e+00	3.506808e+02	9.213725e+00	9.213725e+00
2.000000e+00	2.200000e+00	3.933680e+02	9.682112e+00	9.682112e+00
2.200000e+00	2.400000e+00	4.613824e+02	1.054836e+01	1.054836e+01
2.400000e+00	2.600000e+00	5.211810e+02	1.117455e+01	1.117455e+01
2.600000e+00	2.800000e+00	6.073355e+02	1.208866e+01	1.208866e+01
2.800000e+00	3.000000e+00	6.578725e+02	1.260000e+01	1.260000e+01
3.000000e+00	3.200000e+00	6.813085e+02	1.281575e+01	1.281575e+01
3.200000e+00	3.400000e+00	4.594872e+02	1.055588e+01	1.055588e+01
3.400000e+00	3.600000e+00	3.687340e+02	9.480638e+00	9.480638e+00
3.600000e+00	3.800000e+00	2.819800e+02	8.236818e+00	8.236818e+00
3.800000e+00	4.000000e+00	2.469613e+02	7.715258e+00	7.715258e+00
4.000000e+00	4.200000e+00	2.006281e+02	6.946893e+00	6.946893e+00
4.200000e+00	4.400000e+00	1.647028e+02	6.364599e+00	6.364599e+00
4.400000e+00	4.600000e+00	1.462777e+02	5.925852e+00	5.925852e+00
4.600000e+00	4.800000e+00	1.160289e+02	5.275211e+00	5.275211e+00
4.800000e+00	5.000000e+00	9.998195e+01	4.902202e+00	4.902202e+00
# END HISTO1D


# BEGIN HISTO1D //eos/home-y/yilinz/genVal_eos/genValidation/MGv356_wellnu0123j_5f_LO_MLM.yoda/MC_JETS:ENERGY=13600/jets_dR_13
ErrorBars=1
LineColor=blue
LineStyle=solid
Path=//eos/home-y/yilinz/genVal_eos/genValidation/MGv356_wellnu0123j_5f_LO_MLM.yoda/MC_JETS:ENERGY=13600/jets_dR_13
ScaledBy=4.45096330159377579e-02
Title=W+0123j@LO(v356)
# xlow	 xhigh	 val	 errminus	 errplus
0.000000e+00	2.000000e-01	0.000000e+00	0.000000e+00	0.000000e+00
2.000000e-01	4.000000e-01	4.450963e-01	3.147306e-01	3.147306e-01
4.000000e-01	6.000000e-01	7.878205e+01	4.187219e+00	4.187219e+00
6.000000e-01	8.000000e-01	1.330838e+02	5.442201e+00	5.442201e+00
8.000000e-01	1.000000e+00	1.502200e+02	5.781972e+00	5.781972e+00
1.000000e+00	1.200000e+00	1.798189e+02	6.326008e+00	6.326008e+00
1.200000e+00	1.400000e+00	1.994032e+02	6.661591e+00	6.661591e+00
1.400000e+00	1.600000e+00	2.432451e+02	7.357564e+00	7.357564e+00
1.600000e+00	1.800000e+00	2.741794e+02	7.811408e+00	7.811408e+00
1.800000e+00	2.000000e+00	3.556320e+02	8.896362e+00	8.896362e+00
2.000000e+00	2.200000e+00	3.945779e+02	9.370836e+00	9.370836e+00
2.200000e+00	2.400000e+00	4.693541e+02	1.022027e+01	1.022027e+01
2.400000e+00	2.600000e+00	5.276615e+02	1.083652e+01	1.083652e+01
2.600000e+00	2.800000e+00	5.801830e+02	1.136304e+01	1.136304e+01
2.800000e+00	3.000000e+00	6.872285e+02	1.236695e+01	1.236695e+01
3.000000e+00	3.200000e+00	6.963530e+02	1.244878e+01	1.244878e+01
3.200000e+00	3.400000e+00	4.433160e+02	9.932731e+00	9.932731e+00
3.400000e+00	3.600000e+00	3.600829e+02	8.951860e+00	8.951860e+00
3.600000e+00	3.800000e+00	2.857519e+02	7.974556e+00	7.974556e+00
3.800000e+00	4.000000e+00	2.269991e+02	7.107619e+00	7.107619e+00
4.000000e+00	4.200000e+00	1.893885e+02	6.492153e+00	6.492153e+00
4.200000e+00	4.400000e+00	1.715846e+02	6.179470e+00	6.179470e+00
4.400000e+00	4.600000e+00	1.448789e+02	5.678250e+00	5.678250e+00
4.600000e+00	4.800000e+00	1.121643e+02	4.996194e+00	4.996194e+00
4.800000e+00	5.000000e+00	9.146730e+01	4.511749e+00	4.511749e+00
# END HISTO1D

