# BEGIN PLOT
Legend=1
LogY=0
Title=$A_7$ for $W^+$
XLabel=$p_\perp(W)$ [GeV]
YLabel=$A_7$
LogX=1
YMin=-0.1
YMax=0.1
RemoveOptions=1
DrawOnly=//afs/cern.ch/user/y/yilinz/work/genVal_eos/genValidation/MGv2_LO_May26.yoda/MC_WPOL:ENERGY=13600/A7_wplus //afs/cern.ch/user/y/yilinz/work/genVal_eos/genValidation/MGv356_wellnu01j_5f_LO_MLM.yoda/MC_WPOL:ENERGY=13600/A7_wplus //afs/cern.ch/user/y/yilinz/work/genVal_eos/genValidation/MGv3_LO_May26.yoda/MC_WPOL:ENERGY=13600/A7_wplus
LegendOnly=//afs/cern.ch/user/y/yilinz/work/genVal_eos/genValidation/MGv2_LO_May26.yoda/MC_WPOL:ENERGY=13600/A7_wplus //afs/cern.ch/user/y/yilinz/work/genVal_eos/genValidation/MGv356_wellnu01j_5f_LO_MLM.yoda/MC_WPOL:ENERGY=13600/A7_wplus //afs/cern.ch/user/y/yilinz/work/genVal_eos/genValidation/MGv3_LO_May26.yoda/MC_WPOL:ENERGY=13600/A7_wplus
RatioPlot=1
RatioPlotReference=//afs/cern.ch/user/y/yilinz/work/genVal_eos/genValidation/MGv2_LO_May26.yoda/MC_WPOL:ENERGY=13600/A7_wplus
RatioPlotYLabel=Ratio
# END PLOT

# BEGIN HISTO1D //afs/cern.ch/user/y/yilinz/work/genVal_eos/genValidation/MGv2_LO_May26.yoda/MC_WPOL:ENERGY=13600/A7_wplus
ErrorBars=1
LineColor=red
LineStyle=solid
Path=//afs/cern.ch/user/y/yilinz/work/genVal_eos/genValidation/MGv2_LO_May26.yoda/MC_WPOL:ENERGY=13600/A7_wplus
Title=W+01j@LO(v2918)
# xlow	 xhigh	 val	 errminus	 errplus
1.000000e+00	1.092258e+00	8.599890e-02	1.336887e-01	1.336887e-01
1.092258e+00	1.193027e+00	6.297223e-02	1.129508e-01	1.129508e-01
1.193027e+00	1.303093e+00	-3.098461e-02	9.748030e-02	9.748030e-02
1.303093e+00	1.423313e+00	-1.134010e-01	9.784443e-02	9.784443e-02
1.423313e+00	1.554624e+00	9.112558e-02	8.716919e-02	8.716919e-02
1.554624e+00	1.698050e+00	-1.483594e-01	8.133999e-02	8.133999e-02
1.698050e+00	1.854708e+00	-1.060480e-01	7.792073e-02	7.792073e-02
1.854708e+00	2.025819e+00	1.843138e-02	7.101367e-02	7.101367e-02
2.025819e+00	2.212717e+00	-8.515754e-02	6.841969e-02	6.841969e-02
2.212717e+00	2.416857e+00	-1.243055e-01	6.163361e-02	6.163361e-02
2.416857e+00	2.639830e+00	3.623830e-02	5.848135e-02	5.848135e-02
2.639830e+00	2.883375e+00	1.514058e-02	5.681869e-02	5.681869e-02
2.883375e+00	3.149388e+00	7.161234e-02	5.202017e-02	5.202017e-02
3.149388e+00	3.439943e+00	5.477735e-03	5.062930e-02	5.062930e-02
3.439943e+00	3.757304e+00	4.992828e-02	4.848646e-02	4.848646e-02
3.757304e+00	4.103944e+00	-1.301232e-01	4.635354e-02	4.635354e-02
4.103944e+00	4.482564e+00	-4.426968e-02	4.504953e-02	4.504953e-02
4.482564e+00	4.896115e+00	-6.329069e-02	4.399474e-02	4.399474e-02
4.896115e+00	5.347819e+00	-1.906110e-02	4.442374e-02	4.442374e-02
5.347819e+00	5.841196e+00	-7.668380e-02	4.365429e-02	4.365429e-02
5.841196e+00	6.380091e+00	1.004919e-01	4.256293e-02	4.256293e-02
6.380091e+00	6.968703e+00	1.151464e-01	4.190584e-02	4.190584e-02
6.968703e+00	7.611619e+00	4.907406e-02	4.185774e-02	4.185774e-02
7.611619e+00	8.313849e+00	-1.425789e-02	4.245859e-02	4.245859e-02
8.313849e+00	9.080865e+00	9.141725e-02	4.201251e-02	4.201251e-02
9.080865e+00	9.918644e+00	3.686961e-02	4.296405e-02	4.296405e-02
9.918644e+00	1.083371e+01	3.532451e-02	4.180642e-02	4.180642e-02
1.083371e+01	1.183321e+01	-9.830647e-03	4.240699e-02	4.240699e-02
1.183321e+01	1.292491e+01	-5.145109e-02	4.351556e-02	4.351556e-02
1.292491e+01	1.411733e+01	1.022203e-01	4.320643e-02	4.320643e-02
1.411733e+01	1.541977e+01	8.181711e-03	4.299148e-02	4.299148e-02
1.541977e+01	1.684236e+01	4.866848e-02	4.506140e-02	4.506140e-02
1.684236e+01	1.839619e+01	-1.027061e-01	4.462080e-02	4.462080e-02
1.839619e+01	2.009338e+01	2.902038e-02	4.588811e-02	4.588811e-02
2.009338e+01	2.194715e+01	-4.703205e-02	4.720965e-02	4.720965e-02
2.194715e+01	2.397194e+01	-3.645320e-02	4.837715e-02	4.837715e-02
2.397194e+01	2.618354e+01	-4.884361e-03	4.783503e-02	4.783503e-02
2.618354e+01	2.859917e+01	-1.763003e-02	5.096054e-02	5.096054e-02
2.859917e+01	3.123766e+01	-2.006104e-02	5.278600e-02	5.278600e-02
3.123766e+01	3.411957e+01	4.670891e-02	5.452318e-02	5.452318e-02
3.411957e+01	3.726736e+01	1.749439e-02	5.719460e-02	5.719460e-02
3.726736e+01	4.070556e+01	-5.645660e-02	5.934338e-02	5.934338e-02
4.070556e+01	4.446096e+01	-4.616668e-04	6.244564e-02	6.244564e-02
4.446096e+01	4.856282e+01	1.162330e-01	6.449267e-02	6.449267e-02
4.856282e+01	5.304311e+01	-8.129555e-02	6.966975e-02	6.966975e-02
5.304311e+01	5.793675e+01	4.169860e-02	7.600492e-02	7.600492e-02
5.793675e+01	6.328185e+01	1.345579e-01	8.172527e-02	8.172527e-02
6.328185e+01	6.912009e+01	2.053079e-02	9.210332e-02	9.210332e-02
6.912009e+01	7.549694e+01	-1.752784e-01	9.766305e-02	9.766305e-02
7.549694e+01	8.246211e+01	-3.106259e-02	1.090716e-01	1.090716e-01
8.246211e+01	9.006987e+01	9.478022e-02	1.206781e-01	1.206781e-01
9.006987e+01	9.837951e+01	6.153807e-02	1.294219e-01	1.294219e-01
9.837951e+01	1.074558e+02	2.378194e-01	1.379084e-01	1.379084e-01
1.074558e+02	1.173694e+02	-3.070902e-01	1.517925e-01	1.517925e-01
1.173694e+02	1.281976e+02	3.318218e-02	1.923564e-01	1.923564e-01
1.281976e+02	1.400248e+02	2.090760e-01	1.992216e-01	1.992216e-01
1.400248e+02	1.529432e+02	-2.568818e-01	2.385205e-01	2.385205e-01
1.529432e+02	1.670533e+02	-1.274526e-01	2.332046e-01	2.332046e-01
1.670533e+02	1.824653e+02	-1.438021e-01	2.981695e-01	2.981695e-01
1.824653e+02	1.992991e+02	2.162550e-01	3.002218e-01	3.002218e-01
1.992991e+02	2.176860e+02	-1.414110e-01	4.658268e-01	4.658268e-01
2.176860e+02	2.377692e+02	3.070598e-01	5.181409e-01	5.181409e-01
2.377692e+02	2.597052e+02	-1.033580e-01	5.172052e-01	5.172052e-01
2.597052e+02	2.836650e+02	-1.210250e+00	6.917738e-01	6.917738e-01
2.836650e+02	3.098352e+02	-1.127974e+00	1.224113e+00	1.224113e+00
3.098352e+02	3.384199e+02	1.553203e+00	2.315787e+00	2.315787e+00
3.384199e+02	3.696417e+02	1.166471e+00	7.568288e-01	7.568288e-01
3.696417e+02	4.037440e+02	4.415617e+00	3.378927e+00	3.378927e+00
4.037440e+02	4.409924e+02	3.924001e+00	5.820445e-01	5.820445e-01
4.409924e+02	4.816774e+02	-2.737747e+00	6.235420e+00	6.235420e+00
4.816774e+02	5.261158e+02	nan	nan	nan
5.261158e+02	5.746540e+02	nan	nan	nan
5.746540e+02	6.276702e+02	-4.591099e+00	nan	nan
6.276702e+02	6.855776e+02	nan	nan	nan
6.855776e+02	7.488273e+02	nan	nan	nan
7.488273e+02	8.179124e+02	nan	nan	nan
8.179124e+02	8.933710e+02	nan	nan	nan
8.933710e+02	9.757913e+02	nan	nan	nan
9.757913e+02	1.065816e+03	nan	nan	nan
1.065816e+03	1.164145e+03	nan	nan	nan
1.164145e+03	1.271546e+03	nan	nan	nan
1.271546e+03	1.388856e+03	nan	nan	nan
1.388856e+03	1.516989e+03	nan	nan	nan
1.516989e+03	1.656943e+03	nan	nan	nan
1.656943e+03	1.809808e+03	nan	nan	nan
1.809808e+03	1.976777e+03	nan	nan	nan
1.976777e+03	2.159150e+03	nan	nan	nan
2.159150e+03	2.358348e+03	nan	nan	nan
2.358348e+03	2.575923e+03	nan	nan	nan
2.575923e+03	2.813572e+03	nan	nan	nan
2.813572e+03	3.073145e+03	nan	nan	nan
3.073145e+03	3.356667e+03	nan	nan	nan
3.356667e+03	3.666345e+03	nan	nan	nan
3.666345e+03	4.004593e+03	nan	nan	nan
4.004593e+03	4.374047e+03	nan	nan	nan
4.374047e+03	4.777586e+03	nan	nan	nan
4.777586e+03	5.218355e+03	nan	nan	nan
5.218355e+03	5.699788e+03	nan	nan	nan
5.699788e+03	6.225637e+03	nan	nan	nan
6.225637e+03	6.800000e+03	nan	nan	nan
# END HISTO1D


# BEGIN HISTO1D //afs/cern.ch/user/y/yilinz/work/genVal_eos/genValidation/MGv356_wellnu01j_5f_LO_MLM.yoda/MC_WPOL:ENERGY=13600/A7_wplus
ErrorBars=1
LineColor=blue
LineStyle=solid
Path=//afs/cern.ch/user/y/yilinz/work/genVal_eos/genValidation/MGv356_wellnu01j_5f_LO_MLM.yoda/MC_WPOL:ENERGY=13600/A7_wplus
Title=W+01j@LO(v356)
# xlow	 xhigh	 val	 errminus	 errplus
1.000000e+00	1.092258e+00	2.186358e-01	1.208562e-01	1.208562e-01
1.092258e+00	1.193027e+00	4.624682e-02	1.158924e-01	1.158924e-01
1.193027e+00	1.303093e+00	6.198244e-02	1.059559e-01	1.059559e-01
1.303093e+00	1.423313e+00	6.390041e-02	9.495297e-02	9.495297e-02
1.423313e+00	1.554624e+00	-1.728526e-02	8.409621e-02	8.409621e-02
1.554624e+00	1.698050e+00	-6.125964e-02	8.103847e-02	8.103847e-02
1.698050e+00	1.854708e+00	-9.053952e-02	7.437796e-02	7.437796e-02
1.854708e+00	2.025819e+00	6.671283e-02	7.137377e-02	7.137377e-02
2.025819e+00	2.212717e+00	-7.142834e-02	6.621280e-02	6.621280e-02
2.212717e+00	2.416857e+00	-1.126813e-02	6.318734e-02	6.318734e-02
2.416857e+00	2.639830e+00	-2.200795e-02	6.025365e-02	6.025365e-02
2.639830e+00	2.883375e+00	5.801174e-02	5.491909e-02	5.491909e-02
2.883375e+00	3.149388e+00	-1.966748e-02	5.219744e-02	5.219744e-02
3.149388e+00	3.439943e+00	-7.980410e-02	5.033809e-02	5.033809e-02
3.439943e+00	3.757304e+00	5.778745e-02	4.624225e-02	4.624225e-02
3.757304e+00	4.103944e+00	2.206041e-02	4.647351e-02	4.647351e-02
4.103944e+00	4.482564e+00	1.861584e-02	4.556328e-02	4.556328e-02
4.482564e+00	4.896115e+00	-7.442798e-02	4.393832e-02	4.393832e-02
4.896115e+00	5.347819e+00	2.673900e-02	4.515729e-02	4.515729e-02
5.347819e+00	5.841196e+00	2.834519e-02	4.314881e-02	4.314881e-02
5.841196e+00	6.380091e+00	1.659142e-02	4.279760e-02	4.279760e-02
6.380091e+00	6.968703e+00	-1.923744e-02	4.254282e-02	4.254282e-02
6.968703e+00	7.611619e+00	-3.861564e-03	4.177026e-02	4.177026e-02
7.611619e+00	8.313849e+00	-1.368404e-02	4.114354e-02	4.114354e-02
8.313849e+00	9.080865e+00	1.301492e-02	4.133470e-02	4.133470e-02
9.080865e+00	9.918644e+00	2.072460e-02	4.143532e-02	4.143532e-02
9.918644e+00	1.083371e+01	5.352046e-02	4.126649e-02	4.126649e-02
1.083371e+01	1.183321e+01	-2.841270e-02	4.234428e-02	4.234428e-02
1.183321e+01	1.292491e+01	-6.200173e-02	4.204760e-02	4.204760e-02
1.292491e+01	1.411733e+01	-8.293922e-02	4.289892e-02	4.289892e-02
1.411733e+01	1.541977e+01	-4.749375e-02	4.282329e-02	4.282329e-02
1.541977e+01	1.684236e+01	2.594845e-02	4.354446e-02	4.354446e-02
1.684236e+01	1.839619e+01	-9.115569e-02	4.402383e-02	4.402383e-02
1.839619e+01	2.009338e+01	3.986217e-02	4.543990e-02	4.543990e-02
2.009338e+01	2.194715e+01	4.409100e-02	4.566374e-02	4.566374e-02
2.194715e+01	2.397194e+01	-1.545474e-02	4.747564e-02	4.747564e-02
2.397194e+01	2.618354e+01	-1.859205e-02	4.891384e-02	4.891384e-02
2.618354e+01	2.859917e+01	3.850451e-02	4.938795e-02	4.938795e-02
2.859917e+01	3.123766e+01	6.055045e-02	5.042977e-02	5.042977e-02
3.123766e+01	3.411957e+01	5.226402e-02	5.286583e-02	5.286583e-02
3.411957e+01	3.726736e+01	-7.029239e-02	5.435604e-02	5.435604e-02
3.726736e+01	4.070556e+01	-5.641283e-02	5.664794e-02	5.664794e-02
4.070556e+01	4.446096e+01	3.096047e-02	5.875927e-02	5.875927e-02
4.446096e+01	4.856282e+01	-1.857907e-02	6.207866e-02	6.207866e-02
4.856282e+01	5.304311e+01	7.004118e-04	6.749615e-02	6.749615e-02
5.304311e+01	5.793675e+01	1.700063e-02	7.290692e-02	7.290692e-02
5.793675e+01	6.328185e+01	-2.923086e-02	7.996912e-02	7.996912e-02
6.328185e+01	6.912009e+01	-9.201406e-02	8.760097e-02	8.760097e-02
6.912009e+01	7.549694e+01	-9.364845e-02	9.127227e-02	9.127227e-02
7.549694e+01	8.246211e+01	7.512479e-02	1.014843e-01	1.014843e-01
8.246211e+01	9.006987e+01	6.650231e-02	1.150244e-01	1.150244e-01
9.006987e+01	9.837951e+01	7.182758e-02	1.243822e-01	1.243822e-01
9.837951e+01	1.074558e+02	3.354555e-02	1.415510e-01	1.415510e-01
1.074558e+02	1.173694e+02	1.106971e-01	1.692039e-01	1.692039e-01
1.173694e+02	1.281976e+02	-3.200662e-01	1.795924e-01	1.795924e-01
1.281976e+02	1.400248e+02	2.709767e-01	2.006671e-01	2.006671e-01
1.400248e+02	1.529432e+02	-2.341545e-01	2.143487e-01	2.143487e-01
1.529432e+02	1.670533e+02	5.306739e-02	2.500151e-01	2.500151e-01
1.670533e+02	1.824653e+02	-1.729375e-01	2.983741e-01	2.983741e-01
1.824653e+02	1.992991e+02	-2.255069e-01	3.584233e-01	3.584233e-01
1.992991e+02	2.176860e+02	4.703470e-01	4.017208e-01	4.017208e-01
2.176860e+02	2.377692e+02	-5.311296e-01	5.369857e-01	5.369857e-01
2.377692e+02	2.597052e+02	-6.914388e-02	4.831623e-01	4.831623e-01
2.597052e+02	2.836650e+02	-4.223174e-01	8.282682e-01	8.282682e-01
2.836650e+02	3.098352e+02	1.438370e-02	1.522996e+00	1.522996e+00
3.098352e+02	3.384199e+02	-1.241464e+00	1.890241e+00	1.890241e+00
3.384199e+02	3.696417e+02	9.222455e-01	8.789353e-01	8.789353e-01
3.696417e+02	4.037440e+02	2.764353e+00	nan	nan
4.037440e+02	4.409924e+02	-1.799714e+00	5.933797e-01	5.933797e-01
4.409924e+02	4.816774e+02	nan	nan	nan
4.816774e+02	5.261158e+02	-3.116174e+00	nan	nan
5.261158e+02	5.746540e+02	nan	nan	nan
5.746540e+02	6.276702e+02	nan	nan	nan
6.276702e+02	6.855776e+02	nan	nan	nan
6.855776e+02	7.488273e+02	nan	nan	nan
7.488273e+02	8.179124e+02	nan	nan	nan
8.179124e+02	8.933710e+02	nan	nan	nan
8.933710e+02	9.757913e+02	nan	nan	nan
9.757913e+02	1.065816e+03	nan	nan	nan
1.065816e+03	1.164145e+03	nan	nan	nan
1.164145e+03	1.271546e+03	nan	nan	nan
1.271546e+03	1.388856e+03	nan	nan	nan
1.388856e+03	1.516989e+03	nan	nan	nan
1.516989e+03	1.656943e+03	nan	nan	nan
1.656943e+03	1.809808e+03	nan	nan	nan
1.809808e+03	1.976777e+03	nan	nan	nan
1.976777e+03	2.159150e+03	nan	nan	nan
2.159150e+03	2.358348e+03	nan	nan	nan
2.358348e+03	2.575923e+03	nan	nan	nan
2.575923e+03	2.813572e+03	nan	nan	nan
2.813572e+03	3.073145e+03	nan	nan	nan
3.073145e+03	3.356667e+03	nan	nan	nan
3.356667e+03	3.666345e+03	nan	nan	nan
3.666345e+03	4.004593e+03	nan	nan	nan
4.004593e+03	4.374047e+03	nan	nan	nan
4.374047e+03	4.777586e+03	nan	nan	nan
4.777586e+03	5.218355e+03	nan	nan	nan
5.218355e+03	5.699788e+03	nan	nan	nan
5.699788e+03	6.225637e+03	nan	nan	nan
6.225637e+03	6.800000e+03	nan	nan	nan
# END HISTO1D


# BEGIN HISTO1D //afs/cern.ch/user/y/yilinz/work/genVal_eos/genValidation/MGv3_LO_May26.yoda/MC_WPOL:ENERGY=13600/A7_wplus
ErrorBars=1
LineColor=green
LineStyle=solid
Path=//afs/cern.ch/user/y/yilinz/work/genVal_eos/genValidation/MGv3_LO_May26.yoda/MC_WPOL:ENERGY=13600/A7_wplus
Title=W+01j@LO(v352)
# xlow	 xhigh	 val	 errminus	 errplus
1.000000e+00	1.092258e+00	-1.430193e-01	1.175101e-01	1.175101e-01
1.092258e+00	1.193027e+00	9.880002e-03	1.089657e-01	1.089657e-01
1.193027e+00	1.303093e+00	-1.147326e-02	1.041748e-01	1.041748e-01
1.303093e+00	1.423313e+00	-3.504271e-02	9.920422e-02	9.920422e-02
1.423313e+00	1.554624e+00	-8.504859e-03	8.897753e-02	8.897753e-02
1.554624e+00	1.698050e+00	-9.864264e-04	8.162872e-02	8.162872e-02
1.698050e+00	1.854708e+00	-5.667276e-02	7.288508e-02	7.288508e-02
1.854708e+00	2.025819e+00	-1.525692e-02	6.728387e-02	6.728387e-02
2.025819e+00	2.212717e+00	5.496284e-02	6.481884e-02	6.481884e-02
2.212717e+00	2.416857e+00	-1.364424e-01	5.994449e-02	5.994449e-02
2.416857e+00	2.639830e+00	1.421015e-01	5.908858e-02	5.908858e-02
2.639830e+00	2.883375e+00	-4.044651e-02	5.644675e-02	5.644675e-02
2.883375e+00	3.149388e+00	3.978695e-02	5.107264e-02	5.107264e-02
3.149388e+00	3.439943e+00	-7.154964e-02	5.006352e-02	5.006352e-02
3.439943e+00	3.757304e+00	-2.341588e-02	4.684013e-02	4.684013e-02
3.757304e+00	4.103944e+00	3.789307e-02	4.648843e-02	4.648843e-02
4.103944e+00	4.482564e+00	-2.084677e-02	4.333537e-02	4.333537e-02
4.482564e+00	4.896115e+00	-3.961611e-02	4.293161e-02	4.293161e-02
4.896115e+00	5.347819e+00	-9.630483e-03	4.437452e-02	4.437452e-02
5.347819e+00	5.841196e+00	-7.143926e-02	4.230039e-02	4.230039e-02
5.841196e+00	6.380091e+00	-2.211556e-02	4.189445e-02	4.189445e-02
6.380091e+00	6.968703e+00	7.686461e-02	4.172933e-02	4.172933e-02
6.968703e+00	7.611619e+00	-2.815212e-03	4.089944e-02	4.089944e-02
7.611619e+00	8.313849e+00	-5.521605e-03	4.239476e-02	4.239476e-02
8.313849e+00	9.080865e+00	4.492660e-02	4.223602e-02	4.223602e-02
9.080865e+00	9.918644e+00	6.586756e-02	4.182638e-02	4.182638e-02
9.918644e+00	1.083371e+01	-7.991582e-02	4.185538e-02	4.185538e-02
1.083371e+01	1.183321e+01	-6.222126e-02	4.207282e-02	4.207282e-02
1.183321e+01	1.292491e+01	-4.050779e-02	4.161830e-02	4.161830e-02
1.292491e+01	1.411733e+01	1.188228e-02	4.192101e-02	4.192101e-02
1.411733e+01	1.541977e+01	-7.112641e-02	4.175097e-02	4.175097e-02
1.541977e+01	1.684236e+01	2.939016e-02	4.380447e-02	4.380447e-02
1.684236e+01	1.839619e+01	1.602757e-02	4.372422e-02	4.372422e-02
1.839619e+01	2.009338e+01	-1.377588e-03	4.428084e-02	4.428084e-02
2.009338e+01	2.194715e+01	7.334517e-02	4.647285e-02	4.647285e-02
2.194715e+01	2.397194e+01	1.358071e-02	4.781936e-02	4.781936e-02
2.397194e+01	2.618354e+01	-4.639641e-02	4.898038e-02	4.898038e-02
2.618354e+01	2.859917e+01	8.425419e-03	4.951774e-02	4.951774e-02
2.859917e+01	3.123766e+01	-1.815990e-02	5.194556e-02	5.194556e-02
3.123766e+01	3.411957e+01	4.389827e-02	5.420343e-02	5.420343e-02
3.411957e+01	3.726736e+01	-1.004291e-01	5.342506e-02	5.342506e-02
3.726736e+01	4.070556e+01	1.127333e-01	5.732413e-02	5.732413e-02
4.070556e+01	4.446096e+01	-7.011606e-03	6.012735e-02	6.012735e-02
4.446096e+01	4.856282e+01	1.006428e-02	6.394194e-02	6.394194e-02
4.856282e+01	5.304311e+01	1.777313e-01	6.755330e-02	6.755330e-02
5.304311e+01	5.793675e+01	4.547724e-02	7.139668e-02	7.139668e-02
5.793675e+01	6.328185e+01	4.548904e-02	8.020282e-02	8.020282e-02
6.328185e+01	6.912009e+01	1.043495e-01	8.734039e-02	8.734039e-02
6.912009e+01	7.549694e+01	-7.211163e-02	8.841812e-02	8.841812e-02
7.549694e+01	8.246211e+01	1.428042e-01	1.040590e-01	1.040590e-01
8.246211e+01	9.006987e+01	-1.612357e-01	1.146057e-01	1.146057e-01
9.006987e+01	9.837951e+01	1.431762e-02	1.295206e-01	1.295206e-01
9.837951e+01	1.074558e+02	-1.449697e-01	1.381004e-01	1.381004e-01
1.074558e+02	1.173694e+02	-8.136061e-02	1.498981e-01	1.498981e-01
1.173694e+02	1.281976e+02	-9.665096e-02	1.797830e-01	1.797830e-01
1.281976e+02	1.400248e+02	1.012834e-01	1.930235e-01	1.930235e-01
1.400248e+02	1.529432e+02	1.315589e-01	2.216311e-01	2.216311e-01
1.529432e+02	1.670533e+02	-2.099294e-01	2.544563e-01	2.544563e-01
1.670533e+02	1.824653e+02	-1.901160e-01	3.482952e-01	3.482952e-01
1.824653e+02	1.992991e+02	2.600293e-01	3.462506e-01	3.462506e-01
1.992991e+02	2.176860e+02	9.461940e-02	3.688251e-01	3.688251e-01
2.176860e+02	2.377692e+02	5.466018e-01	4.857898e-01	4.857898e-01
2.377692e+02	2.597052e+02	5.300271e-01	5.868638e-01	5.868638e-01
2.597052e+02	2.836650e+02	-6.584317e-01	8.556438e-01	8.556438e-01
2.836650e+02	3.098352e+02	8.332524e-01	9.232241e-01	9.232241e-01
3.098352e+02	3.384199e+02	-2.131024e+00	1.131374e+00	1.131374e+00
3.384199e+02	3.696417e+02	2.102592e+00	1.311170e+00	1.311170e+00
3.696417e+02	4.037440e+02	-2.151624e-01	1.126965e+00	1.126965e+00
4.037440e+02	4.409924e+02	8.484100e-01	5.386580e-01	5.386580e-01
4.409924e+02	4.816774e+02	nan	nan	nan
4.816774e+02	5.261158e+02	nan	nan	nan
5.261158e+02	5.746540e+02	nan	nan	nan
5.746540e+02	6.276702e+02	2.177608e+00	nan	nan
6.276702e+02	6.855776e+02	nan	nan	nan
6.855776e+02	7.488273e+02	nan	nan	nan
7.488273e+02	8.179124e+02	nan	nan	nan
8.179124e+02	8.933710e+02	nan	nan	nan
8.933710e+02	9.757913e+02	nan	nan	nan
9.757913e+02	1.065816e+03	nan	nan	nan
1.065816e+03	1.164145e+03	nan	nan	nan
1.164145e+03	1.271546e+03	nan	nan	nan
1.271546e+03	1.388856e+03	nan	nan	nan
1.388856e+03	1.516989e+03	nan	nan	nan
1.516989e+03	1.656943e+03	nan	nan	nan
1.656943e+03	1.809808e+03	nan	nan	nan
1.809808e+03	1.976777e+03	nan	nan	nan
1.976777e+03	2.159150e+03	nan	nan	nan
2.159150e+03	2.358348e+03	nan	nan	nan
2.358348e+03	2.575923e+03	nan	nan	nan
2.575923e+03	2.813572e+03	nan	nan	nan
2.813572e+03	3.073145e+03	nan	nan	nan
3.073145e+03	3.356667e+03	nan	nan	nan
3.356667e+03	3.666345e+03	nan	nan	nan
3.666345e+03	4.004593e+03	nan	nan	nan
4.004593e+03	4.374047e+03	nan	nan	nan
4.374047e+03	4.777586e+03	nan	nan	nan
4.777586e+03	5.218355e+03	nan	nan	nan
5.218355e+03	5.699788e+03	nan	nan	nan
5.699788e+03	6.225637e+03	nan	nan	nan
6.225637e+03	6.800000e+03	nan	nan	nan
# END HISTO1D

