# BEGIN PLOT
Legend=1
LogY=0
Title=$\phi^*$ inclusive for $W^+$
XLabel=$\phi^*$
YLabel=$\mathrm{d}\sigma/\mathrm{d}\phi^*$ [pb]
LogX=0
RemoveOptions=1
DrawOnly=//afs/cern.ch/user/y/yilinz/work/genVal_eos/genValidation/MGv2_wellnu0123j_5f_LO_MLM.yoda/MC_WPOL:ENERGY=13600/phistar_wplus //afs/cern.ch/user/y/yilinz/work/genVal_eos/genValidation/MGv356_wellnu0123j_5f_LO_MLM.yoda/MC_WPOL:ENERGY=13600/phistar_wplus //afs/cern.ch/user/y/yilinz/work/genVal_eos/genValidation/MGv3_wellnu0123j_5f_LO_MLM.yoda/MC_WPOL:ENERGY=13600/phistar_wplus
LegendOnly=//afs/cern.ch/user/y/yilinz/work/genVal_eos/genValidation/MGv2_wellnu0123j_5f_LO_MLM.yoda/MC_WPOL:ENERGY=13600/phistar_wplus //afs/cern.ch/user/y/yilinz/work/genVal_eos/genValidation/MGv356_wellnu0123j_5f_LO_MLM.yoda/MC_WPOL:ENERGY=13600/phistar_wplus //afs/cern.ch/user/y/yilinz/work/genVal_eos/genValidation/MGv3_wellnu0123j_5f_LO_MLM.yoda/MC_WPOL:ENERGY=13600/phistar_wplus
RatioPlot=1
RatioPlotReference=//afs/cern.ch/user/y/yilinz/work/genVal_eos/genValidation/MGv2_wellnu0123j_5f_LO_MLM.yoda/MC_WPOL:ENERGY=13600/phistar_wplus
RatioPlotYLabel=Ratio
# END PLOT

# BEGIN HISTO1D //afs/cern.ch/user/y/yilinz/work/genVal_eos/genValidation/MGv2_wellnu0123j_5f_LO_MLM.yoda/MC_WPOL:ENERGY=13600/phistar_wplus
ErrorBars=1
LineColor=red
LineStyle=solid
Path=//afs/cern.ch/user/y/yilinz/work/genVal_eos/genValidation/MGv2_wellnu0123j_5f_LO_MLM.yoda/MC_WPOL:ENERGY=13600/phistar_wplus
ScaledBy=4.57116900016995842e-02
Title=W+0123j@LO(v2918)
# xlow	 xhigh	 val	 errminus	 errplus
0.000000e+00	4.000000e+00	3.253283e+01	6.190924e-01	6.190924e-01
4.000000e+00	8.000000e+00	3.401723e+01	6.351591e-01	6.351591e-01
8.000000e+00	1.200000e+01	3.165100e+01	6.115915e-01	6.115915e-01
1.200000e+01	1.600000e+01	3.112827e+01	6.074044e-01	6.074044e-01
1.600000e+01	2.000000e+01	3.137157e+01	6.100864e-01	6.100864e-01
2.000000e+01	2.400000e+01	3.106668e+01	6.070001e-01	6.070001e-01
2.400000e+01	2.800000e+01	3.011682e+01	5.960040e-01	5.960040e-01
2.800000e+01	3.200000e+01	3.003970e+01	5.974317e-01	5.974317e-01
3.200000e+01	3.600000e+01	2.926525e+01	5.870896e-01	5.870896e-01
3.600000e+01	4.000000e+01	2.991280e+01	5.940410e-01	5.940410e-01
4.000000e+01	4.400000e+01	2.897383e+01	5.844510e-01	5.844510e-01
4.400000e+01	4.800000e+01	2.822103e+01	5.778577e-01	5.778577e-01
4.800000e+01	5.200000e+01	3.073982e+01	6.044089e-01	6.044089e-01
5.200000e+01	5.600000e+01	2.768248e+01	5.709636e-01	5.709636e-01
5.600000e+01	6.000000e+01	2.793060e+01	5.758918e-01	5.758918e-01
6.000000e+01	6.400000e+01	2.902925e+01	5.857302e-01	5.857302e-01
6.400000e+01	6.800000e+01	2.814483e+01	5.770503e-01	5.770503e-01
6.800000e+01	7.200000e+01	2.673078e+01	5.608810e-01	5.608810e-01
7.200000e+01	7.600000e+01	2.639588e+01	5.581828e-01	5.581828e-01
7.600000e+01	8.000000e+01	2.763482e+01	5.738033e-01	5.738033e-01
8.000000e+01	8.400000e+01	2.823820e+01	5.772341e-01	5.772341e-01
8.400000e+01	8.800000e+01	2.854928e+01	5.804218e-01	5.804218e-01
8.800000e+01	9.200000e+01	2.682340e+01	5.627548e-01	5.627548e-01
9.200000e+01	9.600000e+01	2.743380e+01	5.679843e-01	5.679843e-01
9.600000e+01	1.000000e+02	2.688332e+01	5.639634e-01	5.639634e-01
1.000000e+02	1.040000e+02	2.693615e+01	5.635013e-01	5.635013e-01
1.040000e+02	1.080000e+02	2.675767e+01	5.633839e-01	5.633839e-01
1.080000e+02	1.120000e+02	2.703612e+01	5.643739e-01	5.643739e-01
1.120000e+02	1.160000e+02	2.723868e+01	5.668182e-01	5.668182e-01
1.160000e+02	1.200000e+02	2.712555e+01	5.643882e-01	5.643882e-01
1.200000e+02	1.240000e+02	2.638723e+01	5.591668e-01	5.591668e-01
1.240000e+02	1.280000e+02	2.708993e+01	5.657559e-01	5.657559e-01
1.280000e+02	1.320000e+02	2.736587e+01	5.711722e-01	5.711722e-01
1.320000e+02	1.360000e+02	2.800535e+01	5.736166e-01	5.736166e-01
1.360000e+02	1.400000e+02	2.745257e+01	5.696620e-01	5.696620e-01
1.400000e+02	1.440000e+02	2.802362e+01	5.776088e-01	5.776088e-01
1.440000e+02	1.480000e+02	2.845015e+01	5.797988e-01	5.797988e-01
1.480000e+02	1.520000e+02	2.798597e+01	5.775410e-01	5.775410e-01
1.520000e+02	1.560000e+02	2.783922e+01	5.751492e-01	5.751492e-01
1.560000e+02	1.600000e+02	2.705375e+01	5.645773e-01	5.645773e-01
1.600000e+02	1.640000e+02	2.741100e+01	5.692711e-01	5.692711e-01
1.640000e+02	1.680000e+02	2.722522e+01	5.677573e-01	5.677573e-01
1.680000e+02	1.720000e+02	2.740433e+01	5.678220e-01	5.678220e-01
1.720000e+02	1.760000e+02	2.899810e+01	5.890199e-01	5.890199e-01
1.760000e+02	1.800000e+02	2.819657e+01	5.790291e-01	5.790291e-01
1.800000e+02	1.840000e+02	2.779350e+01	5.728565e-01	5.728565e-01
1.840000e+02	1.880000e+02	2.772995e+01	5.735647e-01	5.735647e-01
1.880000e+02	1.920000e+02	2.753805e+01	5.718908e-01	5.718908e-01
1.920000e+02	1.960000e+02	2.751837e+01	5.709614e-01	5.709614e-01
1.960000e+02	2.000000e+02	2.745782e+01	5.700566e-01	5.700566e-01
2.000000e+02	2.040000e+02	2.739965e+01	5.726798e-01	5.726798e-01
2.040000e+02	2.080000e+02	2.779348e+01	5.750503e-01	5.750503e-01
2.080000e+02	2.120000e+02	2.753242e+01	5.715458e-01	5.715458e-01
2.120000e+02	2.160000e+02	2.806115e+01	5.767802e-01	5.767802e-01
2.160000e+02	2.200000e+02	2.760432e+01	5.723741e-01	5.723741e-01
2.200000e+02	2.240000e+02	2.687520e+01	5.627123e-01	5.627123e-01
2.240000e+02	2.280000e+02	2.825293e+01	5.770115e-01	5.770115e-01
2.280000e+02	2.320000e+02	2.763180e+01	5.705292e-01	5.705292e-01
2.320000e+02	2.360000e+02	2.789098e+01	5.743114e-01	5.743114e-01
2.360000e+02	2.400000e+02	2.714122e+01	5.689764e-01	5.689764e-01
2.400000e+02	2.440000e+02	2.591872e+01	5.525006e-01	5.525006e-01
2.440000e+02	2.480000e+02	2.738873e+01	5.698963e-01	5.698963e-01
2.480000e+02	2.520000e+02	2.800903e+01	5.756377e-01	5.756377e-01
2.520000e+02	2.560000e+02	2.633210e+01	5.582594e-01	5.582594e-01
2.560000e+02	2.600000e+02	2.685930e+01	5.616951e-01	5.616951e-01
2.600000e+02	2.640000e+02	2.708138e+01	5.656477e-01	5.656477e-01
2.640000e+02	2.680000e+02	2.678967e+01	5.624469e-01	5.624469e-01
2.680000e+02	2.720000e+02	2.808320e+01	5.786162e-01	5.786162e-01
2.720000e+02	2.760000e+02	2.772350e+01	5.750679e-01	5.750679e-01
2.760000e+02	2.800000e+02	2.765113e+01	5.717559e-01	5.717559e-01
2.800000e+02	2.840000e+02	2.800877e+01	5.752448e-01	5.752448e-01
2.840000e+02	2.880000e+02	2.662380e+01	5.608891e-01	5.608891e-01
2.880000e+02	2.920000e+02	2.750033e+01	5.705060e-01	5.705060e-01
2.920000e+02	2.960000e+02	2.835158e+01	5.800632e-01	5.800632e-01
2.960000e+02	3.000000e+02	2.840308e+01	5.812490e-01	5.812490e-01
3.000000e+02	3.040000e+02	2.875325e+01	5.829921e-01	5.829921e-01
3.040000e+02	3.080000e+02	2.880907e+01	5.836670e-01	5.836670e-01
3.080000e+02	3.120000e+02	2.761652e+01	5.699545e-01	5.699545e-01
3.120000e+02	3.160000e+02	2.971620e+01	5.934617e-01	5.934617e-01
3.160000e+02	3.200000e+02	2.840715e+01	5.782363e-01	5.782363e-01
3.200000e+02	3.240000e+02	2.893210e+01	5.830418e-01	5.830418e-01
3.240000e+02	3.280000e+02	3.058407e+01	6.008887e-01	6.008887e-01
3.280000e+02	3.320000e+02	2.908365e+01	5.883578e-01	5.883578e-01
3.320000e+02	3.360000e+02	3.036645e+01	6.010698e-01	6.010698e-01
3.360000e+02	3.400000e+02	3.028562e+01	6.002833e-01	6.002833e-01
3.400000e+02	3.440000e+02	3.138397e+01	6.086472e-01	6.086472e-01
3.440000e+02	3.480000e+02	3.179492e+01	6.136582e-01	6.136582e-01
3.480000e+02	3.520000e+02	3.275810e+01	6.221545e-01	6.221545e-01
3.520000e+02	3.560000e+02	3.264900e+01	6.218920e-01	6.218920e-01
3.560000e+02	3.600000e+02	3.243832e+01	6.166481e-01	6.166481e-01
# END HISTO1D


# BEGIN HISTO1D //afs/cern.ch/user/y/yilinz/work/genVal_eos/genValidation/MGv356_wellnu0123j_5f_LO_MLM.yoda/MC_WPOL:ENERGY=13600/phistar_wplus
ErrorBars=1
LineColor=blue
LineStyle=solid
Path=//afs/cern.ch/user/y/yilinz/work/genVal_eos/genValidation/MGv356_wellnu0123j_5f_LO_MLM.yoda/MC_WPOL:ENERGY=13600/phistar_wplus
ScaledBy=4.45096330159377579e-02
Title=W+0123j@LO(v356)
# xlow	 xhigh	 val	 errminus	 errplus
0.000000e+00	4.000000e+00	3.160185e+01	5.929979e-01	5.929979e-01
4.000000e+00	8.000000e+00	3.244752e+01	6.008800e-01	6.008800e-01
8.000000e+00	1.200000e+01	3.045573e+01	5.821453e-01	5.821453e-01
1.200000e+01	1.600000e+01	3.127915e+01	5.899626e-01	5.899626e-01
1.600000e+01	2.000000e+01	3.038895e+01	5.815069e-01	5.815069e-01
2.000000e+01	2.400000e+01	3.057812e+01	5.833140e-01	5.833140e-01
2.400000e+01	2.800000e+01	2.935410e+01	5.715200e-01	5.715200e-01
2.800000e+01	3.200000e+01	2.985483e+01	5.763740e-01	5.763740e-01
3.200000e+01	3.600000e+01	2.899802e+01	5.680430e-01	5.680430e-01
3.600000e+01	4.000000e+01	2.913155e+01	5.693494e-01	5.693494e-01
4.000000e+01	4.400000e+01	2.855292e+01	5.636667e-01	5.636667e-01
4.400000e+01	4.800000e+01	2.864195e+01	5.645447e-01	5.645447e-01
4.800000e+01	5.200000e+01	2.766272e+01	5.548104e-01	5.548104e-01
5.200000e+01	5.600000e+01	2.723990e+01	5.505538e-01	5.505538e-01
5.600000e+01	6.000000e+01	2.864195e+01	5.645447e-01	5.645447e-01
6.000000e+01	6.400000e+01	2.787415e+01	5.569265e-01	5.569265e-01
6.400000e+01	6.800000e+01	2.731778e+01	5.513404e-01	5.513404e-01
6.800000e+01	7.200000e+01	2.690608e+01	5.471699e-01	5.471699e-01
7.200000e+01	7.600000e+01	2.802995e+01	5.584806e-01	5.584806e-01
7.600000e+01	8.000000e+01	2.671690e+01	5.452430e-01	5.452430e-01
8.000000e+01	8.400000e+01	2.692833e+01	5.473961e-01	5.473961e-01
8.400000e+01	8.800000e+01	2.621617e+01	5.401093e-01	5.401093e-01
8.800000e+01	9.200000e+01	2.603813e+01	5.382722e-01	5.382722e-01
9.200000e+01	9.600000e+01	2.643873e+01	5.423969e-01	5.423969e-01
9.600000e+01	1.000000e+02	2.614940e+01	5.394211e-01	5.394211e-01
1.000000e+02	1.040000e+02	2.565980e+01	5.343474e-01	5.343474e-01
1.040000e+02	1.080000e+02	2.715087e+01	5.496534e-01	5.496534e-01
1.080000e+02	1.120000e+02	2.618280e+01	5.397653e-01	5.397653e-01
1.120000e+02	1.160000e+02	2.592685e+01	5.371208e-01	5.371208e-01
1.160000e+02	1.200000e+02	2.732893e+01	5.514526e-01	5.514526e-01
1.200000e+02	1.240000e+02	2.562643e+01	5.339996e-01	5.339996e-01
1.240000e+02	1.280000e+02	2.644985e+01	5.425111e-01	5.425111e-01
1.280000e+02	1.320000e+02	2.750695e+01	5.532460e-01	5.532460e-01
1.320000e+02	1.360000e+02	2.698398e+01	5.479613e-01	5.479613e-01
1.360000e+02	1.400000e+02	2.656113e+01	5.436510e-01	5.436510e-01
1.400000e+02	1.440000e+02	2.662790e+01	5.443339e-01	5.443339e-01
1.440000e+02	1.480000e+02	2.772950e+01	5.554795e-01	5.554795e-01
1.480000e+02	1.520000e+02	2.722877e+01	5.504413e-01	5.504413e-01
1.520000e+02	1.560000e+02	2.661675e+01	5.442201e-01	5.442201e-01
1.560000e+02	1.600000e+02	2.795205e+01	5.577041e-01	5.577041e-01
1.600000e+02	1.640000e+02	2.725102e+01	5.506662e-01	5.506662e-01
1.640000e+02	1.680000e+02	2.683930e+01	5.464906e-01	5.464906e-01
1.680000e+02	1.720000e+02	2.712862e+01	5.494281e-01	5.494281e-01
1.720000e+02	1.760000e+02	2.650548e+01	5.430814e-01	5.430814e-01
1.760000e+02	1.800000e+02	2.784078e+01	5.565929e-01	5.565929e-01
1.800000e+02	1.840000e+02	2.653888e+01	5.434232e-01	5.434232e-01
1.840000e+02	1.880000e+02	2.661675e+01	5.442201e-01	5.442201e-01
1.880000e+02	1.920000e+02	2.785190e+01	5.567041e-01	5.567041e-01
1.920000e+02	1.960000e+02	2.679480e+01	5.460373e-01	5.460373e-01
1.960000e+02	2.000000e+02	2.794093e+01	5.575931e-01	5.575931e-01
2.000000e+02	2.040000e+02	2.545950e+01	5.322578e-01	5.322578e-01
2.040000e+02	2.080000e+02	2.711750e+01	5.493154e-01	5.493154e-01
2.080000e+02	2.120000e+02	2.641647e+01	5.421686e-01	5.421686e-01
2.120000e+02	2.160000e+02	2.657225e+01	5.437649e-01	5.437649e-01
2.160000e+02	2.200000e+02	2.748470e+01	5.530221e-01	5.530221e-01
2.200000e+02	2.240000e+02	2.643873e+01	5.423969e-01	5.423969e-01
2.240000e+02	2.280000e+02	2.752920e+01	5.534697e-01	5.534697e-01
2.280000e+02	2.320000e+02	2.673915e+01	5.454700e-01	5.454700e-01
2.320000e+02	2.360000e+02	2.672802e+01	5.453565e-01	5.453565e-01
2.360000e+02	2.400000e+02	2.660562e+01	5.441064e-01	5.441064e-01
2.400000e+02	2.440000e+02	2.754032e+01	5.535816e-01	5.535816e-01
2.440000e+02	2.480000e+02	2.650548e+01	5.430814e-01	5.430814e-01
2.480000e+02	2.520000e+02	2.761822e+01	5.543639e-01	5.543639e-01
2.520000e+02	2.560000e+02	2.557078e+01	5.334197e-01	5.334197e-01
2.560000e+02	2.600000e+02	2.535938e+01	5.312099e-01	5.312099e-01
2.600000e+02	2.640000e+02	2.713975e+01	5.495408e-01	5.495408e-01
2.640000e+02	2.680000e+02	2.655000e+01	5.435371e-01	5.435371e-01
2.680000e+02	2.720000e+02	2.662790e+01	5.443339e-01	5.443339e-01
2.720000e+02	2.760000e+02	2.675030e+01	5.455835e-01	5.455835e-01
2.760000e+02	2.800000e+02	2.825250e+01	5.606933e-01	5.606933e-01
2.800000e+02	2.840000e+02	2.726215e+01	5.507786e-01	5.507786e-01
2.840000e+02	2.880000e+02	2.710637e+01	5.492027e-01	5.492027e-01
2.880000e+02	2.920000e+02	2.693945e+01	5.475092e-01	5.475092e-01
2.920000e+02	2.960000e+02	2.768500e+01	5.550335e-01	5.550335e-01
2.960000e+02	3.000000e+02	2.888675e+01	5.669521e-01	5.669521e-01
3.000000e+02	3.040000e+02	2.786303e+01	5.568153e-01	5.568153e-01
3.040000e+02	3.080000e+02	2.896465e+01	5.677160e-01	5.677160e-01
3.080000e+02	3.120000e+02	2.762935e+01	5.544755e-01	5.544755e-01
3.120000e+02	3.160000e+02	2.905367e+01	5.685877e-01	5.685877e-01
3.160000e+02	3.200000e+02	2.906480e+01	5.686966e-01	5.686966e-01
3.200000e+02	3.240000e+02	2.868645e+01	5.649831e-01	5.649831e-01
3.240000e+02	3.280000e+02	2.907593e+01	5.688054e-01	5.688054e-01
3.280000e+02	3.320000e+02	2.957665e+01	5.736824e-01	5.736824e-01
3.320000e+02	3.360000e+02	3.043345e+01	5.819326e-01	5.819326e-01
3.360000e+02	3.400000e+02	3.191340e+01	5.959140e-01	5.959140e-01
3.400000e+02	3.440000e+02	2.998838e+01	5.776615e-01	5.776615e-01
3.440000e+02	3.480000e+02	3.116787e+01	5.889122e-01	5.889122e-01
3.480000e+02	3.520000e+02	2.993273e+01	5.771254e-01	5.771254e-01
3.520000e+02	3.560000e+02	3.203580e+01	5.970557e-01	5.970557e-01
3.560000e+02	3.600000e+02	3.232512e+01	5.997456e-01	5.997456e-01
# END HISTO1D


# BEGIN HISTO1D //afs/cern.ch/user/y/yilinz/work/genVal_eos/genValidation/MGv3_wellnu0123j_5f_LO_MLM.yoda/MC_WPOL:ENERGY=13600/phistar_wplus
ErrorBars=1
LineColor=green
LineStyle=solid
Path=//afs/cern.ch/user/y/yilinz/work/genVal_eos/genValidation/MGv3_wellnu0123j_5f_LO_MLM.yoda/MC_WPOL:ENERGY=13600/phistar_wplus
ScaledBy=4.56949345470853766e-02
Title=W+0123j@LO(v352)
# xlow	 xhigh	 val	 errminus	 errplus
0.000000e+00	4.000000e+00	3.331160e+01	6.168816e-01	6.168816e-01
4.000000e+00	8.000000e+00	3.170085e+01	6.017825e-01	6.017825e-01
8.000000e+00	1.200000e+01	3.388280e+01	6.221479e-01	6.221479e-01
1.200000e+01	1.600000e+01	3.302602e+01	6.142315e-01	6.142315e-01
1.600000e+01	2.000000e+01	3.150665e+01	5.999364e-01	5.999364e-01
2.000000e+01	2.400000e+01	3.190650e+01	6.037311e-01	6.037311e-01
2.400000e+01	2.800000e+01	3.013580e+01	5.867397e-01	5.867397e-01
2.800000e+01	3.200000e+01	3.184937e+01	6.031904e-01	6.031904e-01
3.200000e+01	3.600000e+01	2.909625e+01	5.765308e-01	5.765308e-01
3.600000e+01	4.000000e+01	2.966743e+01	5.821622e-01	5.821622e-01
4.000000e+01	4.400000e+01	2.946180e+01	5.801413e-01	5.801413e-01
4.400000e+01	4.800000e+01	2.919908e+01	5.775485e-01	5.775485e-01
4.800000e+01	5.200000e+01	2.897060e+01	5.752845e-01	5.752845e-01
5.200000e+01	5.600000e+01	2.881065e+01	5.736944e-01	5.736944e-01
5.600000e+01	6.000000e+01	2.789675e+01	5.645220e-01	5.645220e-01
6.000000e+01	6.400000e+01	2.807953e+01	5.663684e-01	5.663684e-01
6.400000e+01	6.800000e+01	2.732558e+01	5.587129e-01	5.587129e-01
6.800000e+01	7.200000e+01	2.855933e+01	5.711867e-01	5.711867e-01
7.200000e+01	7.600000e+01	2.753120e+01	5.608111e-01	5.608111e-01
7.600000e+01	8.000000e+01	2.690290e+01	5.543749e-01	5.543749e-01
8.000000e+01	8.400000e+01	2.783965e+01	5.639438e-01	5.639438e-01
8.400000e+01	8.800000e+01	2.722275e+01	5.576607e-01	5.576607e-01
8.800000e+01	9.200000e+01	2.625175e+01	5.476248e-01	5.476248e-01
9.200000e+01	9.600000e+01	2.705140e+01	5.559029e-01	5.559029e-01
9.600000e+01	1.000000e+02	2.680007e+01	5.533145e-01	5.533145e-01
1.000000e+02	1.040000e+02	2.764542e+01	5.619734e-01	5.619734e-01
1.040000e+02	1.080000e+02	2.665158e+01	5.517793e-01	5.517793e-01
1.080000e+02	1.120000e+02	2.727988e+01	5.582455e-01	5.582455e-01
1.120000e+02	1.160000e+02	2.683435e+01	5.536682e-01	5.536682e-01
1.160000e+02	1.200000e+02	2.645737e+01	5.497653e-01	5.497653e-01
1.200000e+02	1.240000e+02	2.650305e+01	5.502399e-01	5.502399e-01
1.240000e+02	1.280000e+02	2.681150e+01	5.534324e-01	5.534324e-01
1.280000e+02	1.320000e+02	2.643453e+01	5.495279e-01	5.495279e-01
1.320000e+02	1.360000e+02	2.715423e+01	5.569583e-01	5.569583e-01
1.360000e+02	1.400000e+02	2.793103e+01	5.648687e-01	5.648687e-01
1.400000e+02	1.440000e+02	2.751977e+01	5.606947e-01	5.606947e-01
1.440000e+02	1.480000e+02	2.805670e+01	5.661379e-01	5.661379e-01
1.480000e+02	1.520000e+02	2.703997e+01	5.557855e-01	5.557855e-01
1.520000e+02	1.560000e+02	2.795388e+01	5.650997e-01	5.650997e-01
1.560000e+02	1.600000e+02	2.637740e+01	5.489339e-01	5.489339e-01
1.600000e+02	1.640000e+02	2.754263e+01	5.609274e-01	5.609274e-01
1.640000e+02	1.680000e+02	2.758833e+01	5.613925e-01	5.613925e-01
1.680000e+02	1.720000e+02	2.734842e+01	5.589464e-01	5.589464e-01
1.720000e+02	1.760000e+02	2.806812e+01	5.662531e-01	5.662531e-01
1.760000e+02	1.800000e+02	2.828517e+01	5.684384e-01	5.684384e-01
1.800000e+02	1.840000e+02	2.838798e+01	5.694705e-01	5.694705e-01
1.840000e+02	1.880000e+02	2.826233e+01	5.682088e-01	5.682088e-01
1.880000e+02	1.920000e+02	2.769112e+01	5.624377e-01	5.624377e-01
1.920000e+02	1.960000e+02	2.850222e+01	5.706152e-01	5.706152e-01
1.960000e+02	2.000000e+02	2.726845e+01	5.581286e-01	5.581286e-01
2.000000e+02	2.040000e+02	2.835370e+01	5.691267e-01	5.691267e-01
2.040000e+02	2.080000e+02	2.719990e+01	5.574267e-01	5.574267e-01
2.080000e+02	2.120000e+02	2.651448e+01	5.503585e-01	5.503585e-01
2.120000e+02	2.160000e+02	2.722275e+01	5.576607e-01	5.576607e-01
2.160000e+02	2.200000e+02	2.786247e+01	5.641752e-01	5.641752e-01
2.200000e+02	2.240000e+02	2.819377e+01	5.675193e-01	5.675193e-01
2.240000e+02	2.280000e+02	2.746265e+01	5.601125e-01	5.601125e-01
2.280000e+02	2.320000e+02	2.682293e+01	5.535503e-01	5.535503e-01
2.320000e+02	2.360000e+02	2.693717e+01	5.547279e-01	5.547279e-01
2.360000e+02	2.400000e+02	2.618320e+01	5.469094e-01	5.469094e-01
2.400000e+02	2.440000e+02	2.688005e+01	5.541394e-01	5.541394e-01
2.440000e+02	2.480000e+02	2.729130e+01	5.583624e-01	5.583624e-01
2.480000e+02	2.520000e+02	2.669728e+01	5.522522e-01	5.522522e-01
2.520000e+02	2.560000e+02	2.761117e+01	5.616249e-01	5.616249e-01
2.560000e+02	2.600000e+02	2.666300e+01	5.518976e-01	5.518976e-01
2.600000e+02	2.640000e+02	2.697142e+01	5.550806e-01	5.550806e-01
2.640000e+02	2.680000e+02	2.629743e+01	5.481012e-01	5.481012e-01
2.680000e+02	2.720000e+02	2.688005e+01	5.541394e-01	5.541394e-01
2.720000e+02	2.760000e+02	2.837655e+01	5.693559e-01	5.693559e-01
2.760000e+02	2.800000e+02	2.766828e+01	5.622055e-01	5.622055e-01
2.800000e+02	2.840000e+02	2.785108e+01	5.640595e-01	5.640595e-01
2.840000e+02	2.880000e+02	2.698285e+01	5.551982e-01	5.551982e-01
2.880000e+02	2.920000e+02	2.877638e+01	5.733531e-01	5.733531e-01
2.920000e+02	2.960000e+02	2.849080e+01	5.705008e-01	5.705008e-01
2.960000e+02	3.000000e+02	2.866215e+01	5.722139e-01	5.722139e-01
3.000000e+02	3.040000e+02	2.892490e+01	5.748306e-01	5.748306e-01
3.040000e+02	3.080000e+02	2.855933e+01	5.711867e-01	5.711867e-01
3.080000e+02	3.120000e+02	2.980453e+01	5.835057e-01	5.835057e-01
3.120000e+02	3.160000e+02	2.948465e+01	5.803662e-01	5.803662e-01
3.160000e+02	3.200000e+02	2.943895e+01	5.799163e-01	5.799163e-01
3.200000e+02	3.240000e+02	3.017008e+01	5.870732e-01	5.870732e-01
3.240000e+02	3.280000e+02	2.978167e+01	5.832820e-01	5.832820e-01
3.280000e+02	3.320000e+02	3.031860e+01	5.885164e-01	5.885164e-01
3.320000e+02	3.360000e+02	3.116395e+01	5.966646e-01	5.966646e-01
3.360000e+02	3.400000e+02	3.096975e+01	5.948025e-01	5.948025e-01
3.400000e+02	3.440000e+02	3.168942e+01	6.016741e-01	6.016741e-01
3.440000e+02	3.480000e+02	3.199788e+01	6.045951e-01	6.045951e-01
3.480000e+02	3.520000e+02	3.135815e+01	5.985208e-01	5.985208e-01
3.520000e+02	3.560000e+02	3.395132e+01	6.227768e-01	6.227768e-01
3.560000e+02	3.600000e+02	3.346012e+01	6.182552e-01	6.182552e-01
# END HISTO1D

