# BEGIN PLOT
Legend=1
LogY=0
Title=$\cos(\theta^*)$ for $p_\perp(W^-)>20$ GeV
XLabel=$\cos(\theta^*)$
YLabel=$\mathrm{d}\sigma/\mathrm{d}\cos(\theta^*)$ [pb]
LogX=0
RemoveOptions=1
DrawOnly=//afs/cern.ch/user/y/yilinz/work/genVal_eos/genValidation/MGv2_wellnu0123j_5f_LO_MLM.yoda/MC_WPOL:ENERGY=13600/thetastar_ptw20_wminus //afs/cern.ch/user/y/yilinz/work/genVal_eos/genValidation/MGv356_wellnu0123j_5f_LO_MLM.yoda/MC_WPOL:ENERGY=13600/thetastar_ptw20_wminus //afs/cern.ch/user/y/yilinz/work/genVal_eos/genValidation/MGv3_wellnu0123j_5f_LO_MLM.yoda/MC_WPOL:ENERGY=13600/thetastar_ptw20_wminus
LegendOnly=//afs/cern.ch/user/y/yilinz/work/genVal_eos/genValidation/MGv2_wellnu0123j_5f_LO_MLM.yoda/MC_WPOL:ENERGY=13600/thetastar_ptw20_wminus //afs/cern.ch/user/y/yilinz/work/genVal_eos/genValidation/MGv356_wellnu0123j_5f_LO_MLM.yoda/MC_WPOL:ENERGY=13600/thetastar_ptw20_wminus //afs/cern.ch/user/y/yilinz/work/genVal_eos/genValidation/MGv3_wellnu0123j_5f_LO_MLM.yoda/MC_WPOL:ENERGY=13600/thetastar_ptw20_wminus
RatioPlot=1
RatioPlotReference=//afs/cern.ch/user/y/yilinz/work/genVal_eos/genValidation/MGv2_wellnu0123j_5f_LO_MLM.yoda/MC_WPOL:ENERGY=13600/thetastar_ptw20_wminus
RatioPlotYLabel=Ratio
# END PLOT

# BEGIN HISTO1D //afs/cern.ch/user/y/yilinz/work/genVal_eos/genValidation/MGv2_wellnu0123j_5f_LO_MLM.yoda/MC_WPOL:ENERGY=13600/thetastar_ptw20_wminus
ErrorBars=1
LineColor=red
LineStyle=solid
Path=//afs/cern.ch/user/y/yilinz/work/genVal_eos/genValidation/MGv2_wellnu0123j_5f_LO_MLM.yoda/MC_WPOL:ENERGY=13600/thetastar_ptw20_wminus
ScaledBy=4.57116900016995842e-02
Title=W+0123j@LO(v2918)
# xlow	 xhigh	 val	 errminus	 errplus
-1.000000e+00	-9.800000e-01	1.041939e+03	4.966717e+01	4.966717e+01
-9.800000e-01	-9.600000e-01	1.020537e+03	4.929897e+01	4.929897e+01
-9.600000e-01	-9.400000e-01	9.076275e+02	4.633950e+01	4.633950e+01
-9.400000e-01	-9.200000e-01	9.995990e+02	4.866990e+01	4.866990e+01
-9.200000e-01	-9.000000e-01	1.038045e+03	4.970035e+01	4.970035e+01
-9.000000e-01	-8.800000e-01	9.280555e+02	4.688385e+01	4.688385e+01
-8.800000e-01	-8.600000e-01	9.677480e+02	4.756717e+01	4.756717e+01
-8.600000e-01	-8.400000e-01	8.733480e+02	4.608214e+01	4.608214e+01
-8.400000e-01	-8.200000e-01	9.234440e+02	4.680033e+01	4.680033e+01
-8.200000e-01	-8.000000e-01	8.996700e+02	4.567417e+01	4.567417e+01
-8.000000e-01	-7.800000e-01	8.287555e+02	4.471652e+01	4.471652e+01
-7.800000e-01	-7.600000e-01	9.108490e+02	4.711775e+01	4.711775e+01
-7.600000e-01	-7.400000e-01	9.997015e+02	4.894447e+01	4.894447e+01
-7.400000e-01	-7.200000e-01	9.124420e+02	4.682609e+01	4.682609e+01
-7.200000e-01	-7.000000e-01	1.011921e+03	4.961380e+01	4.961380e+01
-7.000000e-01	-6.800000e-01	8.934740e+02	4.616489e+01	4.616489e+01
-6.800000e-01	-6.600000e-01	9.120175e+02	4.693332e+01	4.693332e+01
-6.600000e-01	-6.400000e-01	8.314710e+02	4.438947e+01	4.438947e+01
-6.400000e-01	-6.200000e-01	8.898005e+02	4.630286e+01	4.630286e+01
-6.200000e-01	-6.000000e-01	9.243730e+02	4.701255e+01	4.701255e+01
-6.000000e-01	-5.800000e-01	8.651770e+02	4.484562e+01	4.484562e+01
-5.800000e-01	-5.600000e-01	8.684355e+02	4.522771e+01	4.522771e+01
-5.600000e-01	-5.400000e-01	8.258690e+02	4.406798e+01	4.406798e+01
-5.400000e-01	-5.200000e-01	8.897300e+02	4.616200e+01	4.616200e+01
-5.200000e-01	-5.000000e-01	8.865405e+02	4.618538e+01	4.618538e+01
-5.000000e-01	-4.800000e-01	8.455610e+02	4.470453e+01	4.470453e+01
-4.800000e-01	-4.600000e-01	8.867495e+02	4.586805e+01	4.586805e+01
-4.600000e-01	-4.400000e-01	8.309100e+02	4.482422e+01	4.482422e+01
-4.400000e-01	-4.200000e-01	8.760235e+02	4.586982e+01	4.586982e+01
-4.200000e-01	-4.000000e-01	8.551185e+02	4.543773e+01	4.543773e+01
-4.000000e-01	-3.800000e-01	8.687400e+02	4.559726e+01	4.559726e+01
-3.800000e-01	-3.600000e-01	8.667215e+02	4.533629e+01	4.533629e+01
-3.600000e-01	-3.400000e-01	8.282690e+02	4.444867e+01	4.444867e+01
-3.400000e-01	-3.200000e-01	8.421775e+02	4.421353e+01	4.421353e+01
-3.200000e-01	-3.000000e-01	7.577275e+02	4.217798e+01	4.217798e+01
-3.000000e-01	-2.800000e-01	8.100600e+02	4.424787e+01	4.424787e+01
-2.800000e-01	-2.600000e-01	7.825085e+02	4.282637e+01	4.282637e+01
-2.600000e-01	-2.400000e-01	8.337470e+02	4.510319e+01	4.510319e+01
-2.400000e-01	-2.200000e-01	8.210365e+02	4.407034e+01	4.407034e+01
-2.200000e-01	-2.000000e-01	8.450850e+02	4.557438e+01	4.557438e+01
-2.000000e-01	-1.800000e-01	9.069470e+02	4.649953e+01	4.649953e+01
-1.800000e-01	-1.600000e-01	8.400685e+02	4.466168e+01	4.466168e+01
-1.600000e-01	-1.400000e-01	8.144215e+02	4.392360e+01	4.392360e+01
-1.400000e-01	-1.200000e-01	8.086560e+02	4.451254e+01	4.451254e+01
-1.200000e-01	-1.000000e-01	9.107025e+02	4.667171e+01	4.667171e+01
-1.000000e-01	-8.000000e-02	7.942180e+02	4.390356e+01	4.390356e+01
-8.000000e-02	-6.000000e-02	9.854035e+02	4.860045e+01	4.860045e+01
-6.000000e-02	-4.000000e-02	8.767385e+02	4.589161e+01	4.589161e+01
-4.000000e-02	-2.000000e-02	8.760330e+02	4.586756e+01	4.586756e+01
-2.000000e-02	0.000000e+00	8.832925e+02	4.613922e+01	4.613922e+01
0.000000e+00	2.000000e-02	8.357590e+02	4.484366e+01	4.484366e+01
2.000000e-02	4.000000e-02	8.275745e+02	4.458965e+01	4.458965e+01
4.000000e-02	6.000000e-02	9.077425e+02	4.615422e+01	4.615422e+01
6.000000e-02	8.000000e-02	9.337800e+02	4.697806e+01	4.697806e+01
8.000000e-02	1.000000e-01	9.292895e+02	4.714194e+01	4.714194e+01
1.000000e-01	1.200000e-01	8.931570e+02	4.577623e+01	4.577623e+01
1.200000e-01	1.400000e-01	9.728970e+02	4.822277e+01	4.822277e+01
1.400000e-01	1.600000e-01	9.798140e+02	4.824003e+01	4.824003e+01
1.600000e-01	1.800000e-01	9.822490e+02	4.797181e+01	4.797181e+01
1.800000e-01	2.000000e-01	9.275530e+02	4.739538e+01	4.739538e+01
2.000000e-01	2.200000e-01	9.446865e+02	4.682666e+01	4.682666e+01
2.200000e-01	2.400000e-01	9.534215e+02	4.786624e+01	4.786624e+01
2.400000e-01	2.600000e-01	1.018520e+03	4.905416e+01	4.905416e+01
2.600000e-01	2.800000e-01	1.004326e+03	4.926975e+01	4.926975e+01
2.800000e-01	3.000000e-01	1.026903e+03	4.943085e+01	4.943085e+01
3.000000e-01	3.200000e-01	1.067528e+03	5.028506e+01	5.028506e+01
3.200000e-01	3.400000e-01	1.110623e+03	5.112979e+01	5.112979e+01
3.400000e-01	3.600000e-01	1.038540e+03	4.975392e+01	4.975392e+01
3.600000e-01	3.800000e-01	1.134434e+03	5.205840e+01	5.205840e+01
3.800000e-01	4.000000e-01	1.006687e+03	4.919763e+01	4.919763e+01
4.000000e-01	4.200000e-01	1.216014e+03	5.417329e+01	5.417329e+01
4.200000e-01	4.400000e-01	1.203546e+03	5.381336e+01	5.381336e+01
4.400000e-01	4.600000e-01	1.109371e+03	5.159719e+01	5.159719e+01
4.600000e-01	4.800000e-01	1.141651e+03	5.166038e+01	5.166038e+01
4.800000e-01	5.000000e-01	1.143976e+03	5.203938e+01	5.203938e+01
5.000000e-01	5.200000e-01	1.126511e+03	5.168701e+01	5.168701e+01
5.200000e-01	5.400000e-01	1.217629e+03	5.457717e+01	5.457717e+01
5.400000e-01	5.600000e-01	1.156188e+03	5.248481e+01	5.248481e+01
5.600000e-01	5.800000e-01	1.201835e+03	5.409402e+01	5.409402e+01
5.800000e-01	6.000000e-01	1.204498e+03	5.424055e+01	5.424055e+01
6.000000e-01	6.200000e-01	1.326651e+03	5.677792e+01	5.677792e+01
6.200000e-01	6.400000e-01	1.348294e+03	5.615407e+01	5.615407e+01
6.400000e-01	6.600000e-01	1.270790e+03	5.510018e+01	5.510018e+01
6.600000e-01	6.800000e-01	1.336158e+03	5.652953e+01	5.652953e+01
6.800000e-01	7.000000e-01	1.311760e+03	5.620725e+01	5.620725e+01
7.000000e-01	7.200000e-01	1.388035e+03	5.733945e+01	5.733945e+01
7.200000e-01	7.400000e-01	1.380938e+03	5.791435e+01	5.791435e+01
7.400000e-01	7.600000e-01	1.333600e+03	5.650095e+01	5.650095e+01
7.600000e-01	7.800000e-01	1.303262e+03	5.550806e+01	5.550806e+01
7.800000e-01	8.000000e-01	1.380012e+03	5.738347e+01	5.738347e+01
8.000000e-01	8.200000e-01	1.335124e+03	5.638298e+01	5.638298e+01
8.200000e-01	8.400000e-01	1.462651e+03	5.966431e+01	5.966431e+01
8.400000e-01	8.600000e-01	1.491248e+03	5.941241e+01	5.941241e+01
8.600000e-01	8.800000e-01	1.443796e+03	5.877095e+01	5.877095e+01
8.800000e-01	9.000000e-01	1.470792e+03	5.930828e+01	5.930828e+01
9.000000e-01	9.200000e-01	1.466664e+03	5.882965e+01	5.882965e+01
9.200000e-01	9.400000e-01	1.487025e+03	5.923042e+01	5.923042e+01
9.400000e-01	9.600000e-01	1.590218e+03	6.209465e+01	6.209465e+01
9.600000e-01	9.800000e-01	1.460112e+03	5.897527e+01	5.897527e+01
9.800000e-01	1.000000e+00	1.486078e+03	5.976606e+01	5.976606e+01
# END HISTO1D


# BEGIN HISTO1D //afs/cern.ch/user/y/yilinz/work/genVal_eos/genValidation/MGv356_wellnu0123j_5f_LO_MLM.yoda/MC_WPOL:ENERGY=13600/thetastar_ptw20_wminus
ErrorBars=1
LineColor=blue
LineStyle=solid
Path=//afs/cern.ch/user/y/yilinz/work/genVal_eos/genValidation/MGv356_wellnu0123j_5f_LO_MLM.yoda/MC_WPOL:ENERGY=13600/thetastar_ptw20_wminus
ScaledBy=4.45096330159377579e-02
Title=W+0123j@LO(v356)
# xlow	 xhigh	 val	 errminus	 errplus
-1.000000e+00	-9.800000e-01	1.010368e+03	4.741895e+01	4.741895e+01
-9.800000e-01	-9.600000e-01	1.079358e+03	4.901115e+01	4.901115e+01
-9.600000e-01	-9.400000e-01	9.925650e+02	4.699931e+01	4.699931e+01
-9.400000e-01	-9.200000e-01	9.725355e+02	4.652268e+01	4.652268e+01
-9.200000e-01	-9.000000e-01	1.010368e+03	4.741895e+01	4.741895e+01
-9.000000e-01	-8.800000e-01	9.970160e+02	4.710457e+01	4.710457e+01
-8.800000e-01	-8.600000e-01	1.066005e+03	4.870705e+01	4.870705e+01
-8.600000e-01	-8.400000e-01	8.723890e+02	4.406229e+01	4.406229e+01
-8.400000e-01	-8.200000e-01	9.013200e+02	4.478695e+01	4.478695e+01
-8.200000e-01	-8.000000e-01	8.790655e+02	4.423057e+01	4.423057e+01
-8.000000e-01	-7.800000e-01	8.968690e+02	4.467623e+01	4.467623e+01
-7.800000e-01	-7.600000e-01	8.390065e+02	4.321104e+01	4.321104e+01
-7.600000e-01	-7.400000e-01	9.413785e+02	4.577140e+01	4.577140e+01
-7.400000e-01	-7.200000e-01	9.569570e+02	4.614857e+01	4.614857e+01
-7.200000e-01	-7.000000e-01	8.256535e+02	4.286581e+01	4.286581e+01
-7.000000e-01	-6.800000e-01	8.835160e+02	4.434241e+01	4.434241e+01
-6.800000e-01	-6.600000e-01	8.857415e+02	4.439822e+01	4.439822e+01
-6.600000e-01	-6.400000e-01	8.123010e+02	4.251777e+01	4.251777e+01
-6.400000e-01	-6.200000e-01	8.078500e+02	4.240112e+01	4.240112e+01
-6.200000e-01	-6.000000e-01	8.812905e+02	4.428652e+01	4.428652e+01
-6.000000e-01	-5.800000e-01	8.323300e+02	4.303877e+01	4.303877e+01
-5.800000e-01	-5.600000e-01	8.390065e+02	4.321104e+01	4.321104e+01
-5.600000e-01	-5.400000e-01	8.167520e+02	4.263409e+01	4.263409e+01
-5.400000e-01	-5.200000e-01	8.033990e+02	4.228415e+01	4.228415e+01
-5.200000e-01	-5.000000e-01	8.256535e+02	4.286581e+01	4.286581e+01
-5.000000e-01	-4.800000e-01	8.634870e+02	4.383691e+01	4.383691e+01
-4.800000e-01	-4.600000e-01	7.922715e+02	4.199030e+01	4.199030e+01
-4.600000e-01	-4.400000e-01	8.634870e+02	4.383691e+01	4.383691e+01
-4.400000e-01	-4.200000e-01	8.056245e+02	4.234268e+01	4.234268e+01
-4.200000e-01	-4.000000e-01	6.988010e+02	3.943563e+01	3.943563e+01
-4.000000e-01	-3.800000e-01	7.944970e+02	4.204924e+01	4.204924e+01
-3.800000e-01	-3.600000e-01	7.210560e+02	4.005867e+01	4.005867e+01
-3.600000e-01	-3.400000e-01	8.167520e+02	4.263409e+01	4.263409e+01
-3.400000e-01	-3.200000e-01	8.011735e+02	4.222555e+01	4.222555e+01
-3.200000e-01	-3.000000e-01	8.234280e+02	4.280799e+01	4.280799e+01
-3.000000e-01	-2.800000e-01	8.323300e+02	4.303877e+01	4.303877e+01
-2.800000e-01	-2.600000e-01	7.522130e+02	4.091498e+01	4.091498e+01
-2.600000e-01	-2.400000e-01	8.790655e+02	4.423057e+01	4.423057e+01
-2.400000e-01	-2.200000e-01	7.900460e+02	4.193129e+01	4.193129e+01
-2.200000e-01	-2.000000e-01	8.212025e+02	4.275011e+01	4.275011e+01
-2.000000e-01	-1.800000e-01	9.035455e+02	4.484221e+01	4.484221e+01
-1.800000e-01	-1.600000e-01	8.657125e+02	4.389336e+01	4.389336e+01
-1.600000e-01	-1.400000e-01	8.011735e+02	4.222555e+01	4.222555e+01
-1.400000e-01	-1.200000e-01	8.011735e+02	4.222555e+01	4.222555e+01
-1.200000e-01	-1.000000e-01	8.990945e+02	4.473163e+01	4.473163e+01
-1.000000e-01	-8.000000e-02	8.968690e+02	4.467623e+01	4.467623e+01
-8.000000e-02	-6.000000e-02	8.879670e+02	4.445396e+01	4.445396e+01
-6.000000e-02	-4.000000e-02	8.100755e+02	4.245948e+01	4.245948e+01
-4.000000e-02	-2.000000e-02	7.944970e+02	4.204924e+01	4.204924e+01
-2.000000e-02	0.000000e+00	8.367810e+02	4.315369e+01	4.315369e+01
0.000000e+00	2.000000e-02	7.900460e+02	4.193129e+01	4.193129e+01
2.000000e-02	4.000000e-02	9.013200e+02	4.478695e+01	4.478695e+01
4.000000e-02	6.000000e-02	8.657125e+02	4.389336e+01	4.389336e+01
6.000000e-02	8.000000e-02	9.525060e+02	4.604112e+01	4.604112e+01
8.000000e-02	1.000000e-01	9.035455e+02	4.484221e+01	4.484221e+01
1.000000e-01	1.200000e-01	9.547315e+02	4.609488e+01	4.609488e+01
1.200000e-01	1.400000e-01	9.569570e+02	4.614857e+01	4.614857e+01
1.400000e-01	1.600000e-01	9.458295e+02	4.587948e+01	4.587948e+01
1.600000e-01	1.800000e-01	9.658590e+02	4.636272e+01	4.636272e+01
1.800000e-01	2.000000e-01	9.881140e+02	4.689381e+01	4.689381e+01
2.000000e-01	2.200000e-01	9.658590e+02	4.636272e+01	4.636272e+01
2.200000e-01	2.400000e-01	9.680845e+02	4.641610e+01	4.641610e+01
2.400000e-01	2.600000e-01	1.034849e+03	4.798997e+01	4.798997e+01
2.600000e-01	2.800000e-01	1.001466e+03	4.720959e+01	4.720959e+01
2.800000e-01	3.000000e-01	1.034849e+03	4.798997e+01	4.798997e+01
3.000000e-01	3.200000e-01	1.074907e+03	4.890999e+01	4.890999e+01
3.200000e-01	3.400000e-01	9.591825e+02	4.620220e+01	4.620220e+01
3.400000e-01	3.600000e-01	1.008143e+03	4.736670e+01	4.736670e+01
3.600000e-01	3.800000e-01	9.769865e+02	4.662902e+01	4.662902e+01
3.800000e-01	4.000000e-01	1.063780e+03	4.865618e+01	4.865618e+01
4.000000e-01	4.200000e-01	1.177280e+03	5.118608e+01	5.118608e+01
4.200000e-01	4.400000e-01	1.208436e+03	5.185897e+01	5.185897e+01
4.400000e-01	4.600000e-01	1.097162e+03	4.941371e+01	4.941371e+01
4.600000e-01	4.800000e-01	1.159476e+03	5.079756e+01	5.079756e+01
4.800000e-01	5.000000e-01	1.141672e+03	5.040605e+01	5.040605e+01
5.000000e-01	5.200000e-01	1.161701e+03	5.084629e+01	5.084629e+01
5.200000e-01	5.400000e-01	1.152799e+03	5.065111e+01	5.065111e+01
5.400000e-01	5.600000e-01	1.210662e+03	5.190670e+01	5.190670e+01
5.600000e-01	5.800000e-01	1.148349e+03	5.055321e+01	5.055321e+01
5.800000e-01	6.000000e-01	1.250720e+03	5.275846e+01	5.275846e+01
6.000000e-01	6.200000e-01	1.159476e+03	5.079756e+01	5.079756e+01
6.200000e-01	6.400000e-01	1.224015e+03	5.219217e+01	5.219217e+01
6.400000e-01	6.600000e-01	1.179505e+03	5.123444e+01	5.123444e+01
6.600000e-01	6.800000e-01	1.257397e+03	5.289910e+01	5.289910e+01
6.800000e-01	7.000000e-01	1.335289e+03	5.451293e+01	5.451293e+01
7.000000e-01	7.200000e-01	1.226240e+03	5.223959e+01	5.223959e+01
7.200000e-01	7.400000e-01	1.257397e+03	5.289910e+01	5.289910e+01
7.400000e-01	7.600000e-01	1.437661e+03	5.656401e+01	5.656401e+01
7.600000e-01	7.800000e-01	1.339740e+03	5.460373e+01	5.460373e+01
7.800000e-01	8.000000e-01	1.313034e+03	5.405675e+01	5.405675e+01
8.000000e-01	8.200000e-01	1.310809e+03	5.401092e+01	5.401092e+01
8.200000e-01	8.400000e-01	1.410955e+03	5.603619e+01	5.603619e+01
8.400000e-01	8.600000e-01	1.377573e+03	5.536933e+01	5.536933e+01
8.600000e-01	8.800000e-01	1.457690e+03	5.695667e+01	5.695667e+01
8.800000e-01	9.000000e-01	1.451014e+03	5.682609e+01	5.682609e+01
9.000000e-01	9.200000e-01	1.410955e+03	5.603619e+01	5.603619e+01
9.200000e-01	9.400000e-01	1.388701e+03	5.559251e+01	5.559251e+01
9.400000e-01	9.600000e-01	1.386475e+03	5.554795e+01	5.554795e+01
9.600000e-01	9.800000e-01	1.591219e+03	5.950823e+01	5.950823e+01
9.800000e-01	1.000000e+00	1.462141e+03	5.704358e+01	5.704358e+01
# END HISTO1D


# BEGIN HISTO1D //afs/cern.ch/user/y/yilinz/work/genVal_eos/genValidation/MGv3_wellnu0123j_5f_LO_MLM.yoda/MC_WPOL:ENERGY=13600/thetastar_ptw20_wminus
ErrorBars=1
LineColor=green
LineStyle=solid
Path=//afs/cern.ch/user/y/yilinz/work/genVal_eos/genValidation/MGv3_wellnu0123j_5f_LO_MLM.yoda/MC_WPOL:ENERGY=13600/thetastar_ptw20_wminus
ScaledBy=4.56949345470853766e-02
Title=W+0123j@LO(v352)
# xlow	 xhigh	 val	 errminus	 errplus
-1.000000e+00	-9.800000e-01	1.025851e+03	4.841291e+01	4.841291e+01
-9.800000e-01	-9.600000e-01	1.073831e+03	4.953213e+01	4.953213e+01
-9.600000e-01	-9.400000e-01	9.276070e+02	4.603637e+01	4.603637e+01
-9.400000e-01	-9.200000e-01	1.041845e+03	4.878884e+01	4.878884e+01
-9.200000e-01	-9.000000e-01	1.014427e+03	4.814260e+01	4.814260e+01
-9.000000e-01	-8.800000e-01	9.984345e+02	4.776159e+01	4.776159e+01
-8.800000e-01	-8.600000e-01	9.915800e+02	4.759737e+01	4.759737e+01
-8.600000e-01	-8.400000e-01	1.009858e+03	4.803405e+01	4.803405e+01
-8.400000e-01	-8.200000e-01	9.047595e+02	4.546589e+01	4.546589e+01
-8.200000e-01	-8.000000e-01	9.481700e+02	4.654383e+01	4.654383e+01
-8.000000e-01	-7.800000e-01	1.005288e+03	4.792525e+01	4.792525e+01
-7.800000e-01	-7.600000e-01	8.704885e+02	4.459648e+01	4.459648e+01
-7.600000e-01	-7.400000e-01	8.864815e+02	4.500429e+01	4.500429e+01
-7.400000e-01	-7.200000e-01	9.413155e+02	4.637529e+01	4.637529e+01
-7.200000e-01	-7.000000e-01	1.005288e+03	4.792525e+01	4.792525e+01
-7.000000e-01	-6.800000e-01	8.636345e+02	4.442055e+01	4.442055e+01
-6.800000e-01	-6.600000e-01	8.841970e+02	4.494626e+01	4.494626e+01
-6.600000e-01	-6.400000e-01	8.453565e+02	4.394798e+01	4.394798e+01
-6.400000e-01	-6.200000e-01	7.996615e+02	4.274370e+01	4.274370e+01
-6.200000e-01	-6.000000e-01	8.887665e+02	4.506225e+01	4.506225e+01
-6.000000e-01	-5.800000e-01	8.979055e+02	4.529334e+01	4.529334e+01
-5.800000e-01	-5.600000e-01	8.156545e+02	4.316902e+01	4.316902e+01
-5.600000e-01	-5.400000e-01	8.613495e+02	4.436176e+01	4.436176e+01
-5.400000e-01	-5.200000e-01	9.070445e+02	4.552326e+01	4.552326e+01
-5.200000e-01	-5.000000e-01	8.339325e+02	4.365003e+01	4.365003e+01
-5.000000e-01	-4.800000e-01	7.722445e+02	4.200456e+01	4.200456e+01
-4.800000e-01	-4.600000e-01	8.636345e+02	4.442055e+01	4.442055e+01
-4.600000e-01	-4.400000e-01	8.544955e+02	4.418490e+01	4.418490e+01
-4.400000e-01	-4.200000e-01	8.567800e+02	4.424393e+01	4.424393e+01
-4.200000e-01	-4.000000e-01	8.727730e+02	4.465496e+01	4.465496e+01
-4.000000e-01	-3.800000e-01	8.682040e+02	4.453791e+01	4.453791e+01
-3.800000e-01	-3.600000e-01	7.973765e+02	4.268259e+01	4.268259e+01
-3.600000e-01	-3.400000e-01	8.910510e+02	4.512013e+01	4.512013e+01
-3.400000e-01	-3.200000e-01	8.088005e+02	4.298725e+01	4.298725e+01
-3.200000e-01	-3.000000e-01	8.544955e+02	4.418490e+01	4.418490e+01
-3.000000e-01	-2.800000e-01	8.247935e+02	4.341019e+01	4.341019e+01
-2.800000e-01	-2.600000e-01	9.070445e+02	4.552326e+01	4.552326e+01
-2.600000e-01	-2.400000e-01	8.225090e+02	4.335002e+01	4.335002e+01
-2.400000e-01	-2.200000e-01	7.790985e+02	4.219056e+01	4.219056e+01
-2.200000e-01	-2.000000e-01	9.390310e+02	4.631898e+01	4.631898e+01
-2.000000e-01	-1.800000e-01	8.202240e+02	4.328977e+01	4.328977e+01
-1.800000e-01	-1.600000e-01	8.042310e+02	4.286565e+01	4.286565e+01
-1.600000e-01	-1.400000e-01	8.910510e+02	4.512013e+01	4.512013e+01
-1.400000e-01	-1.200000e-01	8.179395e+02	4.322944e+01	4.322944e+01
-1.200000e-01	-1.000000e-01	9.276070e+02	4.603637e+01	4.603637e+01
-1.000000e-01	-8.000000e-02	8.499260e+02	4.406660e+01	4.406660e+01
-8.000000e-02	-6.000000e-02	8.933360e+02	4.517794e+01	4.517794e+01
-6.000000e-02	-4.000000e-02	9.184680e+02	4.580903e+01	4.580903e+01
-4.000000e-02	-2.000000e-02	8.887665e+02	4.506225e+01	4.506225e+01
-2.000000e-02	0.000000e+00	8.887665e+02	4.506225e+01	4.506225e+01
0.000000e+00	2.000000e-02	9.070445e+02	4.552326e+01	4.552326e+01
2.000000e-02	4.000000e-02	8.407870e+02	4.382904e+01	4.382904e+01
4.000000e-02	6.000000e-02	8.887665e+02	4.506225e+01	4.506225e+01
6.000000e-02	8.000000e-02	8.727730e+02	4.465496e+01	4.465496e+01
8.000000e-02	1.000000e-01	8.727730e+02	4.465496e+01	4.465496e+01
1.000000e-01	1.200000e-01	9.664480e+02	4.699030e+01	4.699030e+01
1.200000e-01	1.400000e-01	9.436005e+02	4.643154e+01	4.643154e+01
1.400000e-01	1.600000e-01	9.527395e+02	4.665585e+01	4.665585e+01
1.600000e-01	1.800000e-01	9.595935e+02	4.682338e+01	4.682338e+01
1.800000e-01	2.000000e-01	1.087539e+03	4.984729e+01	4.984729e+01
2.000000e-01	2.200000e-01	9.321765e+02	4.614962e+01	4.614962e+01
2.200000e-01	2.400000e-01	1.012143e+03	4.808836e+01	4.808836e+01
2.400000e-01	2.600000e-01	1.003004e+03	4.787076e+01	4.787076e+01
2.600000e-01	2.800000e-01	1.016712e+03	4.819678e+01	4.819678e+01
2.800000e-01	3.000000e-01	1.028136e+03	4.846680e+01	4.846680e+01
3.000000e-01	3.200000e-01	9.801565e+02	4.732239e+01	4.732239e+01
3.200000e-01	3.400000e-01	1.050983e+03	4.900236e+01	4.900236e+01
3.400000e-01	3.600000e-01	1.034991e+03	4.862809e+01	4.862809e+01
3.600000e-01	3.800000e-01	1.089824e+03	4.989962e+01	4.989962e+01
3.800000e-01	4.000000e-01	1.153797e+03	5.134331e+01	5.134331e+01
4.000000e-01	4.200000e-01	9.847260e+02	4.743258e+01	4.743258e+01
4.200000e-01	4.400000e-01	1.137804e+03	5.098620e+01	5.098620e+01
4.400000e-01	4.600000e-01	1.169790e+03	5.169792e+01	5.169792e+01
4.600000e-01	4.800000e-01	1.169791e+03	5.169792e+01	5.169792e+01
4.800000e-01	5.000000e-01	1.245187e+03	5.333796e+01	5.333796e+01
5.000000e-01	5.200000e-01	1.151512e+03	5.129245e+01	5.129245e+01
5.200000e-01	5.400000e-01	1.149227e+03	5.124154e+01	5.124154e+01
5.400000e-01	5.600000e-01	1.288597e+03	5.425972e+01	5.425972e+01
5.600000e-01	5.800000e-01	1.252041e+03	5.348455e+01	5.348455e+01
5.800000e-01	6.000000e-01	1.245187e+03	5.333796e+01	5.333796e+01
6.000000e-01	6.200000e-01	1.286312e+03	5.421160e+01	5.421160e+01
6.200000e-01	6.400000e-01	1.254326e+03	5.353333e+01	5.353333e+01
6.400000e-01	6.600000e-01	1.277173e+03	5.401868e+01	5.401868e+01
6.600000e-01	6.800000e-01	1.222339e+03	5.284633e+01	5.284633e+01
6.800000e-01	7.000000e-01	1.290882e+03	5.430780e+01	5.430780e+01
7.000000e-01	7.200000e-01	1.258895e+03	5.363075e+01	5.363075e+01
7.200000e-01	7.400000e-01	1.272604e+03	5.392196e+01	5.392196e+01
7.400000e-01	7.600000e-01	1.318299e+03	5.488151e+01	5.488151e+01
7.600000e-01	7.800000e-01	1.359424e+03	5.573096e+01	5.573096e+01
7.800000e-01	8.000000e-01	1.343431e+03	5.540217e+01	5.540217e+01
8.000000e-01	8.200000e-01	1.316014e+03	5.483393e+01	5.483393e+01
8.200000e-01	8.400000e-01	1.373133e+03	5.601125e+01	5.601125e+01
8.400000e-01	8.600000e-01	1.473661e+03	5.802536e+01	5.802536e+01
8.600000e-01	8.800000e-01	1.528495e+03	5.909505e+01	5.909505e+01
8.800000e-01	9.000000e-01	1.569621e+03	5.988479e+01	5.988479e+01
9.000000e-01	9.200000e-01	1.482800e+03	5.820503e+01	5.820503e+01
9.200000e-01	9.400000e-01	1.514787e+03	5.882946e+01	5.882946e+01
9.400000e-01	9.600000e-01	1.590183e+03	6.027576e+01	6.027576e+01
9.600000e-01	9.800000e-01	1.597038e+03	6.040553e+01	6.040553e+01
9.800000e-01	1.000000e+00	1.533065e+03	5.918332e+01	5.918332e+01
# END HISTO1D

