# BEGIN PLOT
Legend=1
LogY=0
Title=Charge asymmetry vs. $p_\perp(W)$
XLabel=$p_\perp(W)$ [GeV]
YLabel=$\mathrm{d}\sigma(W^+)\;/\;\mathrm{d}\sigma(W^-)$
LogX=1
Scale=1.0
YMin=0.0
YMax=3.0
RemoveOptions=1
DrawOnly=//afs/cern.ch/user/y/yilinz/work/genVal_eos/genValidation/MGv2_NLO_May26.yoda/MC_WINC:ENERGY=13600/W_chargeasymm_pT //afs/cern.ch/user/y/yilinz/work/genVal_eos/genValidation/MGv356_wellnu01j_5f_NLO_FXFX.yoda/MC_WINC:ENERGY=13600/W_chargeasymm_pT //afs/cern.ch/user/y/yilinz/work/genVal_eos/genValidation/MGv3_NLO_May26.yoda/MC_WINC:ENERGY=13600/W_chargeasymm_pT
LegendOnly=//afs/cern.ch/user/y/yilinz/work/genVal_eos/genValidation/MGv2_NLO_May26.yoda/MC_WINC:ENERGY=13600/W_chargeasymm_pT //afs/cern.ch/user/y/yilinz/work/genVal_eos/genValidation/MGv356_wellnu01j_5f_NLO_FXFX.yoda/MC_WINC:ENERGY=13600/W_chargeasymm_pT //afs/cern.ch/user/y/yilinz/work/genVal_eos/genValidation/MGv3_NLO_May26.yoda/MC_WINC:ENERGY=13600/W_chargeasymm_pT
RatioPlot=1
RatioPlotReference=//afs/cern.ch/user/y/yilinz/work/genVal_eos/genValidation/MGv2_NLO_May26.yoda/MC_WINC:ENERGY=13600/W_chargeasymm_pT
RatioPlotYLabel=Ratio
# END PLOT

# BEGIN HISTO1D //afs/cern.ch/user/y/yilinz/work/genVal_eos/genValidation/MGv2_NLO_May26.yoda/MC_WINC:ENERGY=13600/W_chargeasymm_pT
ErrorBars=1
ErrorBreakdown={0: {"": {up: 0.04377330042544775, dn: 0.04377330042544775}}, 1: {"": {up: 0.04125747518394433, dn: 0.04125747518394433}}, 2: {"": {up: 0.04455813945222636, dn: 0.04455813945222636}}, 3: {"": {up: 0.04495795260187303, dn: 0.04495795260187303}}, 4: {"": {up: 0.05820255535540418, dn: 0.05820255535540418}}, 5: {"": {up: 0.07374376304439731, dn: 0.07374376304439731}}, 6: {"": {up: 0.1021666239317107, dn: 0.1021666239317107}}, 7: {"": {up: 0.1283621023236736, dn: 0.1283621023236736}}, 8: {"": {up: 0.1616142585129847, dn: 0.1616142585129847}}, 9: {"": {up: 0.188254615855462, dn: 0.188254615855462}}, 10: {"": {up: 0.2956303263575196, dn: 0.2956303263575196}}, 11: {"": {up: 0.3853319792944613, dn: 0.3853319792944613}}, 12: {"": {up: 0.683666719261671, dn: 0.683666719261671}}, 13: {"": {up: 0.463712852634207, dn: 0.463712852634207}}, 14: {"": {up: 0.6422800548160281, dn: 0.6422800548160281}}, 15: {"": {up: nan, dn: nan}}, 16: {"": {up: nan, dn: nan}}, 17: {"": {up: nan, dn: nan}}, 18: {"": {up: nan, dn: nan}}, 19: {"": {up: nan, dn: nan}}, 20: {"": {up: nan, dn: nan}}, 21: {"": {up: nan, dn: nan}}, 22: {"": {up: nan, dn: nan}}, 23: {"": {up: nan, dn: nan}}, 24: {"": {up: nan, dn: nan}}}
LineColor=red
LineStyle=solid
Path=//afs/cern.ch/user/y/yilinz/work/genVal_eos/genValidation/MGv2_NLO_May26.yoda/MC_WINC:ENERGY=13600/W_chargeasymm_pT
Title=W+01j@NLO(v2918)
# xlow	 xhigh	 val	 errminus	 errplus
9.999996e+00	1.298076e+01	1.434799e+00	4.377330e-02	4.377330e-02
1.298077e+01	1.685003e+01	1.325052e+00	4.125748e-02	4.125748e-02
1.685003e+01	2.187263e+01	1.363542e+00	4.455814e-02	4.455814e-02
2.187263e+01	2.839235e+01	1.291816e+00	4.495795e-02	4.495795e-02
2.839236e+01	3.685546e+01	1.351939e+00	5.820256e-02	5.820256e-02
3.685545e+01	4.784121e+01	1.331083e+00	7.374376e-02	7.374376e-02
4.784121e+01	6.210156e+01	1.420305e+00	1.021666e-01	1.021666e-01
6.210156e+01	8.061258e+01	1.481186e+00	1.283621e-01	1.283621e-01
8.061258e+01	1.046413e+02	1.531371e+00	1.616143e-01	1.616143e-01
1.046413e+02	1.358325e+02	1.434237e+00	1.882546e-01	1.882546e-01
1.358324e+02	1.763209e+02	1.614411e+00	2.956303e-01	2.956303e-01
1.763209e+02	2.288781e+02	1.402417e+00	3.853320e-01	3.853320e-01
2.288781e+02	2.971013e+02	1.725439e+00	6.836667e-01	6.836667e-01
2.971014e+02	3.856604e+02	6.504773e-01	4.637129e-01	4.637129e-01
3.856603e+02	5.006167e+02	7.274096e-01	6.422801e-01	6.422801e-01
5.006167e+02	6.498389e+02	nan	nan	nan
6.498389e+02	8.435407e+02	nan	nan	nan
8.435408e+02	1.094981e+03	nan	nan	nan
1.094981e+03	1.421369e+03	nan	nan	nan
1.421369e+03	1.845046e+03	nan	nan	nan
1.845045e+03	2.395011e+03	nan	nan	nan
2.395010e+03	3.108907e+03	nan	nan	nan
3.108907e+03	4.035601e+03	nan	nan	nan
4.035601e+03	5.238519e+03	nan	nan	nan
5.238520e+03	6.800000e+03	nan	nan	nan
# END HISTO1D


# BEGIN HISTO1D //afs/cern.ch/user/y/yilinz/work/genVal_eos/genValidation/MGv356_wellnu01j_5f_NLO_FXFX.yoda/MC_WINC:ENERGY=13600/W_chargeasymm_pT
ErrorBars=1
ErrorBreakdown={0: {"": {up: 0.03881676522296437, dn: 0.03881676522296437}}, 1: {"": {up: 0.03907511406961754, dn: 0.03907511406961754}}, 2: {"": {up: 0.04153763312882686, dn: 0.04153763312882686}}, 3: {"": {up: 0.04434732930947251, dn: 0.04434732930947251}}, 4: {"": {up: 0.05312377910401304, dn: 0.05312377910401304}}, 5: {"": {up: 0.06867981119793937, dn: 0.06867981119793937}}, 6: {"": {up: 0.1006443718818848, dn: 0.1006443718818848}}, 7: {"": {up: 0.1128221741169442, dn: 0.1128221741169442}}, 8: {"": {up: 0.10634207554196, dn: 0.10634207554196}}, 9: {"": {up: 0.198386518269952, dn: 0.198386518269952}}, 10: {"": {up: 0.3256355106655957, dn: 0.3256355106655957}}, 11: {"": {up: 0.3201782710830281, dn: 0.3201782710830281}}, 12: {"": {up: 1.004123720817341, dn: 1.004123720817341}}, 13: {"": {up: 0.484479425028958, dn: 0.484479425028958}}, 14: {"": {up: 1.414213551080688, dn: 1.414213551080688}}, 15: {"": {up: -1.414213551080688, dn: -1.414213551080688}}, 16: {"": {up: nan, dn: nan}}, 17: {"": {up: nan, dn: nan}}, 18: {"": {up: nan, dn: nan}}, 19: {"": {up: nan, dn: nan}}, 20: {"": {up: nan, dn: nan}}, 21: {"": {up: nan, dn: nan}}, 22: {"": {up: nan, dn: nan}}, 23: {"": {up: nan, dn: nan}}, 24: {"": {up: nan, dn: nan}}}
LineColor=blue
LineStyle=solid
Path=//afs/cern.ch/user/y/yilinz/work/genVal_eos/genValidation/MGv356_wellnu01j_5f_NLO_FXFX.yoda/MC_WINC:ENERGY=13600/W_chargeasymm_pT
Title=W+01j@NLO(v356)
# xlow	 xhigh	 val	 errminus	 errplus
9.999996e+00	1.298076e+01	1.347196e+00	3.881677e-02	3.881677e-02
1.298077e+01	1.685003e+01	1.325441e+00	3.907511e-02	3.907511e-02
1.685003e+01	2.187263e+01	1.347295e+00	4.153763e-02	4.153763e-02
2.187263e+01	2.839235e+01	1.316977e+00	4.434733e-02	4.434733e-02
2.839236e+01	3.685546e+01	1.350473e+00	5.312378e-02	5.312378e-02
3.685545e+01	4.784121e+01	1.316840e+00	6.867981e-02	6.867981e-02
4.784121e+01	6.210156e+01	1.411936e+00	1.006444e-01	1.006444e-01
6.210156e+01	8.061258e+01	1.359684e+00	1.128222e-01	1.128222e-01
8.061258e+01	1.046413e+02	1.152850e+00	1.063421e-01	1.063421e-01
1.046413e+02	1.358325e+02	1.395062e+00	1.983865e-01	1.983865e-01
1.358324e+02	1.763209e+02	1.883721e+00	3.256355e-01	3.256355e-01
1.763209e+02	2.288781e+02	1.377778e+00	3.201783e-01	3.201783e-01
2.288781e+02	2.971013e+02	2.000000e+00	1.004124e+00	1.004124e+00
2.971014e+02	3.856604e+02	5.555556e-01	4.844794e-01	4.844794e-01
3.856603e+02	5.006167e+02	1.000000e+00	1.414214e+00	1.414214e+00
5.006167e+02	6.498389e+02	-1.000000e+00	-1.414214e+00	-1.414214e+00
6.498389e+02	8.435407e+02	nan	nan	nan
8.435408e+02	1.094981e+03	nan	nan	nan
1.094981e+03	1.421369e+03	nan	nan	nan
1.421369e+03	1.845046e+03	nan	nan	nan
1.845045e+03	2.395011e+03	nan	nan	nan
2.395010e+03	3.108907e+03	nan	nan	nan
3.108907e+03	4.035601e+03	nan	nan	nan
4.035601e+03	5.238519e+03	nan	nan	nan
5.238520e+03	6.800000e+03	nan	nan	nan
# END HISTO1D


# BEGIN HISTO1D //afs/cern.ch/user/y/yilinz/work/genVal_eos/genValidation/MGv3_NLO_May26.yoda/MC_WINC:ENERGY=13600/W_chargeasymm_pT
ErrorBars=1
ErrorBreakdown={0: {"": {up: 0.04149362108623175, dn: 0.04149362108623175}}, 1: {"": {up: 0.0390656684215419, dn: 0.0390656684215419}}, 2: {"": {up: 0.04087182886212663, dn: 0.04087182886212663}}, 3: {"": {up: 0.04362292747114229, dn: 0.04362292747114229}}, 4: {"": {up: 0.04792010875752811, dn: 0.04792010875752811}}, 5: {"": {up: 0.07222933907297421, dn: 0.07222933907297421}}, 6: {"": {up: 0.1168338538040261, dn: 0.1168338538040261}}, 7: {"": {up: 0.1433813865958135, dn: 0.1433813865958135}}, 8: {"": {up: 0.1460891733475027, dn: 0.1460891733475027}}, 9: {"": {up: 0.1717522066387198, dn: 0.1717522066387198}}, 10: {"": {up: 0.2606430115206951, dn: 0.2606430115206951}}, 11: {"": {up: 0.331649834331918, dn: 0.331649834331918}}, 12: {"": {up: 1.162678033365278, dn: 1.162678033365278}}, 13: {"": {up: 0.3091642932195657, dn: 0.3091642932195657}}, 14: {"": {up: 0.86602539686928, dn: 0.86602539686928}}, 15: {"": {up: 0.9999999920150626, dn: 0.9999999920150626}}, 16: {"": {up: nan, dn: nan}}, 17: {"": {up: nan, dn: nan}}, 18: {"": {up: nan, dn: nan}}, 19: {"": {up: nan, dn: nan}}, 20: {"": {up: nan, dn: nan}}, 21: {"": {up: nan, dn: nan}}, 22: {"": {up: nan, dn: nan}}, 23: {"": {up: nan, dn: nan}}, 24: {"": {up: nan, dn: nan}}}
LineColor=green
LineStyle=solid
Path=//afs/cern.ch/user/y/yilinz/work/genVal_eos/genValidation/MGv3_NLO_May26.yoda/MC_WINC:ENERGY=13600/W_chargeasymm_pT
Title=W+01j@NLO(v352)
# xlow	 xhigh	 val	 errminus	 errplus
9.999996e+00	1.298076e+01	1.411624e+00	4.149362e-02	4.149362e-02
1.298077e+01	1.685003e+01	1.316359e+00	3.906567e-02	3.906567e-02
1.685003e+01	2.187263e+01	1.319438e+00	4.087183e-02	4.087183e-02
2.187263e+01	2.839235e+01	1.295678e+00	4.362293e-02	4.362293e-02
2.839236e+01	3.685546e+01	1.208381e+00	4.792011e-02	4.792011e-02
3.685545e+01	4.784121e+01	1.334242e+00	7.222934e-02	7.222934e-02
4.784121e+01	6.210156e+01	1.656394e+00	1.168339e-01	1.168339e-01
6.210156e+01	8.061258e+01	1.716854e+00	1.433814e-01	1.433814e-01
8.061258e+01	1.046413e+02	1.445161e+00	1.460892e-01	1.460892e-01
1.046413e+02	1.358325e+02	1.326203e+00	1.717522e-01	1.717522e-01
1.358324e+02	1.763209e+02	1.500000e+00	2.606430e-01	2.606430e-01
1.763209e+02	2.288781e+02	1.382979e+00	3.316498e-01	3.316498e-01
2.288781e+02	2.971013e+02	2.727273e+00	1.162678e+00	1.162678e+00
2.971014e+02	3.856604e+02	5.833333e-01	3.091643e-01	3.091643e-01
3.856603e+02	5.006167e+02	1.000000e+00	8.660254e-01	8.660254e-01
5.006167e+02	6.498389e+02	1.000000e+00	1.000000e+00	1.000000e+00
6.498389e+02	8.435407e+02	nan	nan	nan
8.435408e+02	1.094981e+03	nan	nan	nan
1.094981e+03	1.421369e+03	nan	nan	nan
1.421369e+03	1.845046e+03	nan	nan	nan
1.845045e+03	2.395011e+03	nan	nan	nan
2.395010e+03	3.108907e+03	nan	nan	nan
3.108907e+03	4.035601e+03	nan	nan	nan
4.035601e+03	5.238519e+03	nan	nan	nan
5.238520e+03	6.800000e+03	nan	nan	nan
# END HISTO1D

