# BEGIN PLOT
Legend=1
LogY=1
Title=Mass of first jet
XLabel=$m(\mathrm{jet~1})$
YLabel=$\mathrm{d}\sigma/\mathrm{d}m(\mathrm{jet~1})$ [pb/GeV]
RemoveOptions=1
DrawOnly=//eos/home-y/yilinz/genVal_eos/genValidation/MGv2_wellnu0123j_5f_LO_MLM.yoda/MC_WJETS:ENERGY=13600/jet_mass_1 //eos/home-y/yilinz/genVal_eos/genValidation/MGv356_wellnu0123j_5f_LO_MLM.yoda/MC_WJETS:ENERGY=13600/jet_mass_1
LegendOnly=//eos/home-y/yilinz/genVal_eos/genValidation/MGv2_wellnu0123j_5f_LO_MLM.yoda/MC_WJETS:ENERGY=13600/jet_mass_1 //eos/home-y/yilinz/genVal_eos/genValidation/MGv356_wellnu0123j_5f_LO_MLM.yoda/MC_WJETS:ENERGY=13600/jet_mass_1
RatioPlot=1
RatioPlotReference=//eos/home-y/yilinz/genVal_eos/genValidation/MGv2_wellnu0123j_5f_LO_MLM.yoda/MC_WJETS:ENERGY=13600/jet_mass_1
RatioPlotYLabel=Ratio
# END PLOT

# BEGIN HISTO1D //eos/home-y/yilinz/genVal_eos/genValidation/MGv2_wellnu0123j_5f_LO_MLM.yoda/MC_WJETS:ENERGY=13600/jet_mass_1
ErrorBars=1
LineColor=red
LineStyle=solid
Path=//eos/home-y/yilinz/genVal_eos/genValidation/MGv2_wellnu0123j_5f_LO_MLM.yoda/MC_WJETS:ENERGY=13600/jet_mass_1
ScaledBy=4.57116900016995842e-02
Title=W+0123j@LO(v2918)
# xlow	 xhigh	 val	 errminus	 errplus
1.000000e+00	1.047129e+00	2.216277e+01	4.769121e+00	4.769121e+00
1.047129e+00	1.096478e+00	1.859021e+01	4.353583e+00	4.353583e+00
1.096478e+00	1.148154e+00	1.803222e+01	4.074866e+00	4.074866e+00
1.148154e+00	1.202264e+00	1.648802e+01	3.727324e+00	3.727324e+00
1.202264e+00	1.258925e+00	2.313201e+01	4.429634e+00	4.429634e+00
1.258925e+00	1.318257e+00	2.436596e+01	4.436842e+00	4.436842e+00
1.318257e+00	1.380384e+00	2.162280e+01	3.922838e+00	3.922838e+00
1.380384e+00	1.445440e+00	2.865593e+01	4.498180e+00	4.498180e+00
1.445440e+00	1.513561e+00	2.873938e+01	4.321136e+00	4.321136e+00
1.513561e+00	1.584893e+00	3.565398e+01	4.780338e+00	4.780338e+00
1.584893e+00	1.659587e+00	3.118151e+01	4.372819e+00	4.372819e+00
1.659587e+00	1.737801e+00	3.874661e+01	4.806791e+00	4.806791e+00
1.737801e+00	1.819701e+00	4.613100e+01	5.195334e+00	5.195334e+00
1.819701e+00	1.905461e+00	4.995506e+01	5.282874e+00	5.282874e+00
1.905461e+00	1.995262e+00	4.658083e+01	4.910010e+00	4.910010e+00
1.995262e+00	2.089296e+00	4.865756e+01	4.870962e+00	4.870962e+00
2.089296e+00	2.187762e+00	4.413395e+01	4.579195e+00	4.579195e+00
2.187762e+00	2.290868e+00	6.135704e+01	5.181025e+00	5.181025e+00
2.290868e+00	2.398833e+00	7.535792e+01	5.714802e+00	5.714802e+00
2.398833e+00	2.511886e+00	7.450612e+01	5.527899e+00	5.527899e+00
2.511886e+00	2.630268e+00	8.278054e+01	5.720253e+00	5.720253e+00
2.630268e+00	2.754229e+00	9.178104e+01	5.920560e+00	5.920560e+00
2.754229e+00	2.884032e+00	9.724829e+01	5.907115e+00	5.907115e+00
2.884032e+00	3.019952e+00	1.133225e+02	6.247472e+00	6.247472e+00
3.019952e+00	3.162278e+00	1.348985e+02	6.632424e+00	6.632424e+00
3.162278e+00	3.311311e+00	1.506143e+02	6.882884e+00	6.882884e+00
3.311311e+00	3.467369e+00	1.801915e+02	7.348692e+00	7.348692e+00
3.467369e+00	3.630781e+00	1.719173e+02	6.960020e+00	6.960020e+00
3.630781e+00	3.801894e+00	2.043464e+02	7.446872e+00	7.446872e+00
3.801894e+00	3.981072e+00	2.418788e+02	7.978170e+00	7.978170e+00
3.981072e+00	4.168694e+00	2.559480e+02	8.027556e+00	8.027556e+00
4.168694e+00	4.365158e+00	2.811011e+02	8.234619e+00	8.234619e+00
4.365158e+00	4.570882e+00	2.860821e+02	8.076063e+00	8.076063e+00
4.570882e+00	4.786301e+00	3.125856e+02	8.251294e+00	8.251294e+00
4.786301e+00	5.011872e+00	3.143252e+02	8.107073e+00	8.107073e+00
5.011872e+00	5.248075e+00	3.470814e+02	8.364253e+00	8.364253e+00
5.248075e+00	5.495409e+00	3.491223e+02	8.154019e+00	8.154019e+00
5.495409e+00	5.754399e+00	3.436561e+02	7.932902e+00	7.932902e+00
5.754399e+00	6.025596e+00	3.401169e+02	7.710107e+00	7.710107e+00
6.025596e+00	6.309573e+00	3.393401e+02	7.517251e+00	7.517251e+00
6.309573e+00	6.606934e+00	3.334120e+02	7.300151e+00	7.300151e+00
6.606934e+00	6.918310e+00	3.180807e+02	6.996127e+00	6.996127e+00
6.918310e+00	7.244360e+00	3.108667e+02	6.748663e+00	6.748663e+00
7.244360e+00	7.585776e+00	2.740596e+02	6.190444e+00	6.190444e+00
7.585776e+00	7.943282e+00	2.639269e+02	5.946364e+00	5.946364e+00
7.943282e+00	8.317638e+00	2.371995e+02	5.517710e+00	5.517710e+00
8.317638e+00	8.709636e+00	2.211919e+02	5.224748e+00	5.224748e+00
8.709636e+00	9.120108e+00	1.834590e+02	4.627973e+00	4.627973e+00
9.120108e+00	9.549926e+00	1.689800e+02	4.348035e+00	4.348035e+00
9.549926e+00	1.000000e+01	1.447070e+02	3.940118e+00	3.940118e+00
1.000000e+01	1.047129e+01	1.196172e+02	3.514994e+00	3.514994e+00
1.047129e+01	1.096478e+01	1.044133e+02	3.204284e+00	3.204284e+00
1.096478e+01	1.148154e+01	9.296838e+01	2.947032e+00	2.947032e+00
1.148154e+01	1.202264e+01	7.425420e+01	2.581077e+00	2.581077e+00
1.202264e+01	1.258925e+01	6.531664e+01	2.353727e+00	2.353727e+00
1.258925e+01	1.318257e+01	5.533461e+01	2.136499e+00	2.136499e+00
1.318257e+01	1.380384e+01	4.652439e+01	1.909940e+00	1.909940e+00
1.380384e+01	1.445440e+01	3.783533e+01	1.681856e+00	1.681856e+00
1.445440e+01	1.513561e+01	3.125766e+01	1.512374e+00	1.512374e+00
1.513561e+01	1.584893e+01	2.513800e+01	1.315450e+00	1.315450e+00
1.584893e+01	1.659587e+01	2.230218e+01	1.222091e+00	1.222091e+00
1.659587e+01	1.737801e+01	1.686462e+01	1.026607e+00	1.026607e+00
1.737801e+01	1.819701e+01	1.654288e+01	1.022524e+00	1.022524e+00
1.819701e+01	1.905461e+01	9.627613e+00	7.366683e-01	7.366683e-01
1.905461e+01	1.995262e+01	1.066156e+01	7.632574e-01	7.632574e-01
1.995262e+01	2.089296e+01	8.681529e+00	6.739926e-01	6.739926e-01
2.089296e+01	2.187762e+01	6.248407e+00	5.657590e-01	5.657590e-01
2.187762e+01	2.290868e+01	5.157188e+00	5.117175e-01	5.117175e-01
2.290868e+01	2.398833e+01	3.310855e+00	3.863102e-01	3.863102e-01
2.398833e+01	2.511886e+01	2.832047e+00	3.382456e-01	3.382456e-01
2.511886e+01	2.630268e+01	2.307653e+00	2.996582e-01	2.996582e-01
2.630268e+01	2.754229e+01	2.105248e+00	3.006240e-01	3.006240e-01
2.754229e+01	2.884032e+01	2.034827e+00	2.775633e-01	2.775633e-01
2.884032e+01	3.019952e+01	1.272384e+00	2.178310e-01	2.178310e-01
3.019952e+01	3.162278e+01	8.202711e-01	1.631663e-01	1.631663e-01
3.162278e+01	3.311311e+01	7.596103e-01	1.589500e-01	1.589500e-01
3.311311e+01	3.467369e+01	7.346756e-01	1.615032e-01	1.615032e-01
3.467369e+01	3.630781e+01	5.054052e-01	1.244025e-01	1.244025e-01
3.630781e+01	3.801894e+01	3.705762e-01	9.884480e-02	9.884480e-02
3.801894e+01	3.981072e+01	5.525784e-01	1.210386e-01	1.210386e-01
3.981072e+01	4.168694e+01	2.894011e-01	9.207905e-02	9.207905e-02
4.168694e+01	4.365158e+01	2.097962e-01	8.069232e-02	8.069232e-02
4.365158e+01	4.570882e+01	2.573007e-01	7.622422e-02	7.622422e-02
4.570882e+01	4.786301e+01	7.584944e-02	3.912657e-02	3.912657e-02
4.786301e+01	5.011872e+01	6.347013e-02	4.492136e-02	4.492136e-02
5.011872e+01	5.248075e+01	1.278861e-01	5.504274e-02	5.504274e-02
5.248075e+01	5.495409e+01	9.583296e-02	4.983537e-02	4.983537e-02
5.495409e+01	5.754399e+01	9.328437e-02	4.369757e-02	4.369757e-02
5.754399e+01	6.025596e+01	5.074134e-02	2.996943e-02	2.996943e-02
6.025596e+01	6.309573e+01	1.116365e-02	1.116365e-02	1.116365e-02
6.309573e+01	6.606934e+01	4.156540e-02	2.940597e-02	2.940597e-02
6.606934e+01	6.918310e+01	2.719607e-02	1.944136e-02	1.944136e-02
6.918310e+01	7.244360e+01	1.297546e-02	1.297546e-02	1.297546e-02
7.244360e+01	7.585776e+01	0.000000e+00	0.000000e+00	0.000000e+00
7.585776e+01	7.943282e+01	3.662766e-02	2.714317e-02	2.714317e-02
7.943282e+01	8.317638e+01	0.000000e+00	0.000000e+00	0.000000e+00
8.317638e+01	8.709636e+01	1.251435e-02	1.251435e-02	1.251435e-02
8.709636e+01	9.120108e+01	0.000000e+00	0.000000e+00	0.000000e+00
9.120108e+01	9.549926e+01	8.766736e-03	8.766738e-03	8.766738e-03
9.549926e+01	1.000000e+02	8.818532e-03	8.818533e-03	8.818533e-03
# END HISTO1D


# BEGIN HISTO1D //eos/home-y/yilinz/genVal_eos/genValidation/MGv356_wellnu0123j_5f_LO_MLM.yoda/MC_WJETS:ENERGY=13600/jet_mass_1
ErrorBars=1
LineColor=blue
LineStyle=solid
Path=//eos/home-y/yilinz/genVal_eos/genValidation/MGv356_wellnu0123j_5f_LO_MLM.yoda/MC_WJETS:ENERGY=13600/jet_mass_1
ScaledBy=4.45096330159377579e-02
Title=W+0123j@LO(v356)
# xlow	 xhigh	 val	 errminus	 errplus
1.000000e+00	1.047129e+00	1.888843e+01	4.223581e+00	4.223581e+00
1.047129e+00	1.096478e+00	1.262710e+01	3.374735e+00	3.374735e+00
1.096478e+00	1.148154e+00	1.033585e+01	2.983704e+00	2.983704e+00
1.148154e+00	1.202264e+00	1.562896e+01	3.585529e+00	3.585529e+00
1.202264e+00	1.258925e+00	1.649640e+01	3.599809e+00	3.599809e+00
1.258925e+00	1.318257e+00	1.350323e+01	3.182741e+00	3.182741e+00
1.318257e+00	1.380384e+00	2.220933e+01	3.988912e+00	3.988912e+00
1.380384e+00	1.445440e+00	3.078783e+01	4.589580e+00	4.589580e+00
1.445440e+00	1.513561e+00	3.136275e+01	4.526824e+00	4.526824e+00
1.513561e+00	1.584893e+00	3.182290e+01	4.456098e+00	4.456098e+00
1.584893e+00	1.659587e+00	3.932894e+01	4.841058e+00	4.841058e+00
1.659587e+00	1.737801e+00	3.186819e+01	4.258567e+00	4.258567e+00
1.737801e+00	1.819701e+00	3.858589e+01	4.579302e+00	4.579302e+00
1.819701e+00	1.905461e+00	4.826721e+01	5.005077e+00	5.005077e+00
1.905461e+00	1.995262e+00	3.816485e+01	4.349289e+00	4.349289e+00
1.995262e+00	2.089296e+00	5.538026e+01	5.119907e+00	5.119907e+00
2.089296e+00	2.187762e+00	5.424366e+01	4.951746e+00	4.951746e+00
2.187762e+00	2.290868e+00	5.741452e+01	4.978470e+00	4.978470e+00
2.290868e+00	2.398833e+00	7.132096e+01	5.422432e+00	5.422432e+00
2.398833e+00	2.511886e+00	7.637895e+01	5.483688e+00	5.483688e+00
2.511886e+00	2.630268e+00	8.008440e+01	5.487293e+00	5.487293e+00
2.630268e+00	2.754229e+00	9.586943e+01	5.867115e+00	5.867115e+00
2.754229e+00	2.884032e+00	1.069853e+02	6.056847e+00	6.056847e+00
2.884032e+00	3.019952e+00	1.231285e+02	6.349866e+00	6.349866e+00
3.019952e+00	3.162278e+00	1.416667e+02	6.656085e+00	6.656085e+00
3.162278e+00	3.311311e+00	1.520160e+02	6.737993e+00	6.737993e+00
3.311311e+00	3.467369e+00	1.591484e+02	6.737288e+00	6.737288e+00
3.467369e+00	3.630781e+00	2.001969e+02	7.384375e+00	7.384375e+00
3.630781e+00	3.801894e+00	2.127768e+02	7.439567e+00	7.439567e+00
3.801894e+00	3.981072e+00	2.342507e+02	7.628254e+00	7.628254e+00
3.981072e+00	4.168694e+00	2.415005e+02	7.569098e+00	7.569098e+00
4.168694e+00	4.365158e+00	2.768485e+02	7.919661e+00	7.919661e+00
4.365158e+00	4.570882e+00	2.747722e+02	7.710293e+00	7.710293e+00
4.570882e+00	4.786301e+00	2.993908e+02	7.865100e+00	7.865100e+00
4.786301e+00	5.011872e+00	3.188689e+02	7.932160e+00	7.932160e+00
5.011872e+00	5.248075e+00	3.248672e+02	7.824151e+00	7.824151e+00
5.248075e+00	5.495409e+00	3.564960e+02	8.009630e+00	8.009630e+00
5.495409e+00	5.754399e+00	3.531692e+02	7.790708e+00	7.790708e+00
5.754399e+00	6.025596e+00	3.559825e+02	7.643617e+00	7.643617e+00
6.025596e+00	6.309573e+00	3.432535e+02	7.334878e+00	7.334878e+00
6.309573e+00	6.606934e+00	3.270555e+02	6.996740e+00	6.996740e+00
6.606934e+00	6.918310e+00	3.169090e+02	6.730568e+00	6.730568e+00
6.918310e+00	7.244360e+00	2.999161e+02	6.398598e+00	6.398598e+00
7.244360e+00	7.585776e+00	2.872001e+02	6.118957e+00	6.118957e+00
7.585776e+00	7.943282e+00	2.661818e+02	5.756713e+00	5.756713e+00
7.943282e+00	8.317638e+00	2.381498e+02	5.321201e+00	5.321201e+00
8.317638e+00	8.709636e+00	2.213003e+02	5.012750e+00	5.012750e+00
8.709636e+00	9.120108e+00	1.912798e+02	4.554281e+00	4.554281e+00
9.120108e+00	9.549926e+00	1.613381e+02	4.087456e+00	4.087456e+00
9.549926e+00	1.000000e+01	1.517035e+02	3.873315e+00	3.873315e+00
1.000000e+01	1.047129e+01	1.193749e+02	3.357680e+00	3.357680e+00
1.047129e+01	1.096478e+01	1.115695e+02	3.172200e+00	3.172200e+00
1.096478e+01	1.148154e+01	9.164457e+01	2.809544e+00	2.809544e+00
1.148154e+01	1.202264e+01	7.575932e+01	2.496355e+00	2.496355e+00
1.202264e+01	1.258925e+01	6.197932e+01	2.206522e+00	2.206522e+00
1.258925e+01	1.318257e+01	5.363782e+01	2.005941e+00	2.005941e+00
1.318257e+01	1.380384e+01	4.628136e+01	1.820916e+00	1.820916e+00
1.380384e+01	1.445440e+01	3.756116e+01	1.603071e+00	1.603071e+00
1.445440e+01	1.513561e+01	3.084005e+01	1.419528e+00	1.419528e+00
1.513561e+01	1.584893e+01	2.495913e+01	1.247957e+00	1.247957e+00
1.584893e+01	1.659587e+01	2.043912e+01	1.103609e+00	1.103609e+00
1.659587e+01	1.737801e+01	1.769824e+01	1.003575e+00	1.003575e+00
1.737801e+01	1.819701e+01	1.516263e+01	9.077625e-01	9.077625e-01
1.819701e+01	1.905461e+01	1.219655e+01	7.956153e-01	7.956153e-01
1.905461e+01	1.995262e+01	9.119912e+00	6.723289e-01	6.723289e-01
1.995262e+01	2.089296e+01	7.857370e+00	6.098501e-01	6.098501e-01
2.089296e+01	2.187762e+01	6.192818e+00	5.290881e-01	5.290881e-01
2.187762e+01	2.290868e+01	5.784621e+00	4.997151e-01	4.997151e-01
2.290868e+01	2.398833e+01	3.751565e+00	3.932708e-01	3.932708e-01
2.398833e+01	2.511886e+01	3.543353e+00	3.735022e-01	3.735022e-01
2.511886e+01	2.630268e+01	2.293497e+00	2.936523e-01	2.936523e-01
2.630268e+01	2.754229e+01	1.759402e+00	2.513431e-01	2.513431e-01
2.754229e+01	2.884032e+01	1.268735e+00	2.085788e-01	2.085788e-01
2.884032e+01	3.019952e+01	9.824080e-01	1.793623e-01	1.793623e-01
3.019952e+01	3.162278e+01	9.381905e-01	1.712894e-01	1.712894e-01
3.162278e+01	3.311311e+01	9.855656e-01	1.715649e-01	1.715649e-01
3.311311e+01	3.467369e+01	4.848606e-01	1.175960e-01	1.175960e-01
3.467369e+01	3.630781e+01	3.268521e-01	9.435408e-02	9.435408e-02
3.630781e+01	3.801894e+01	3.381539e-01	9.378701e-02	9.378701e-02
3.801894e+01	3.981072e+01	3.229332e-01	8.956556e-02	8.956556e-02
3.981072e+01	4.168694e+01	1.897843e-01	6.709888e-02	6.709888e-02
4.168694e+01	4.365158e+01	2.265536e-01	7.164254e-02	7.164254e-02
4.365158e+01	4.570882e+01	8.654241e-02	4.327121e-02	4.327121e-02
4.570882e+01	4.786301e+01	1.033095e-01	4.620139e-02	4.620139e-02
4.786301e+01	5.011872e+01	1.973198e-01	6.239800e-02	6.239800e-02
5.011872e+01	5.248075e+01	7.537521e-02	3.768761e-02	3.768761e-02
5.248075e+01	5.495409e+01	8.997881e-02	4.023974e-02	4.023974e-02
5.495409e+01	5.754399e+01	5.155755e-02	2.976676e-02	2.976676e-02
5.754399e+01	6.025596e+01	4.923686e-02	2.842692e-02	2.842692e-02
6.025596e+01	6.309573e+01	3.134735e-02	2.216592e-02	2.216592e-02
6.309573e+01	6.606934e+01	1.496821e-02	1.496821e-02	1.496821e-02
6.606934e+01	6.918310e+01	2.858900e-02	2.021547e-02	2.021547e-02
6.918310e+01	7.244360e+01	0.000000e+00	0.000000e+00	0.000000e+00
7.244360e+01	7.585776e+01	1.303677e-02	1.303677e-02	1.303677e-02
7.585776e+01	7.943282e+01	1.245004e-02	1.245004e-02	1.245004e-02
7.943282e+01	8.317638e+01	1.188965e-02	1.188965e-02	1.188965e-02
8.317638e+01	8.709636e+01	0.000000e+00	0.000000e+00	0.000000e+00
8.709636e+01	9.120108e+01	0.000000e+00	0.000000e+00	0.000000e+00
9.120108e+01	9.549926e+01	0.000000e+00	0.000000e+00	0.000000e+00
9.549926e+01	1.000000e+02	0.000000e+00	0.000000e+00	0.000000e+00
# END HISTO1D

