# BEGIN PLOT
Legend=1
LogY=1
Title=Mass of fourth jet
XLabel=$m(\mathrm{jet~4})$ [GeV]
YLabel=$\mathrm{d}\sigma/\mathrm{d}m(\mathrm{jet~4})$ [pb/GeV]
RemoveOptions=1
DrawOnly=//afs/cern.ch/user/y/yilinz/work/genVal_eos/genValidation/MGv2_LO_May26.yoda/MC_JETS:ENERGY=13600/jet_mass_4 //afs/cern.ch/user/y/yilinz/work/genVal_eos/genValidation/MGv356_wellnu01j_5f_LO_MLM.yoda/MC_JETS:ENERGY=13600/jet_mass_4 //afs/cern.ch/user/y/yilinz/work/genVal_eos/genValidation/MGv3_LO_May26.yoda/MC_JETS:ENERGY=13600/jet_mass_4
LegendOnly=//afs/cern.ch/user/y/yilinz/work/genVal_eos/genValidation/MGv2_LO_May26.yoda/MC_JETS:ENERGY=13600/jet_mass_4 //afs/cern.ch/user/y/yilinz/work/genVal_eos/genValidation/MGv356_wellnu01j_5f_LO_MLM.yoda/MC_JETS:ENERGY=13600/jet_mass_4 //afs/cern.ch/user/y/yilinz/work/genVal_eos/genValidation/MGv3_LO_May26.yoda/MC_JETS:ENERGY=13600/jet_mass_4
RatioPlot=1
RatioPlotReference=//afs/cern.ch/user/y/yilinz/work/genVal_eos/genValidation/MGv2_LO_May26.yoda/MC_JETS:ENERGY=13600/jet_mass_4
RatioPlotYLabel=Ratio
# END PLOT

# BEGIN HISTO1D //afs/cern.ch/user/y/yilinz/work/genVal_eos/genValidation/MGv2_LO_May26.yoda/MC_JETS:ENERGY=13600/jet_mass_4
ErrorBars=1
LineColor=red
LineStyle=solid
Path=//afs/cern.ch/user/y/yilinz/work/genVal_eos/genValidation/MGv2_LO_May26.yoda/MC_JETS:ENERGY=13600/jet_mass_4
ScaledBy=9.16691122462594127e-02
Title=W+01j@LO(v2918)
# xlow	 xhigh	 val	 errminus	 errplus
1.000000e+00	1.202264e+00	1.449749e+01	2.609279e+00	2.609279e+00
1.202264e+00	1.445440e+00	1.634214e+01	2.497290e+00	2.497290e+00
1.445440e+00	1.737801e+00	2.351251e+01	2.830755e+00	2.830755e+00
1.737801e+00	2.089296e+00	3.470795e+01	3.069744e+00	3.069744e+00
2.089296e+00	2.511886e+00	3.202089e+01	2.741853e+00	2.741853e+00
2.511886e+00	3.019952e+00	4.265288e+01	2.822165e+00	2.822165e+00
3.019952e+00	3.630781e+00	7.328740e+01	3.423108e+00	3.423108e+00
3.630781e+00	4.365158e+00	9.007367e+01	3.430299e+00	3.430299e+00
4.365158e+00	5.248075e+00	1.267113e+02	3.706115e+00	3.706115e+00
5.248075e+00	6.309573e+00	1.398656e+02	3.557377e+00	3.557377e+00
6.309573e+00	7.585776e+00	1.103714e+02	2.907386e+00	2.907386e+00
7.585776e+00	9.120108e+00	6.417678e+01	2.017420e+00	2.017420e+00
9.120108e+00	1.096478e+01	2.620625e+01	1.205844e+00	1.205844e+00
1.096478e+01	1.318257e+01	5.974560e+00	5.078832e-01	5.078832e-01
1.318257e+01	1.584893e+01	1.194734e+00	2.115964e-01	2.115964e-01
1.584893e+01	1.905461e+01	2.077731e-01	8.194369e-02	8.194369e-02
1.905461e+01	2.290868e+01	0.000000e+00	0.000000e+00	0.000000e+00
2.290868e+01	2.754229e+01	0.000000e+00	0.000000e+00	0.000000e+00
2.754229e+01	3.311311e+01	0.000000e+00	0.000000e+00	0.000000e+00
3.311311e+01	3.981072e+01	0.000000e+00	0.000000e+00	0.000000e+00
3.981072e+01	4.786301e+01	0.000000e+00	0.000000e+00	0.000000e+00
4.786301e+01	5.754399e+01	0.000000e+00	0.000000e+00	0.000000e+00
5.754399e+01	6.918310e+01	0.000000e+00	0.000000e+00	0.000000e+00
6.918310e+01	8.317638e+01	0.000000e+00	0.000000e+00	0.000000e+00
8.317638e+01	1.000000e+02	0.000000e+00	0.000000e+00	0.000000e+00
# END HISTO1D


# BEGIN HISTO1D //afs/cern.ch/user/y/yilinz/work/genVal_eos/genValidation/MGv356_wellnu01j_5f_LO_MLM.yoda/MC_JETS:ENERGY=13600/jet_mass_4
ErrorBars=1
LineColor=blue
LineStyle=solid
Path=//afs/cern.ch/user/y/yilinz/work/genVal_eos/genValidation/MGv356_wellnu01j_5f_LO_MLM.yoda/MC_JETS:ENERGY=13600/jet_mass_4
ScaledBy=9.16697387419116716e-02
Title=W+01j@LO(v356)
# xlow	 xhigh	 val	 errminus	 errplus
1.000000e+00	1.202264e+00	1.631586e+01	2.719310e+00	2.719310e+00
1.202264e+00	1.445440e+00	1.696359e+01	2.528783e+00	2.528783e+00
1.445440e+00	1.737801e+00	2.163494e+01	2.604540e+00	2.604540e+00
1.737801e+00	2.089296e+00	2.999195e+01	2.796764e+00	2.796764e+00
2.089296e+00	2.511886e+00	2.733238e+01	2.434961e+00	2.434961e+00
2.511886e+00	3.019952e+00	4.871578e+01	2.964748e+00	2.964748e+00
3.019952e+00	3.630781e+00	6.288113e+01	3.071944e+00	3.071944e+00
3.630781e+00	4.365158e+00	9.511782e+01	3.445755e+00	3.445755e+00
4.365158e+00	5.248075e+00	1.309245e+02	3.686919e+00	3.686919e+00
5.248075e+00	6.309573e+00	1.430966e+02	3.515346e+00	3.515346e+00
6.309573e+00	7.585776e+00	1.101155e+02	2.812401e+00	2.812401e+00
7.585776e+00	9.120108e+00	6.333044e+01	1.945179e+00	1.945179e+00
9.120108e+00	1.096478e+01	2.494655e+01	1.113419e+00	1.113419e+00
1.096478e+01	1.318257e+01	7.564089e+00	5.591535e-01	5.591535e-01
1.318257e+01	1.584893e+01	1.306444e+00	2.119332e-01	2.119332e-01
1.584893e+01	1.905461e+01	4.003444e-01	1.069966e-01	1.069966e-01
1.905461e+01	2.290868e+01	0.000000e+00	0.000000e+00	0.000000e+00
2.290868e+01	2.754229e+01	0.000000e+00	0.000000e+00	0.000000e+00
2.754229e+01	3.311311e+01	0.000000e+00	0.000000e+00	0.000000e+00
3.311311e+01	3.981072e+01	0.000000e+00	0.000000e+00	0.000000e+00
3.981072e+01	4.786301e+01	0.000000e+00	0.000000e+00	0.000000e+00
4.786301e+01	5.754399e+01	0.000000e+00	0.000000e+00	0.000000e+00
5.754399e+01	6.918310e+01	0.000000e+00	0.000000e+00	0.000000e+00
6.918310e+01	8.317638e+01	0.000000e+00	0.000000e+00	0.000000e+00
8.317638e+01	1.000000e+02	0.000000e+00	0.000000e+00	0.000000e+00
# END HISTO1D


# BEGIN HISTO1D //afs/cern.ch/user/y/yilinz/work/genVal_eos/genValidation/MGv3_LO_May26.yoda/MC_JETS:ENERGY=13600/jet_mass_4
ErrorBars=1
LineColor=green
LineStyle=solid
Path=//afs/cern.ch/user/y/yilinz/work/genVal_eos/genValidation/MGv3_LO_May26.yoda/MC_JETS:ENERGY=13600/jet_mass_4
ScaledBy=9.17074108417636480e-02
Title=W+01j@LO(v352)
# xlow	 xhigh	 val	 errminus	 errplus
1.000000e+00	1.202264e+00	1.813618e+01	2.867582e+00	2.867582e+00
1.202264e+00	1.445440e+00	2.187317e+01	2.872088e+00	2.872088e+00
1.445440e+00	1.737801e+00	2.791740e+01	2.959239e+00	2.959239e+00
1.737801e+00	2.089296e+00	2.582977e+01	2.595989e+00	2.595989e+00
2.089296e+00	2.511886e+00	3.341996e+01	2.693057e+00	2.693057e+00
2.511886e+00	3.019952e+00	4.512573e+01	2.854002e+00	2.854002e+00
3.019952e+00	3.630781e+00	5.915358e+01	2.980114e+00	2.980114e+00
3.630781e+00	4.365158e+00	1.023998e+02	3.575957e+00	3.575957e+00
4.365158e+00	5.248075e+00	1.311862e+02	3.691358e+00	3.691358e+00
5.248075e+00	6.309573e+00	1.517948e+02	3.621356e+00	3.621356e+00
6.309573e+00	7.585776e+00	1.139693e+02	2.861781e+00	2.861781e+00
7.585776e+00	9.120108e+00	6.479095e+01	1.967885e+00	1.967885e+00
9.120108e+00	1.096478e+01	2.396251e+01	1.091462e+00	1.091462e+00
1.096478e+01	1.318257e+01	6.285325e+00	5.098070e-01	5.098070e-01
1.318257e+01	1.584893e+01	1.066221e+00	1.914990e-01	1.914990e-01
1.584893e+01	1.905461e+01	3.146858e-01	9.488130e-02	9.488130e-02
1.905461e+01	2.290868e+01	9.517980e-02	4.758991e-02	4.758991e-02
2.290868e+01	2.754229e+01	0.000000e+00	0.000000e+00	0.000000e+00
2.754229e+01	3.311311e+01	0.000000e+00	0.000000e+00	0.000000e+00
3.311311e+01	3.981072e+01	0.000000e+00	0.000000e+00	0.000000e+00
3.981072e+01	4.786301e+01	0.000000e+00	0.000000e+00	0.000000e+00
4.786301e+01	5.754399e+01	0.000000e+00	0.000000e+00	0.000000e+00
5.754399e+01	6.918310e+01	0.000000e+00	0.000000e+00	0.000000e+00
6.918310e+01	8.317638e+01	0.000000e+00	0.000000e+00	0.000000e+00
8.317638e+01	1.000000e+02	0.000000e+00	0.000000e+00	0.000000e+00
# END HISTO1D

