# BEGIN PLOT
Legend=1
LogY=1
Title=
XLabel=$\Delta{\eta}(\mathrm{W,~1st~jet})$
YLabel=$\mathrm{d}\sigma/\mathrm{d}\Delta{\eta}(\mathrm{W,~1st~jet})$ [pb]
RemoveOptions=1
DrawOnly=//eos/home-y/yilinz/genVal_eos/genValidation/MGv2918wellnu012j_5f_NLO_FXFX_newtest.yoda/MC_WJETS:ENERGY=13600/W_jet1_deta //eos/home-y/yilinz/genVal_eos/genValidation/MGv356wellnu012j_5f_NLO_FXFX_newtest.yoda/MC_WJETS:ENERGY=13600/W_jet1_deta
LegendOnly=//eos/home-y/yilinz/genVal_eos/genValidation/MGv2918wellnu012j_5f_NLO_FXFX_newtest.yoda/MC_WJETS:ENERGY=13600/W_jet1_deta //eos/home-y/yilinz/genVal_eos/genValidation/MGv356wellnu012j_5f_NLO_FXFX_newtest.yoda/MC_WJETS:ENERGY=13600/W_jet1_deta
RatioPlot=1
RatioPlotReference=//eos/home-y/yilinz/genVal_eos/genValidation/MGv2918wellnu012j_5f_NLO_FXFX_newtest.yoda/MC_WJETS:ENERGY=13600/W_jet1_deta
RatioPlotYLabel=Ratio
# END PLOT

# BEGIN HISTO1D //eos/home-y/yilinz/genVal_eos/genValidation/MGv2918wellnu012j_5f_NLO_FXFX_newtest.yoda/MC_WJETS:ENERGY=13600/W_jet1_deta
ErrorBars=1
LineColor=red
LineStyle=solid
Path=//eos/home-y/yilinz/genVal_eos/genValidation/MGv2918wellnu012j_5f_NLO_FXFX_newtest.yoda/MC_WJETS:ENERGY=13600/W_jet1_deta
ScaledBy=9.95273825490549440e-07
Title=W+012j@NLO(v2918)
# xlow	 xhigh	 val	 errminus	 errplus
-5.000000e+00	-4.800000e+00	6.221940e+01	1.079222e+01	1.079222e+01
-4.800000e+00	-4.600000e+00	1.028363e+02	1.253271e+01	1.253271e+01
-4.600000e+00	-4.400000e+00	8.764185e+01	1.254432e+01	1.254432e+01
-4.400000e+00	-4.200000e+00	1.066809e+02	1.398696e+01	1.398696e+01
-4.200000e+00	-4.000000e+00	1.071170e+02	1.355199e+01	1.355199e+01
-4.000000e+00	-3.800000e+00	1.336850e+02	1.445967e+01	1.445967e+01
-3.800000e+00	-3.600000e+00	1.631457e+02	1.623626e+01	1.623626e+01
-3.600000e+00	-3.400000e+00	1.726068e+02	1.693630e+01	1.693630e+01
-3.400000e+00	-3.200000e+00	1.898209e+02	1.765432e+01	1.765432e+01
-3.200000e+00	-3.000000e+00	2.117733e+02	1.954571e+01	1.954571e+01
-3.000000e+00	-2.800000e+00	2.368581e+02	2.001839e+01	2.001839e+01
-2.800000e+00	-2.600000e+00	2.843710e+02	2.205614e+01	2.205614e+01
-2.600000e+00	-2.400000e+00	2.879719e+02	2.203653e+01	2.203653e+01
-2.400000e+00	-2.200000e+00	3.192526e+02	2.334740e+01	2.334740e+01
-2.200000e+00	-2.000000e+00	3.591200e+02	2.438767e+01	2.438767e+01
-2.000000e+00	-1.800000e+00	3.658406e+02	2.494647e+01	2.494647e+01
-1.800000e+00	-1.600000e+00	3.970267e+02	2.602852e+01	2.602852e+01
-1.600000e+00	-1.400000e+00	3.901158e+02	2.616948e+01	2.616948e+01
-1.400000e+00	-1.200000e+00	3.955899e+02	2.745795e+01	2.745795e+01
-1.200000e+00	-1.000000e+00	4.458682e+02	2.778182e+01	2.778182e+01
-1.000000e+00	-8.000000e-01	4.969295e+02	2.844385e+01	2.844385e+01
-8.000000e-01	-6.000000e-01	5.095465e+02	2.913407e+01	2.913407e+01
-6.000000e-01	-4.000000e-01	4.756042e+02	2.926055e+01	2.926055e+01
-4.000000e-01	-2.000000e-01	4.929913e+02	2.908010e+01	2.908010e+01
-2.000000e-01	0.000000e+00	4.168668e+02	2.893748e+01	2.893748e+01
0.000000e+00	2.000000e-01	4.877364e+02	2.977034e+01	2.977034e+01
2.000000e-01	4.000000e-01	4.996243e+02	2.937610e+01	2.937610e+01
4.000000e-01	6.000000e-01	5.259390e+02	2.900988e+01	2.900988e+01
6.000000e-01	8.000000e-01	4.138729e+02	2.832555e+01	2.832555e+01
8.000000e-01	1.000000e+00	4.532217e+02	2.786080e+01	2.786080e+01
1.000000e+00	1.200000e+00	4.223264e+02	2.730250e+01	2.730250e+01
1.200000e+00	1.400000e+00	4.082059e+02	2.686818e+01	2.686818e+01
1.400000e+00	1.600000e+00	4.133315e+02	2.568969e+01	2.568969e+01
1.600000e+00	1.800000e+00	3.487642e+02	2.590719e+01	2.590719e+01
1.800000e+00	2.000000e+00	3.767649e+02	2.540576e+01	2.540576e+01
2.000000e+00	2.200000e+00	3.667470e+02	2.431373e+01	2.431373e+01
2.200000e+00	2.400000e+00	3.124348e+02	2.278781e+01	2.278781e+01
2.400000e+00	2.600000e+00	2.651769e+02	2.219375e+01	2.219375e+01
2.600000e+00	2.800000e+00	2.815535e+02	2.181903e+01	2.181903e+01
2.800000e+00	3.000000e+00	2.419238e+02	2.027304e+01	2.027304e+01
3.000000e+00	3.200000e+00	2.419393e+02	1.923030e+01	1.923030e+01
3.200000e+00	3.400000e+00	1.675333e+02	1.716151e+01	1.716151e+01
3.400000e+00	3.600000e+00	1.831659e+02	1.769902e+01	1.769902e+01
3.600000e+00	3.800000e+00	1.459351e+02	1.549749e+01	1.549749e+01
3.800000e+00	4.000000e+00	1.443684e+02	1.542226e+01	1.542226e+01
4.000000e+00	4.200000e+00	1.265781e+02	1.412412e+01	1.412412e+01
4.200000e+00	4.400000e+00	1.044634e+02	1.334708e+01	1.334708e+01
4.400000e+00	4.600000e+00	8.137330e+01	1.209790e+01	1.209790e+01
4.600000e+00	4.800000e+00	8.187000e+01	1.156362e+01	1.156362e+01
4.800000e+00	5.000000e+00	7.881120e+01	1.130203e+01	1.130203e+01
# END HISTO1D


# BEGIN HISTO1D //eos/home-y/yilinz/genVal_eos/genValidation/MGv356wellnu012j_5f_NLO_FXFX_newtest.yoda/MC_WJETS:ENERGY=13600/W_jet1_deta
ErrorBars=1
LineColor=blue
LineStyle=solid
Path=//eos/home-y/yilinz/genVal_eos/genValidation/MGv356wellnu012j_5f_NLO_FXFX_newtest.yoda/MC_WJETS:ENERGY=13600/W_jet1_deta
ScaledBy=1.00429623479435656e-06
Title=W+012j@NLO(v356)
# xlow	 xhigh	 val	 errminus	 errplus
-5.000000e+00	-4.800000e+00	8.419950e+01	1.159001e+01	1.159001e+01
-4.800000e+00	-4.600000e+00	7.888165e+01	1.159001e+01	1.159001e+01
-4.600000e+00	-4.400000e+00	9.572155e+01	1.320573e+01	1.320573e+01
-4.400000e+00	-4.200000e+00	1.090162e+02	1.329465e+01	1.329465e+01
-4.200000e+00	-4.000000e+00	1.302876e+02	1.426382e+01	1.426382e+01
-4.000000e+00	-3.800000e+00	1.675127e+02	1.527440e+01	1.527440e+01
-3.800000e+00	-3.600000e+00	1.294014e+02	1.614934e+01	1.614934e+01
-3.600000e+00	-3.400000e+00	1.683990e+02	1.718619e+01	1.718619e+01
-3.400000e+00	-3.200000e+00	1.799210e+02	1.761507e+01	1.761507e+01
-3.200000e+00	-3.000000e+00	2.268954e+02	1.905052e+01	1.905052e+01
-3.000000e+00	-2.800000e+00	2.295544e+02	2.053870e+01	2.053870e+01
-2.800000e+00	-2.600000e+00	2.951414e+02	2.151015e+01	2.151015e+01
-2.600000e+00	-2.400000e+00	2.517121e+02	2.228149e+01	2.228149e+01
-2.400000e+00	-2.200000e+00	3.057771e+02	2.285581e+01	2.285581e+01
-2.200000e+00	-2.000000e+00	3.367979e+02	2.420779e+01	2.420779e+01
-2.000000e+00	-1.800000e+00	4.316332e+02	2.576405e+01	2.576405e+01
-1.800000e+00	-1.600000e+00	4.245427e+02	2.600683e+01	2.600683e+01
-1.600000e+00	-1.400000e+00	4.059301e+02	2.694150e+01	2.694150e+01
-1.400000e+00	-1.200000e+00	4.183385e+02	2.717376e+01	2.717376e+01
-1.200000e+00	-1.000000e+00	4.591088e+02	2.822311e+01	2.822311e+01
-1.000000e+00	-8.000000e-01	4.272016e+02	2.844490e+01	2.844490e+01
-8.000000e-01	-6.000000e-01	4.812665e+02	2.829261e+01	2.829261e+01
-6.000000e-01	-4.000000e-01	4.839255e+02	2.885617e+01	2.885617e+01
-4.000000e-01	-2.000000e-01	5.051970e+02	2.896486e+01	2.896486e+01
-2.000000e-01	0.000000e+00	4.121343e+02	2.886978e+01	2.886978e+01
0.000000e+00	2.000000e-01	5.140600e+02	2.944899e+01	2.944899e+01
2.000000e-01	4.000000e-01	4.511320e+02	2.865127e+01	2.865127e+01
4.000000e-01	6.000000e-01	4.936749e+02	2.919448e+01	2.919448e+01
6.000000e-01	8.000000e-01	4.360647e+02	2.866498e+01	2.866498e+01
8.000000e-01	1.000000e+00	4.750624e+02	2.836193e+01	2.836193e+01
1.000000e+00	1.200000e+00	4.342921e+02	2.805561e+01	2.805561e+01
1.200000e+00	1.400000e+00	3.908629e+02	2.704336e+01	2.704336e+01
1.400000e+00	1.600000e+00	4.156795e+02	2.698520e+01	2.698520e+01
1.600000e+00	1.800000e+00	3.642736e+02	2.473743e+01	2.473743e+01
1.800000e+00	2.000000e+00	3.678188e+02	2.533359e+01	2.533359e+01
2.000000e+00	2.200000e+00	2.960277e+02	2.378220e+01	2.378220e+01
2.200000e+00	2.400000e+00	3.438885e+02	2.361647e+01	2.361647e+01
2.400000e+00	2.600000e+00	2.862782e+02	2.208674e+01	2.208674e+01
2.600000e+00	2.800000e+00	2.845057e+02	2.165574e+01	2.165574e+01
2.800000e+00	3.000000e+00	2.206913e+02	2.003532e+01	2.003532e+01
3.000000e+00	3.200000e+00	2.410764e+02	1.937759e+01	1.937759e+01
3.200000e+00	3.400000e+00	1.870115e+02	1.788064e+01	1.788064e+01
3.400000e+00	3.600000e+00	1.577632e+02	1.704852e+01	1.704852e+01
3.600000e+00	3.800000e+00	1.444686e+02	1.592894e+01	1.592894e+01
3.800000e+00	4.000000e+00	1.480138e+02	1.527440e+01	1.527440e+01
4.000000e+00	4.200000e+00	9.926675e+01	1.401380e+01	1.401380e+01
4.200000e+00	4.400000e+00	1.187656e+02	1.445528e+01	1.445528e+01
4.400000e+00	4.600000e+00	8.597210e+01	1.305617e+01	1.305617e+01
4.600000e+00	4.800000e+00	8.419950e+01	1.159001e+01	1.159001e+01
4.800000e+00	5.000000e+00	9.040365e+01	1.135031e+01	1.135031e+01
# END HISTO1D

